200	PA4-H-Output.txt
   21.48    -4.73     24.8	   21.48    -4.74    24.81	   0.004
   -6.79    -25.8   -18.51	   -6.78   -25.81    -18.5	   0.013
   -9.79    -2.69    16.37	    -9.8    -2.69    16.37	   0.012
   -5.89    10.68    57.51	   -5.91    10.69    57.51	   0.016
    4.71    14.06    -6.38	    4.71    14.06    -6.38	   0.001
   11.62    13.63    -11.5	   11.63    13.62   -11.49	   0.013
     1.5    -6.92    53.87	    1.49    -6.95    53.87	   0.029
   -1.76    -7.17    -32.0	   -1.76    -7.17    -32.0	   0.001
   -6.09    11.16      3.9	   -6.09    11.16      3.9	   0.005
   22.95     6.95   -30.12	   22.96     6.95    -30.1	   0.025
  -19.21     7.17   -15.44	  -19.21     7.18   -15.44	   0.008
   21.44    20.51    25.35	   21.43     20.5    25.35	   0.014
  -14.18     4.91    -6.88	  -14.18     4.91    -6.88	   0.003
     8.3   -13.03     4.34	     8.3   -13.03     4.35	   0.004
    3.21   -18.02   -12.66	    3.21   -18.02   -12.66	   0.002
  -15.89   -11.25   -48.53	  -15.89   -11.25   -48.52	   0.013
  -13.73   -18.24   -46.25	  -13.73   -18.24   -46.25	   0.005
   14.26    21.83    46.46	   14.25    21.82    46.46	   0.018
   -9.61    -2.97    16.91	   -9.62    -2.97    16.91	   0.012
    0.06    17.52    56.48	    0.06    17.52    56.48	   0.005
   -6.47     3.52   -32.62	   -6.47     3.52   -32.62	   0.004
   25.15    -8.24     6.11	   25.15    -8.24     6.11	   0.003
   -7.87   -23.79   -39.01	   -7.87   -23.78    -39.0	   0.011
    6.93    22.03    -2.44	    6.92    22.04    -2.44	   0.012
   33.07     7.29    14.07	   33.07     7.29    14.07	   0.005
   33.48    14.93     9.75	   33.49    14.93     9.75	   0.011
   14.07    -9.11    11.83	   14.07    -9.11    11.83	   0.003
  -23.93    10.34   -34.65	  -23.93    10.33   -34.65	   0.003
   -0.37   -15.16   -34.55	   -0.37   -15.16   -34.55	   0.004
  -33.18   -18.11   -43.99	  -33.18   -18.11   -43.99	   0.002
   -3.79    -3.61    57.81	   -3.82    -3.63    57.82	   0.037
   17.68    17.11    56.67	   17.65    17.08    56.67	   0.041
   17.93     0.24    62.44	   17.94     0.23    62.45	   0.018
  -16.18     4.24   -42.98	  -16.19     4.23   -42.98	   0.009
   -2.09   -14.96    -3.18	   -2.09   -14.96    -3.18	   0.005
   14.03   -13.62   -16.88	   14.04   -13.61   -16.87	   0.015
  -34.81   -19.09   -10.76	  -34.81    -19.1   -10.76	   0.007
   -4.57    15.79     9.11	   -4.57    15.78     9.12	   0.009
  -11.47     6.89    17.65	  -11.49     6.88    17.64	   0.024
   22.58    -3.91   -25.78	   22.59    -3.91   -25.76	   0.022
   -0.93   -21.02   -28.66	   -0.93   -21.03   -28.66	   0.007
  -32.48   -25.95   -15.19	  -32.48   -25.95   -15.18	   0.002
  -11.97    19.09    35.65	  -11.99    19.09    35.66	   0.024
   11.95    25.53    -6.32	   11.94    25.53    -6.32	   0.004
     2.2    -6.89   -26.33	     2.2    -6.89   -26.32	   0.002
   31.85     1.05   -25.77	   31.84     1.05   -25.76	    0.01
    3.95    12.93    -6.96	    3.95    12.93    -6.96	    0.01
    2.05    -6.82    43.99	    2.05    -6.83    43.99	   0.011
   24.08     2.88    38.33	   24.07     2.88    38.32	   0.013
    4.23    -2.26    63.34	    4.23    -2.26    63.35	   0.012
  -28.18     4.27   -14.04	  -28.17     4.27   -14.03	   0.011
   20.66     0.91   -25.46	   20.67     0.91   -25.45	   0.014
   17.21     7.11    63.08	   17.22      7.1     63.1	   0.017
   -6.09    10.89    48.65	   -6.11    10.89    48.65	   0.017
   19.16    -4.87    31.24	   19.16    -4.87    31.24	     0.0
    -1.1    -10.8   -35.44	    -1.1    -10.8   -35.44	   0.001
   19.06    -0.86    58.49	   19.05    -0.85    58.48	   0.012
    3.19    -9.14    20.39	    3.19    -9.14    20.39	   0.001
   26.59     7.69    -30.3	   26.59      7.7   -30.27	    0.03
   -6.45     3.05   -35.13	   -6.45     3.05   -35.13	   0.006
   -2.63    -6.04   -35.31	   -2.62    -6.04   -35.31	   0.008
  -15.09   -14.66   -48.11	  -15.09   -14.66    -48.1	   0.006
   19.01    -7.61    13.15	   19.01    -7.61    13.15	   0.001
  -11.46   -29.73   -32.03	  -11.46   -29.73   -32.03	   0.004
  -19.35   -20.31    -6.95	  -19.35   -20.32    -6.94	   0.011
   22.69    14.09    38.11	   22.67    14.08    38.11	   0.019
    8.44    -6.68    34.98	    8.44    -6.68    34.98	   0.001
  -12.19    10.12   -25.65	   -12.2    10.11   -25.65	   0.015
  -26.26     2.15   -44.12	  -26.26     2.14   -44.12	   0.006
   35.66    13.99   -11.32	   35.65    13.98   -11.32	   0.012
  -17.76    -1.09     -1.3	  -17.77    -1.08     -1.3	   0.002
   -0.73   -21.43   -22.73	   -0.73   -21.43   -22.73	   0.002
     2.7   -13.11     1.04	     2.7    -13.1     1.04	   0.008
   -3.94    13.96      5.8	   -3.94    13.95      5.8	   0.004
   -25.3     -9.4    -6.26	   -25.3    -9.39    -6.26	   0.002
  -13.71     4.52    -3.28	  -13.71     4.52    -3.28	   0.005
   17.61    25.32   -20.29	    17.6    25.34   -20.29	   0.021
   -26.3   -24.09   -43.36	   -26.3   -24.09   -43.37	   0.002
   16.22    10.55   -23.04	   16.22    10.55   -23.04	   0.004
   -8.51     2.76    26.71	   -8.53     2.75    26.72	   0.021
   25.13    24.03      2.6	   25.13    24.03      2.6	   0.001
   35.91    -2.61     9.07	    35.9    -2.61     9.07	    0.01
   -34.4   -14.45    -8.13	   -34.4   -14.45    -8.13	   0.007
   -15.7    20.46     25.1	  -15.71    20.47     25.1	   0.009
  -18.27   -28.03   -13.16	  -18.26   -28.04   -13.16	    0.01
   14.96    -0.41    62.96	   14.96    -0.41    62.98	   0.019
  -33.28   -26.96   -17.21	  -33.28   -26.96    -17.2	   0.002
  -23.83    10.71   -33.53	  -23.83     10.7   -33.52	   0.011
   12.38     2.31   -19.77	   12.38      2.3   -19.76	   0.007
   -6.31      9.5    -1.86	   -6.31      9.5    -1.86	   0.001
    6.59   -12.81     4.45	    6.59   -12.81     4.45	   0.001
  -30.78   -30.02   -31.22	  -30.78   -30.02   -31.22	   0.001
  -17.94    -8.19   -48.48	  -17.94    -8.19   -48.48	   0.006
  -27.87     0.85   -12.52	  -27.87     0.85   -12.51	   0.009
  -12.28   -22.48    -10.2	  -12.28   -22.49   -10.19	   0.007
   -6.78    21.23    15.47	   -6.77    21.22    15.48	   0.023
  -17.07   -28.47   -14.35	  -17.07   -28.47   -14.35	   0.004
   24.96    22.85     9.68	   24.96    22.85     9.68	   0.002
   -22.7     3.39   -43.86	   -22.7     3.38   -43.85	   0.013
   28.37    21.99   -12.89	   28.37    21.99   -12.89	     0.0
   16.85     0.43    62.94	   16.85     0.43    62.96	   0.023
   -6.46     1.51    43.36	   -6.48     1.51    43.36	   0.015
   21.62    -5.64    20.56	   21.62    -5.64    20.56	   0.004
    37.4     1.68   -14.73	   37.38     1.68   -14.72	   0.017
   37.88     7.31   -11.17	   37.87      7.3   -11.17	   0.011
   22.25     2.12     46.5	   22.31     2.26    46.44	   0.156
    1.45     0.97   -23.88	    1.45     0.97   -23.88	    0.01
    -9.6     8.23    29.94	   -9.62     8.21    29.95	   0.027
   15.77    -5.91    31.28	   15.78    -5.91    31.28	   0.006
   14.57    -6.07    30.95	   14.57    -6.07    30.95	   0.007
   33.08    14.15    11.43	   33.09    14.15    11.45	    0.02
  -29.23   -14.56    -6.61	  -29.23   -14.56     -6.6	   0.008
   29.68    -3.82    14.17	   29.68    -3.83    14.17	   0.003
   -3.14     0.93   -28.06	   -3.15     0.93   -28.05	   0.009
   -9.77    14.79    13.92	   -9.76    14.79    13.92	   0.008
  -22.61    11.86   -21.59	  -22.61    11.86   -21.59	   0.001
   -5.37    14.22     8.23	   -5.37    14.22     8.23	   0.002
   17.32      4.6    63.05	   17.32      4.6    63.07	   0.021
  -26.04   -32.39    -25.2	  -26.04    -32.4    -25.2	   0.013
   14.04    15.06    63.08	   14.04    15.06     63.1	   0.021
  -27.62   -28.94   -37.29	  -27.61   -28.93   -37.29	   0.004
  -14.87     5.18    -9.78	  -14.87     5.18    -9.78	   0.004
   24.42   -12.71    -3.86	   24.41   -12.71    -3.86	   0.001
  -16.04   -20.99   -45.49	  -16.04   -20.99   -45.49	   0.002
   10.28    26.35     4.65	   10.28    26.36     4.65	   0.011
  -19.19    11.94   -22.07	  -19.19    11.94   -22.07	   0.003
  -31.04      7.1   -16.51	  -31.04     7.11   -16.51	   0.003
    0.12    16.85     3.92	    0.13    16.84     3.92	    0.01
   18.73     5.13    62.69	   18.74     5.14     62.7	   0.016
    -1.0   -20.09   -32.07	   -1.01   -20.09   -32.07	   0.001
   14.51    26.23     9.67	   14.51    26.23     9.67	   0.006
    18.6    12.32    62.94	    18.6    12.32    62.94	   0.001
   34.04    16.89     4.16	   34.03    16.88     4.15	    0.01
     9.3     19.3    60.63	     9.3     19.3    60.63	   0.002
   -3.05    -4.88    45.33	   -3.07    -4.91    45.34	   0.032
  -10.18   -18.83    -7.86	  -10.18   -18.84    -7.86	   0.003
    9.98     -3.6    63.35	    9.98     -3.6    63.37	   0.019
  -14.55    -9.06   -48.08	  -14.55    -9.06   -48.07	   0.002
   -5.55     8.78    -9.76	   -5.55     8.79    -9.76	   0.007
   -4.21    17.29    10.28	   -4.22    17.29    10.28	   0.005
    25.4    15.08   -28.17	    25.4    15.07   -28.15	   0.018
    1.16   -10.95    12.66	    1.15   -10.95    12.66	   0.002
    18.5    -5.41    27.99	    18.5     -5.4    27.99	   0.007
  -11.88   -17.93   -45.48	  -11.88   -17.93   -45.48	   0.005
   -9.14    21.96     35.0	   -9.14    21.96     35.0	   0.003
   -2.65    -5.47     41.8	   -2.66    -5.49     41.8	   0.017
  -18.47   -27.18   -12.08	  -18.47   -27.18   -12.08	   0.008
   38.82    10.31     0.27	   38.82     10.3     0.27	   0.004
   28.88    -1.84    18.19	   28.88    -1.85     18.2	   0.003
    4.52   -15.79    -21.0	    4.51   -15.79    -21.0	   0.006
  -40.75   -20.06   -20.85	  -40.75   -20.06   -20.85	   0.005
   36.07    13.46     7.57	   36.07    13.46     7.58	   0.003
  -24.68    11.94   -26.05	  -24.68    11.93   -26.05	   0.007
    7.91    24.93    14.43	    7.91    24.95    14.43	   0.017
    -3.3   -21.85   -34.93	    -3.3   -21.85   -34.93	   0.003
  -36.56     -6.5   -10.38	  -36.56     -6.5   -10.38	   0.003
   28.04    -9.47     1.73	   28.04    -9.47     1.73	     0.0
   31.72    18.03     9.09	   31.72    18.03     9.09	   0.004
  -18.55    -4.85    -48.0	  -18.56    -4.85    -48.0	   0.003
    7.05   -16.14   -10.11	    7.05   -16.13   -10.11	    0.01
  -11.38     8.77   -31.32	  -11.38     8.77   -31.32	     0.0
   21.07     -0.5     46.7	   21.06     -0.5     46.7	   0.009
  -22.11    -21.9    -45.9	  -22.11    -21.9   -45.89	    0.01
   20.59    -4.12   -24.21	    20.6    -4.12    -24.2	   0.016
   -6.15   -23.55   -15.24	   -6.15   -23.55   -15.23	   0.008
   28.42    20.69    10.04	   28.43     20.7    10.04	   0.012
   31.52    16.01    11.61	   31.53    16.02    11.62	   0.015
   -3.05    -3.98   -32.21	   -3.06    -3.98   -32.21	   0.002
  -13.23    -25.2   -41.77	  -13.23    -25.2   -41.77	   0.004
   16.11    10.36   -25.41	   16.12    10.36   -25.41	   0.004
  -16.43     3.92    -8.65	  -16.25     4.16    -8.89	    0.38
    5.51    13.95    -7.42	    5.51    13.95    -7.42	   0.003
   39.75     7.29    -4.67	   39.75     7.29    -4.67	   0.008
    24.1    22.06    13.75	   24.11    22.06    13.75	   0.003
   24.58    22.34   -22.78	   24.58    22.33   -22.77	   0.011
    6.07    20.63    43.01	    6.07    20.62    43.01	   0.016
   10.03    -9.59   -22.03	   10.03    -9.59   -22.01	   0.014
   -7.96     3.99   -36.49	   -7.96     3.98   -36.49	   0.003
  -11.44   -13.29    -1.85	  -11.45    -13.3    -1.84	   0.009
  -37.71     -7.6   -10.58	  -37.71     -7.6   -10.58	   0.005
   23.43    15.55    31.37	   23.41    15.54    31.37	   0.023
    3.46   -12.61     3.97	    3.45   -12.61     3.97	   0.001
   22.47   -14.29    -4.75	   22.47   -14.29    -4.75	     0.0
  -15.35    13.24    29.52	  -15.37    13.23    29.52	   0.022
   -4.84    12.84     5.41	   -4.84    12.84     5.41	   0.007
   -1.44     9.89    -9.04	   -1.44     9.89    -9.04	   0.003
   -7.91     6.65    33.88	   -7.94     6.64    33.88	   0.035
   11.49    21.72    42.85	   11.49    21.72    42.85	   0.006
  -21.22    -8.79    -3.73	  -21.22    -8.79    -3.72	   0.012
   13.05    -6.13    38.46	   13.05    -6.14    38.46	   0.007
    2.94    23.56    25.51	    2.93    23.55    25.51	   0.016
   -5.47    18.03    12.01	   -5.46    18.02    12.02	   0.017
   31.31    14.61    13.03	   31.31    14.61    13.03	   0.001
  -31.13     5.44    -38.9	  -31.13     5.44    -38.9	   0.003
  -29.19    -17.1   -46.79	  -29.19    -17.1   -46.79	   0.008
  -36.82     2.78   -35.55	  -36.81     2.77   -35.55	   0.013
    7.88    -2.58   -22.48	    7.87    -2.59   -22.46	   0.023
   31.18    16.91    11.24	   31.18    16.92    11.25	   0.014
  -27.66   -20.41   -46.04	  -27.65    -20.4   -46.03	   0.014
   31.75    -7.45    -0.39	   31.75    -7.45    -0.39	    0.01
