200	PA4-D-Output.txt
   -4.59    13.59    53.41	   -4.57    13.58    53.41	   0.017
   -0.58    -16.5   -34.68	   -0.58    -16.5   -34.68	   0.002
   -5.45   -23.12   -15.31	   -5.45   -23.13   -15.31	   0.006
   38.73     2.75   -11.75	   38.72     2.75   -11.74	   0.008
  -10.55    -1.08    15.28	  -10.56    -1.08    15.28	   0.009
    4.66     4.96    63.37	    4.66     4.96    63.39	   0.016
  -24.76    11.36   -21.71	  -24.76    11.35   -21.71	    0.01
  -42.41    -3.71    -20.3	   -42.4    -3.71   -20.31	   0.013
   21.43   -16.55   -12.33	   21.41   -16.52   -12.32	   0.033
    -7.0     3.98    36.27	    -7.0     3.99    36.27	   0.004
  -12.89   -25.25   -41.54	  -12.89   -25.26   -41.55	   0.009
    3.75    -7.29    57.12	    3.75    -7.33    57.12	   0.042
   35.25    -3.29     9.36	   35.23    -3.27     9.35	   0.031
    6.69     -4.4   -22.98	    6.68     -4.4   -22.97	   0.004
   -2.87     -5.8   -34.54	   -2.86     -5.8   -34.54	   0.007
   34.26    -4.83     7.96	   34.24    -4.81     7.95	   0.036
   22.38    14.37    39.57	   22.38    14.37    39.57	   0.002
   28.33    -5.17    -25.9	   28.33    -5.13   -25.86	   0.059
  -40.43   -19.59   -31.58	  -40.41   -19.59   -31.57	   0.022
  -30.25   -30.32   -30.99	  -30.25   -30.33   -30.99	   0.006
   26.62     7.32    29.08	   26.62     7.32    29.08	   0.007
  -33.74     0.85   -12.84	  -33.74     0.85   -12.83	   0.016
   -6.25    -5.25    25.68	   -6.26    -5.25    25.68	   0.002
    27.7     22.8    -0.34	   27.71    22.81    -0.34	   0.013
   27.46      3.3    25.86	   27.47      3.3    25.86	   0.011
   -35.1   -20.75   -12.05	  -35.11   -20.75   -12.04	   0.015
   25.35    -0.93   -28.17	   25.36    -0.91   -28.15	    0.03
  -36.42     5.96   -25.87	  -36.41     5.95   -25.87	   0.011
    6.79    -6.93    49.77	     6.8    -6.95    49.77	    0.02
    2.39    -5.08    -25.7	    2.39    -5.08    -25.7	   0.003
  -24.95   -31.64   -33.18	  -24.95   -31.64   -33.18	   0.002
    -0.4     5.85   -20.75	   -0.41     5.85   -20.75	   0.003
  -15.41    17.48    20.14	   -15.4    17.47    20.15	   0.019
  -15.25    -2.21     4.39	  -15.26    -2.21     4.39	   0.004
   22.93   -14.77    -6.71	   22.92   -14.76    -6.72	   0.019
  -30.72     9.24    -21.0	  -30.72     9.23    -21.0	   0.009
    2.07    18.45    55.88	    2.08    18.43    55.87	   0.022
   34.82    -0.99   -21.28	   34.79    -0.98   -21.27	   0.033
   -1.06   -10.85   -35.26	   -1.05   -10.85   -35.26	   0.008
  -38.74   -14.17   -40.53	  -38.73   -14.17   -40.52	   0.014
   24.78    -9.08     3.89	   24.78    -9.04     3.88	    0.04
   25.26      1.1    30.65	   25.27      1.1    30.65	   0.005
    24.8    -5.36    16.36	   24.79    -5.33    16.36	   0.028
  -42.73   -16.81   -25.43	  -42.73   -16.81   -25.43	   0.001
  -38.41    -4.66   -40.19	   -38.4    -4.66   -40.18	   0.012
  -38.34   -19.03   -14.74	  -38.34   -19.03   -14.74	   0.008
   20.88    18.37    34.31	   20.89    18.37    34.31	   0.002
   -42.0    -7.66   -17.46	  -41.99    -7.66   -17.47	   0.009
   -20.9   -18.94    -6.45	   -20.9   -18.94    -6.44	   0.013
   37.97    11.43    -4.01	   37.98    11.44    -4.01	   0.011
   12.87    19.16   -30.16	   12.85    19.16   -30.17	   0.024
   15.19    22.27    34.43	   15.19    22.28    34.44	   0.013
    6.71    19.28    -5.32	    6.69    19.29    -5.33	   0.027
   18.86    24.99    10.02	   18.86    25.01    10.02	   0.019
  -22.61     4.04   -43.35	  -22.61     4.02   -43.33	   0.022
   17.66    -7.35   -22.63	   17.67    -7.35   -22.62	   0.013
   -6.49     1.58    42.43	   -6.48     1.58    42.43	    0.01
   -6.75    20.07    14.28	   -6.74    20.06    14.29	   0.026
  -13.54   -31.36   -25.98	  -13.54   -31.37   -25.98	   0.015
   33.58    -6.86   -12.14	   33.55    -6.83   -12.15	   0.049
   25.91    14.41    24.47	   25.92    14.42    24.47	   0.012
   17.78    17.03    56.17	   17.77    17.02    56.16	    0.01
    21.1    -9.21   -22.95	   21.11    -9.18   -22.93	   0.036
    23.6    -1.92    30.67	    23.6    -1.92    30.67	   0.002
    5.82    18.66    -3.89	     5.8    18.66     -3.9	   0.023
  -35.13     6.55    -30.3	  -35.12     6.54    -30.3	   0.011
   -6.08   -10.64     6.51	   -6.08   -10.65     6.51	   0.005
   -9.04    24.64    22.51	   -9.04    24.61    22.52	   0.033
   17.53    -9.66   -21.09	   17.54    -9.64   -21.06	   0.039
  -33.48   -28.02   -20.61	  -33.48   -28.03    -20.6	   0.009
    24.6    10.58     35.6	    24.6    10.58     35.6	   0.004
  -14.72     14.6    19.34	  -14.71     14.6    19.34	   0.007
    37.8    10.76    -6.79	   37.81    10.76    -6.79	   0.016
   18.48   -13.92   -17.65	   18.49   -13.89   -17.62	   0.043
   25.36    -6.85    10.84	   25.35    -6.82    10.83	   0.038
    -6.8     3.26    53.44	    -6.8     3.26    53.44	   0.007
   -6.18     8.49    -8.16	   -6.18     8.49    -8.16	   0.002
   34.82    15.75    -8.87	   34.83    15.76    -8.87	    0.02
   30.99     1.07   -27.17	   30.97     1.07   -27.17	   0.017
  -16.67     2.86    -6.59	  -16.68     2.86    -6.59	   0.003
  -12.18     9.57   -28.44	  -12.19     9.56   -28.44	   0.015
    3.86     2.16   -21.51	    3.86     2.16   -21.52	   0.006
  -21.03     2.13   -44.71	  -21.03     2.12   -44.69	   0.024
    16.4   -11.45   -19.21	    16.4   -11.43   -19.19	   0.026
  -39.43   -20.82   -33.34	  -39.42   -20.82   -33.33	   0.009
   -8.89    -29.2   -26.19	   -8.88   -29.22   -26.19	   0.017
   10.23    -6.41    35.58	   10.23    -6.42    35.58	   0.017
  -21.35    10.05   -18.77	  -21.34    10.06   -18.76	    0.01
   -2.47   -21.83   -33.93	   -2.46   -21.84   -33.93	   0.009
   -8.54    -3.11   -43.28	   -8.55    -3.11   -43.27	   0.009
  -18.89    12.03   -25.02	  -18.89    12.02   -25.02	   0.009
   35.21    15.09    -7.49	   35.23     15.1    -7.49	   0.014
    37.4    -1.81     6.73	   37.38     -1.8     6.72	   0.027
   -2.39     0.56   -27.37	   -2.39     0.56   -27.36	   0.011
    11.9    18.86     62.5	    11.9    18.87    62.51	   0.018
    7.51     20.0    -6.24	    7.49    20.01    -6.25	   0.031
  -30.79   -29.17   -33.97	  -30.79   -29.17   -33.97	   0.004
   18.06    21.11    36.41	   18.06    21.11    36.41	   0.003
  -36.09     2.15   -37.91	  -36.08     2.14    -37.9	    0.02
   -4.18    -20.1   -11.38	   -4.18    -20.1   -11.38	   0.011
   22.01     16.6    34.31	   22.01     16.6    34.31	   0.007
    0.65    -5.49   -27.49	    0.65    -5.49   -27.49	   0.006
   35.28    -4.34     4.89	   35.26    -4.31     4.88	   0.038
   -6.28     8.88    -4.34	   -6.28     8.87    -4.34	   0.004
  -10.59     8.01   -13.99	  -10.59     8.02   -13.99	   0.003
   -5.05    18.18    41.97	   -5.04    18.17    41.96	   0.011
   -2.92    14.93    59.74	    -2.9     14.9    59.74	   0.033
  -20.04    -6.21   -48.76	  -20.03    -6.21   -48.75	   0.015
  -18.34    -14.1   -48.74	  -18.35    -14.1   -48.72	   0.013
   -7.38    24.94    27.89	   -7.38    24.92    27.88	    0.02
   19.96    25.43   -20.75	   19.97    25.45   -20.75	   0.025
  -20.98     7.41   -39.59	  -20.99     7.39   -39.58	   0.021
   12.03    23.13    27.25	   12.03    23.13    27.25	   0.004
   -3.72   -10.09    12.57	   -3.72   -10.09    12.57	   0.001
   13.45   -10.41     9.08	   13.44   -10.39     9.07	   0.013
   33.32    -5.69    -1.46	    33.3    -5.67    -1.46	   0.028
   23.16    17.11    28.87	   23.16    17.12    28.87	   0.006
    3.76     2.18   -21.55	    3.76     2.18   -21.55	   0.001
  -25.79    -31.8   -32.07	  -25.79   -31.81   -32.07	   0.005
   -0.96   -19.37   -13.33	   -0.95   -19.38   -13.33	   0.013
   20.49    21.05    25.84	   20.49    21.05    25.84	   0.001
    0.98   -17.17    -8.22	    0.97   -17.17    -8.22	   0.002
   34.08     13.0   -18.15	   34.09     13.0   -18.16	   0.011
   16.06    -7.72   -22.08	   16.06    -7.71   -22.07	   0.017
  -16.76    -1.96     1.09	  -16.77    -1.96      1.1	   0.012
   -6.94      4.4    38.56	   -6.94      4.4    38.56	   0.002
   -7.57     9.72    39.15	   -7.58     9.71    39.15	   0.013
  -41.67   -13.35   -17.22	  -41.67   -13.35   -17.22	   0.004
    24.5   -14.78   -13.48	   24.48   -14.76   -13.48	   0.033
   20.87    -6.07    19.08	   20.86    -6.04    19.07	   0.026
     7.2    21.22    38.95	     7.2     21.2    38.95	   0.016
   19.45    -0.73    55.34	   19.47    -0.75    55.34	    0.03
   15.08    21.43     45.4	   15.07    21.42     45.4	   0.013
   -1.14    19.74     42.2	   -1.13    19.73     42.2	   0.019
   34.33    13.82     9.84	   34.35    13.83     9.85	   0.019
  -13.69     23.1    26.86	  -13.68     23.1    26.86	    0.01
  -13.51    23.24    26.12	   -13.5    23.24    26.12	   0.006
    0.68    17.02     3.58	    0.68    17.02     3.58	   0.001
  -21.85    12.33   -26.76	  -21.85    12.33   -26.76	   0.004
    6.97    -8.29    19.75	    6.97     -8.3    19.75	   0.016
  -11.76     7.49    19.96	  -11.77     7.49    19.96	   0.003
   -5.56    15.82    10.36	   -5.56    15.81    10.36	   0.003
   17.05     6.97   -23.95	   17.06     6.97   -23.94	   0.011
  -31.63   -28.55   -34.25	  -31.63   -28.55   -34.25	   0.001
  -14.29    -4.18     5.04	   -14.3    -4.18     5.04	   0.006
  -18.28   -29.85   -37.35	  -18.28   -29.86   -37.36	   0.007
   -1.58    18.87     8.76	   -1.58    18.87     8.76	   0.001
   18.39    21.29    32.52	   18.38    21.28    32.52	   0.014
    0.73    13.55    -2.38	    0.73    13.56    -2.38	   0.011
    30.6     2.63    -28.0	   30.58     2.63   -27.99	   0.023
   28.74   -10.62   -19.99	   28.72   -10.59   -19.97	   0.041
   -8.74    24.65    22.54	   -8.74    24.62    22.55	   0.035
   -1.36     17.7      7.2	   -1.36     17.7      7.2	   0.002
   14.09    -6.65    24.47	   14.09    -6.65    24.47	   0.001
   31.45     -9.0   -17.68	   31.42    -8.97   -17.68	   0.039
    7.66     1.53    63.29	    7.66     1.53     63.3	   0.014
    21.9     7.57    55.23	   21.91     7.57    55.23	    0.01
   -4.31    15.26     8.27	    -4.3    15.25     8.29	   0.019
   -3.58    -9.38    18.04	   -3.59    -9.39    18.04	   0.007
    3.72   -12.53     4.51	    3.72   -12.52     4.51	   0.011
  -37.66   -21.12   -15.61	  -37.66   -21.12   -15.61	   0.004
    6.76    25.06    10.51	    6.75    25.08    10.51	   0.018
   -3.23     15.3    53.37	    -3.2    15.28    53.37	   0.035
  -35.04     6.25   -31.38	  -35.03     6.24   -31.38	   0.018
  -14.38     9.85   -33.72	  -14.39     9.83   -33.72	   0.024
   -7.27    -1.63    29.42	   -7.26    -1.63    29.41	   0.008
   22.25     4.13     50.3	   22.27     4.13    50.31	   0.022
   22.64     2.44     45.0	   22.66     2.44     45.0	   0.014
   -4.56     15.6     8.89	   -4.55    15.59     8.89	    0.01
  -39.46   -10.96    -39.9	  -39.46   -10.96    -39.9	   0.004
   -8.92     6.83     29.7	   -8.93     6.82     29.7	   0.019
  -33.42   -14.65    -7.97	  -33.43   -14.66    -7.95	   0.021
    9.97    15.84    63.14	    9.97    15.83    63.17	   0.027
   18.98     3.27    -24.4	   18.99     3.27   -24.39	   0.013
  -22.01    12.26   -26.23	  -22.01    12.26   -26.23	   0.007
  -38.26     4.11   -24.66	  -38.25      4.1   -24.66	   0.013
  -31.38   -28.08   -35.73	  -31.35   -28.05   -35.83	   0.103
  -33.75   -14.26    -7.98	  -33.76   -14.26    -7.96	    0.02
  -16.41    16.13    22.61	  -16.44    16.12    22.61	   0.025
   29.27    -8.15     5.11	   29.26    -8.09      5.1	   0.056
  -37.41   -14.54   -10.97	  -37.41   -14.54   -10.97	     0.0
   29.52    10.24    19.26	   29.53    10.25    19.26	   0.007
   34.37    -0.32   -22.19	   34.37    -0.32   -22.18	   0.007
  -19.31   -18.25   -47.55	  -19.31   -18.24   -47.54	    0.01
  -10.88    24.34    28.21	  -10.88    24.33    28.21	   0.007
  -22.85   -19.43    -6.55	  -22.85   -19.43    -6.53	   0.015
   24.87    -7.98     7.14	   24.87    -7.95     7.13	   0.036
   -1.12   -16.93   -35.56	   -1.12   -16.93   -35.56	   0.001
   27.76     9.66   -29.97	   27.76     9.66   -29.97	     0.0
   10.51    21.68    41.13	   10.51     21.7    41.13	   0.013
   27.55    22.18     7.21	   27.56     22.2     7.22	   0.024
     0.3    16.89      3.8	     0.3    16.89     3.81	   0.001
   14.83    -4.65    59.58	   14.84    -4.67    59.58	   0.026
   30.71   -10.17   -16.12	   30.68   -10.15   -16.11	   0.034
  -13.06     2.84   -42.96	  -13.06     2.83   -42.95	   0.016
  -32.05    -10.7   -46.62	  -32.05    -10.7    -46.6	   0.021
   -8.25     9.78    36.88	   -8.27     9.77    36.89	   0.027
  -36.67   -19.48   -12.55	  -36.68   -19.49   -12.54	   0.009
   28.64      4.8    22.74	   28.64     4.79    22.75	   0.005
    4.23    23.16    27.37	    4.23    23.15    27.37	   0.007
