27, 8, pa1-debug-e-output1.txt
193.76,		196.95,		202.01
400.89,		390.81,		192.2
211.58,		208.3,		211.38
209.29,		204.72,		336.31
207.0,		201.14,		461.23
208.8,		333.22,		214.9
206.51,		329.64,		339.83
204.22,		326.06,		464.76
206.02,		458.14,		218.43
203.73,		454.56,		343.36
201.44,		450.98,		468.28
336.53,		211.01,		213.75
334.24,		207.44,		338.68
331.95,		203.86,		463.61
333.75,		335.93,		217.27
331.46,		332.35,		342.2
329.17,		328.78,		467.13
330.97,		460.85,		220.8
328.68,		457.27,		345.73
326.39,		453.7,		470.66
461.48,		213.73,		216.12
459.19,		210.15,		341.05
456.89,		206.57,		465.98
458.7,		338.64,		219.65
456.41,		335.07,		344.57
454.11,		331.49,		469.5
455.92,		463.56,		223.17
453.63,		459.99,		348.1
451.33,		456.41,		473.03
210.11,		210.26,		448.87
208.77,		211.6,		573.86
207.42,		212.93,		698.84
207.23,		335.22,		447.51
205.88,		336.56,		572.49
204.53,		337.89,		697.48
204.35,		460.18,		446.15
203.0,		461.51,		571.13
201.65,		462.85,		696.12
335.07,		213.16,		450.19
333.72,		214.49,		575.18
332.38,		215.82,		700.16
332.19,		338.12,		448.83
330.84,		339.45,		573.81
329.49,		340.78,		698.8
329.31,		463.08,		447.46
327.96,		464.41,		572.45
326.61,		465.74,		697.44
460.03,		216.06,		451.51
458.68,		217.39,		576.49
457.33,		218.72,		701.48
457.15,		341.02,		450.15
455.8,		342.35,		575.13
454.45,		343.68,		700.12
454.27,		465.97,		448.78
452.92,		467.31,		573.77
451.57,		468.64,		698.75
210.99,		448.69,		209.72
213.39,		447.96,		334.69
215.79,		447.22,		459.67
209.86,		573.69,		210.47
212.26,		572.95,		335.45
214.66,		572.22,		460.42
208.73,		698.68,		211.23
211.13,		697.94,		336.21
213.53,		697.21,		461.18
335.97,		449.84,		207.33
338.36,		449.1,		332.3
340.76,		448.37,		457.28
334.84,		574.83,		208.08
337.23,		574.1,		333.06
339.63,		573.36,		458.03
333.7,		699.82,		208.84
336.1,		699.09,		333.82
338.5,		698.35,		458.79
460.94,		450.98,		204.94
463.34,		450.25,		329.91
465.73,		449.52,		454.89
459.81,		575.98,		205.69
462.2,		575.24,		330.67
464.6,		574.51,		455.64
458.68,		700.97,		206.45
461.07,		700.24,		331.43
463.47,		699.5,		456.4
209.22,		451.43,		448.11
205.97,		451.9,		573.07
202.73,		452.36,		698.02
209.51,		576.43,		447.65
206.27,		576.9,		572.61
203.02,		577.36,		697.56
209.81,		701.43,		447.19
206.56,		701.89,		572.15
203.31,		702.36,		697.1
334.18,		451.15,		451.36
330.93,		451.62,		576.32
327.68,		452.08,		701.27
334.47,		576.15,		450.9
331.22,		576.62,		575.86
327.97,		577.08,		700.81
334.76,		701.15,		450.44
331.52,		701.61,		575.4
328.27,		702.08,		700.35
459.14,		450.87,		454.61
455.89,		451.34,		579.57
452.64,		451.8,		704.52
459.43,		575.87,		454.15
456.18,		576.34,		579.11
452.93,		576.8,		704.06
459.72,		700.87,		453.69
456.47,		701.33,		578.65
453.22,		701.8,		703.6
451.75,		209.16,		210.97
448.78,		208.98,		335.93
445.82,		208.81,		460.9
454.26,		334.13,		211.2
451.29,		333.96,		336.17
448.32,		333.78,		461.13
456.77,		459.11,		211.44
453.8,		458.93,		336.4
450.83,		458.76,		461.37
576.69,		206.64,		213.93
573.72,		206.47,		338.9
570.76,		206.3,		463.86
579.2,		331.62,		214.17
576.23,		331.44,		339.13
573.26,		331.27,		464.1
581.71,		456.59,		214.4
578.74,		456.42,		339.36
575.77,		456.25,		464.33
701.63,		204.13,		216.9
698.66,		203.96,		341.86
695.69,		203.78,		466.83
704.14,		329.11,		217.13
701.17,		328.93,		342.09
698.2,		328.76,		467.06
706.65,		454.08,		217.36
703.68,		453.91,		342.33
700.71,		453.73,		467.29
448.49,		208.45,		449.32
447.9,		206.36,		574.3
447.31,		204.28,		699.28
451.93,		333.39,		451.42
451.34,		331.3,		576.4
450.75,		329.21,		701.39
455.37,		458.32,		453.53
454.78,		456.23,		578.51
454.19,		454.15,		703.49
573.44,		205.0,		449.85
572.85,		202.91,		574.83
572.26,		200.82,		699.81
576.88,		329.94,		451.96
576.29,		327.85,		576.94
575.7,		325.76,		701.92
580.32,		454.87,		454.06
579.73,		452.78,		579.04
579.14,		450.69,		704.02
698.39,		201.55,		450.39
697.8,		199.46,		575.37
697.21,		197.37,		700.35
701.83,		326.49,		452.49
701.24,		324.4,		577.47
700.65,		322.31,		702.45
705.27,		451.42,		454.59
704.68,		449.33,		579.57
704.09,		447.24,		704.56
449.42,		449.91,		210.82
448.78,		448.07,		335.8
448.14,		446.24,		460.79
447.45,		574.88,		212.64
446.81,		573.04,		337.63
446.17,		571.21,		462.61
445.48,		699.85,		214.47
444.84,		698.01,		339.46
444.2,		696.18,		464.44
574.4,		451.87,		211.49
573.77,		450.04,		336.47
573.13,		448.2,		461.45
572.43,		576.84,		213.31
571.79,		575.01,		338.3
571.15,		573.17,		463.28
570.46,		701.82,		215.14
569.82,		699.98,		340.12
569.18,		698.14,		465.11
699.39,		453.84,		212.15
698.75,		452.0,		337.14
698.11,		450.16,		462.12
697.41,		578.81,		213.98
696.78,		576.97,		338.97
696.14,		575.13,		463.95
695.44,		703.78,		215.81
694.8,		701.94,		340.79
694.16,		700.1,		465.78
450.17,		448.85,		449.75
446.64,		449.72,		574.7
443.11,		450.59,		699.64
451.79,		573.84,		448.93
448.26,		574.71,		573.88
444.73,		575.57,		698.82
453.41,		698.83,		448.11
449.88,		699.69,		573.06
446.34,		700.56,		698.0
575.11,		447.26,		453.29
571.58,		448.12,		578.24
568.05,		448.99,		703.19
576.73,		572.25,		452.47
573.2,		573.11,		577.42
569.66,		573.98,		702.37
578.35,		697.23,		451.65
574.82,		698.1,		576.6
571.28,		698.96,		701.55
700.05,		445.66,		456.84
696.52,		446.53,		581.79
692.98,		447.39,		706.73
701.67,		570.65,		456.02
698.14,		571.52,		580.97
694.6,		572.38,		705.91
703.29,		695.64,		455.2
699.76,		696.5,		580.15
696.22,		697.37,		705.09
