27, 8, pa1-debug-f-output1.txt
200.46,		201.89,		198.34
394.42,		409.99,		190.65
211.62,		211.82,		209.01
208.94,		214.1,		333.96
206.26,		216.38,		458.91
213.49,		336.78,		206.77
210.81,		339.06,		331.72
208.13,		341.35,		456.67
215.36,		461.75,		204.53
212.68,		464.03,		329.48
210.0,		466.31,		454.43
336.58,		210.0,		211.72
333.9,		212.28,		336.67
331.22,		214.56,		461.62
338.45,		334.96,		209.48
335.77,		337.24,		334.43
333.09,		339.53,		459.38
340.31,		459.93,		207.24
337.64,		462.21,		332.19
334.96,		464.49,		457.14
461.54,		208.18,		214.44
458.86,		210.46,		339.39
456.18,		212.74,		464.34
463.4,		333.14,		212.19
460.72,		335.43,		337.14
458.05,		337.71,		462.09
465.27,		458.11,		209.95
462.59,		460.39,		334.9
459.91,		462.67,		459.85
208.24,		208.56,		448.8
211.63,		211.12,		573.73
215.02,		213.67,		698.66
208.06,		333.54,		446.26
211.45,		336.09,		571.18
214.84,		338.64,		696.11
207.89,		458.51,		443.71
211.28,		461.06,		568.63
214.67,		463.62,		693.56
333.2,		208.67,		445.41
336.59,		211.23,		570.34
339.97,		213.78,		695.27
333.02,		333.65,		442.86
336.41,		336.2,		567.79
339.8,		338.75,		692.72
332.84,		458.62,		440.31
336.23,		461.17,		565.24
339.62,		463.73,		690.17
458.15,		208.78,		442.02
461.54,		211.33,		566.95
464.93,		213.89,		691.88
457.97,		333.75,		439.47
461.36,		336.31,		564.4
464.75,		338.86,		689.33
457.79,		458.73,		436.92
461.18,		461.28,		561.85
464.57,		463.83,		686.78
211.85,		450.13,		210.89
212.01,		450.32,		335.89
212.16,		450.5,		460.89
212.46,		575.13,		210.71
212.61,		575.31,		335.71
212.76,		575.5,		460.71
213.06,		700.12,		210.52
213.21,		700.31,		335.52
213.36,		700.5,		460.52
336.85,		449.53,		210.74
337.0,		449.71,		335.74
337.16,		449.9,		460.74
337.45,		574.52,		210.56
337.61,		574.71,		335.56
337.76,		574.9,		460.56
338.06,		699.52,		210.37
338.21,		699.71,		335.37
338.36,		699.9,		460.37
461.85,		448.93,		210.59
462.0,		449.11,		335.59
462.15,		449.3,		460.59
462.45,		573.92,		210.41
462.6,		574.11,		335.41
462.75,		574.3,		460.41
463.05,		698.92,		210.22
463.2,		699.11,		335.22
463.36,		699.3,		460.22
208.43,		451.66,		450.77
206.8,		453.69,		575.74
205.17,		455.71,		700.72
210.83,		576.63,		448.78
209.2,		578.65,		573.75
207.56,		580.67,		698.73
213.22,		701.59,		446.79
211.59,		703.61,		571.76
209.96,		705.63,		696.74
333.4,		449.3,		452.44
331.77,		451.32,		577.41
330.14,		453.34,		702.39
335.79,		574.26,		450.45
334.16,		576.28,		575.42
332.53,		578.3,		700.4
338.19,		699.22,		448.46
336.56,		701.24,		573.43
334.92,		703.26,		698.41
458.37,		446.93,		454.11
456.74,		448.95,		579.08
455.1,		450.97,		704.06
460.76,		571.89,		452.12
459.13,		573.91,		577.09
457.5,		575.93,		702.07
463.15,		696.85,		450.13
461.52,		698.87,		575.1
459.89,		700.9,		700.08
449.35,		208.69,		208.78
448.53,		210.23,		333.77
447.71,		211.77,		458.76
450.82,		333.67,		207.25
450.0,		335.21,		332.24
449.18,		336.76,		457.22
452.28,		458.65,		205.71
451.46,		460.2,		330.7
450.65,		461.74,		455.69
574.34,		207.23,		209.62
573.52,		208.78,		334.6
572.7,		210.32,		459.59
575.8,		332.22,		208.08
574.99,		333.76,		333.07
574.17,		335.3,		458.06
577.27,		457.2,		206.55
576.45,		458.74,		331.54
575.63,		460.28,		456.53
699.33,		205.78,		210.45
698.51,		207.32,		335.44
697.69,		208.86,		460.43
700.79,		330.76,		208.92
699.97,		332.3,		333.91
699.16,		333.84,		458.9
702.26,		455.74,		207.39
701.44,		457.28,		332.38
700.62,		458.83,		457.36
450.13,		209.8,		449.34
447.8,		213.15,		574.28
445.47,		216.49,		699.21
452.01,		334.74,		446.03
449.68,		338.09,		570.96
447.35,		341.44,		695.9
453.89,		459.68,		442.72
451.56,		463.03,		567.65
449.23,		466.38,		692.58
575.1,		207.98,		451.72
572.77,		211.33,		576.66
570.44,		214.68,		701.59
576.98,		332.92,		448.41
574.65,		336.27,		573.34
572.32,		339.62,		698.28
578.86,		457.87,		445.1
576.52,		461.21,		570.03
574.19,		464.56,		694.96
700.06,		206.17,		454.1
697.73,		209.52,		579.04
695.4,		212.86,		703.97
701.94,		331.11,		450.79
699.61,		334.46,		575.72
697.28,		337.81,		700.66
703.82,		456.05,		447.48
701.49,		459.4,		572.41
699.16,		462.75,		697.34
448.99,		450.66,		210.95
451.47,		453.64,		335.89
453.95,		456.63,		460.83
447.72,		575.61,		207.99
450.19,		578.6,		332.93
452.67,		581.58,		457.87
446.44,		700.57,		205.03
448.92,		703.56,		329.97
451.4,		706.54,		454.91
573.96,		451.87,		208.44
576.44,		454.86,		333.38
578.92,		457.84,		458.32
572.69,		576.83,		205.48
575.16,		579.82,		330.42
577.64,		582.8,		455.36
571.41,		701.79,		202.52
573.89,		704.77,		327.46
576.36,		707.76,		452.4
698.93,		453.09,		205.94
701.41,		456.07,		330.88
703.89,		459.06,		455.82
697.65,		578.05,		202.98
700.13,		581.03,		327.92
702.61,		584.02,		452.86
696.38,		703.01,		200.02
698.86,		705.99,		324.96
701.33,		708.98,		449.9
450.29,		450.75,		449.71
452.25,		450.4,		574.69
454.2,		450.06,		699.68
450.17,		575.75,		450.06
452.12,		575.4,		575.04
454.08,		575.06,		700.03
450.04,		700.75,		450.41
452.0,		700.4,		575.39
453.95,		700.06,		700.38
575.28,		450.88,		447.75
577.23,		450.54,		572.74
579.19,		450.19,		697.72
575.15,		575.88,		448.1
577.11,		575.53,		573.09
579.06,		575.19,		698.07
575.03,		700.88,		448.45
576.98,		700.53,		573.44
578.94,		700.19,		698.42
700.26,		451.01,		445.8
702.22,		450.67,		570.78
704.17,		450.32,		695.77
700.14,		576.01,		446.15
702.09,		575.67,		571.13
704.05,		575.32,		696.12
700.01,		701.01,		446.5
701.97,		700.66,		571.48
703.92,		700.32,		696.47
