27, 8, pa1-unknown-i-output1.txt
195.58,		200.03,		193.15
391.35,		390.06,		194.11
211.94,		209.51,		210.14
209.27,		208.26,		335.11
206.6,		207.02,		460.07
212.98,		334.5,		211.41
210.31,		333.25,		336.38
207.64,		332.01,		461.34
214.01,		459.49,		212.68
211.34,		458.24,		337.64
208.67,		457.0,		462.61
336.91,		208.44,		212.8
334.24,		207.2,		337.77
331.57,		205.96,		462.73
337.95,		333.43,		214.07
335.27,		332.19,		339.04
332.6,		330.94,		464.0
338.98,		458.42,		215.34
336.31,		457.18,		340.3
333.64,		455.93,		465.27
461.88,		207.38,		215.46
459.21,		206.14,		340.43
456.54,		204.89,		465.39
462.91,		332.37,		216.73
460.24,		331.13,		341.7
457.57,		329.88,		466.66
463.95,		457.36,		218.0
461.28,		456.12,		342.96
458.61,		454.87,		467.93
209.21,		210.06,		449.97
206.4,		210.28,		574.93
203.58,		210.49,		699.9
207.95,		335.05,		449.72
205.14,		335.27,		574.69
202.33,		335.49,		699.66
206.7,		460.05,		449.48
203.89,		460.26,		574.45
201.08,		460.48,		699.41
334.17,		211.32,		452.77
331.36,		211.54,		577.74
328.55,		211.75,		702.71
332.92,		336.31,		452.53
330.1,		336.53,		577.5
327.29,		336.75,		702.47
331.66,		461.31,		452.29
328.85,		461.52,		577.25
326.04,		461.74,		702.22
459.13,		212.58,		455.58
456.32,		212.79,		580.55
453.51,		213.01,		705.52
457.88,		337.57,		455.34
455.07,		337.79,		580.31
452.26,		338.0,		705.28
456.62,		462.56,		455.09
453.81,		462.78,		580.06
451.0,		463.0,		705.03
210.08,		449.4,		210.58
208.97,		447.2,		335.55
207.85,		444.99,		460.53
207.06,		574.35,		212.75
205.94,		572.14,		337.73
204.82,		569.94,		462.71
204.03,		699.29,		214.93
202.92,		697.09,		339.91
201.8,		694.88,		464.88
335.04,		452.41,		211.75
333.92,		450.2,		336.72
332.81,		448.0,		461.7
332.02,		577.35,		213.92
330.9,		575.15,		338.9
329.78,		572.94,		463.88
328.99,		702.3,		216.1
327.87,		700.09,		341.08
326.76,		697.89,		466.05
460.0,		455.41,		212.92
458.88,		453.21,		337.89
457.76,		451.0,		462.87
456.97,		580.36,		215.09
455.86,		578.15,		340.07
454.74,		575.95,		465.05
453.95,		705.3,		217.27
452.83,		703.1,		342.25
451.71,		700.89,		467.22
208.9,		448.71,		449.81
210.41,		446.97,		574.79
211.92,		445.24,		699.77
206.86,		573.68,		451.57
208.37,		571.94,		576.55
209.88,		570.21,		701.53
204.82,		698.65,		453.33
206.33,		696.91,		578.31
207.84,		695.18,		703.29
333.87,		450.77,		448.33
335.38,		449.03,		573.3
336.89,		447.3,		698.28
331.83,		575.74,		450.09
333.34,		574.0,		575.07
334.85,		572.27,		700.04
329.79,		700.71,		451.85
331.3,		698.97,		576.83
332.81,		697.24,		701.8
458.85,		452.83,		446.84
460.36,		451.09,		571.82
461.87,		449.36,		696.8
456.81,		577.8,		448.61
458.32,		576.06,		573.58
459.83,		574.33,		698.56
454.77,		702.77,		450.37
456.28,		701.03,		575.34
457.79,		699.3,		700.32
450.0,		211.9,		209.38
452.29,		211.54,		334.36
454.57,		211.19,		459.34
448.5,		336.89,		209.76
450.78,		336.54,		334.74
453.06,		336.18,		459.72
446.99,		461.88,		210.15
449.27,		461.53,		335.12
451.55,		461.17,		460.1
574.97,		213.42,		207.1
577.26,		213.06,		332.08
579.54,		212.7,		457.06
573.47,		338.41,		207.48
575.75,		338.05,		332.46
578.03,		337.69,		457.44
571.96,		463.4,		207.87
574.24,		463.04,		332.85
576.52,		462.68,		457.82
699.94,		214.93,		204.82
702.23,		214.58,		329.8
704.51,		214.22,		454.78
698.44,		339.92,		205.2
700.72,		339.57,		330.18
703.0,		339.21,		455.16
696.93,		464.91,		205.59
699.21,		464.56,		330.57
701.49,		464.2,		455.55
450.71,		210.01,		451.51
449.79,		209.2,		576.51
448.87,		208.38,		701.5
447.54,		334.97,		452.3
446.62,		334.15,		577.3
445.7,		333.34,		702.29
444.37,		459.93,		453.1
443.45,		459.11,		578.09
442.53,		458.3,		703.08
575.67,		213.17,		452.45
574.75,		212.36,		577.45
573.83,		211.54,		702.44
572.5,		338.13,		453.25
571.58,		337.32,		578.24
570.66,		336.5,		703.23
569.33,		463.09,		454.04
568.41,		462.27,		579.03
567.49,		461.46,		704.03
700.63,		216.34,		453.4
699.7,		215.52,		578.39
698.78,		214.71,		703.38
697.46,		341.29,		454.19
696.54,		340.48,		579.18
695.61,		339.66,		704.18
694.29,		466.25,		454.98
693.37,		465.44,		579.97
692.44,		464.62,		704.97
449.2,		451.57,		211.28
447.44,		452.13,		336.27
445.67,		452.69,		461.25
445.59,		576.51,		210.67
443.82,		577.07,		335.66
442.06,		577.63,		460.64
441.98,		701.46,		210.06
440.21,		702.02,		335.04
438.45,		702.58,		460.03
574.14,		455.19,		213.03
572.37,		455.75,		338.02
570.61,		456.31,		463.0
570.52,		580.13,		212.42
568.76,		580.69,		337.4
566.99,		581.26,		462.39
566.91,		705.08,		211.81
565.15,		705.64,		336.79
563.38,		706.2,		461.78
699.07,		458.81,		214.78
697.31,		459.37,		339.77
695.54,		459.93,		464.75
695.46,		583.75,		214.17
693.69,		584.31,		339.15
691.93,		584.88,		464.14
691.85,		708.7,		213.56
690.08,		709.26,		338.54
688.32,		709.82,		463.53
450.98,		451.99,		449.74
452.22,		453.51,		574.72
453.46,		455.03,		699.71
451.24,		576.98,		448.22
452.47,		578.5,		573.2
453.71,		580.02,		698.19
451.49,		701.98,		446.7
452.73,		703.49,		571.68
453.96,		705.01,		696.67
575.98,		451.73,		448.51
577.21,		453.24,		573.49
578.45,		454.76,		698.48
576.23,		576.72,		446.99
577.47,		578.23,		571.97
578.7,		579.75,		696.95
576.48,		701.71,		445.46
577.72,		703.22,		570.45
578.96,		704.74,		695.43
700.97,		451.46,		447.27
702.21,		452.97,		572.26
703.44,		454.49,		697.24
701.22,		576.45,		445.75
702.46,		577.96,		570.74
703.7,		579.48,		695.72
701.48,		701.44,		444.23
702.71,		702.95,		569.22
703.95,		704.47,		694.2
