27, 125, pa2-unknown-i-output1.txt
204.57,		195.82,		199.65
404.39,		398.53,		190.66
98.29,		101.26,		101.48
95.09,		100.63,		226.41
91.72,		100.19,		351.49
97.46,		226.2,		102.02
94.12,		225.57,		226.99
90.51,		225.19,		351.98
96.22,		351.26,		102.72
92.91,		350.74,		227.53
89.77,		349.91,		352.49
223.34,		102.29,		104.62
220.0,		101.72,		229.83
216.53,		100.95,		354.51
222.32,		227.17,		105.51
219.07,		226.6,		230.14
215.7,		225.92,		355.34
221.23,		352.36,		105.85
218.01,		351.74,		230.75
214.73,		351.23,		355.84
348.33,		103.3,		108.18
344.94,		102.6,		233.16
341.62,		102.11,		357.92
347.11,		228.27,		108.49
343.68,		227.57,		233.72
340.63,		227.18,		358.74
346.04,		353.06,		109.03
342.76,		352.79,		234.09
339.54,		352.21,		358.96
101.72,		101.52,		223.6
103.87,		99.21,		348.49
106.38,		96.92,		473.59
98.19,		226.24,		225.83
100.13,		224.4,		350.84
102.38,		222.19,		475.92
94.55,		351.42,		228.03
96.84,		349.18,		353.19
99.07,		346.74,		478.2
226.82,		105.31,		221.24
228.91,		103.03,		346.39
231.38,		100.64,		471.48
222.96,		229.99,		223.73
225.49,		227.83,		348.54
227.67,		225.85,		473.77
219.59,		355.01,		226.15
221.77,		352.64,		350.88
223.66,		350.59,		476.06
351.61,		108.74,		219.28
353.8,		106.74,		344.31
356.28,		104.32,		469.29
348.12,		233.95,		221.7
350.36,		231.57,		346.44
352.55,		229.5,		471.34
344.57,		358.87,		223.96
346.46,		356.45,		348.96
348.92,		354.35,		473.94
99.83,		98.56,		349.47
102.12,		100.69,		474.61
104.37,		102.85,		599.64
103.26,		223.41,		347.35
105.6,		225.65,		472.21
107.83,		227.9,		597.39
106.45,		348.33,		344.97
108.94,		350.47,		469.96
111.08,		352.68,		594.88
224.79,		95.18,		347.31
227.1,		97.18,		472.39
229.31,		99.68,		597.04
228.09,		220.15,		344.89
230.34,		222.33,		469.91
232.7,		224.5,		594.9
231.61,		344.9,		342.9
233.94,		346.95,		467.59
236.18,		349.3,		592.53
349.82,		91.73,		345.15
352.27,		93.75,		470.09
354.33,		96.06,		595.09
353.07,		216.77,		342.9
355.37,		218.97,		467.71
357.8,		221.19,		592.68
356.43,		341.44,		340.39
358.78,		343.98,		465.55
361.24,		345.87,		590.32
101.06,		99.8,		475.97
104.4,		97.0,		600.98
107.81,		94.15,		726.13
100.75,		224.85,		478.89
104.07,		222.02,		603.81
107.56,		219.09,		728.67
100.54,		349.7,		481.82
104.25,		346.98,		606.76
107.47,		344.19,		731.71
225.92,		100.17,		472.75
229.33,		97.23,		597.79
232.72,		94.47,		722.46
225.96,		224.79,		475.39
229.26,		222.15,		600.49
232.74,		219.21,		725.17
225.39,		349.72,		478.48
229.04,		347.18,		603.19
232.64,		344.27,		728.27
350.74,		100.27,		469.24
354.31,		97.61,		594.28
357.84,		94.71,		719.1
350.67,		225.19,		472.17
354.26,		222.58,		597.14
357.69,		219.49,		722.0
350.61,		350.36,		474.75
354.04,		347.52,		599.85
357.56,		344.51,		724.62
98.46,		99.52,		598.63
98.43,		98.06,		723.62
98.15,		96.88,		848.7
99.77,		224.5,		600.22
99.75,		223.17,		725.03
99.7,		221.76,		849.88
101.26,		349.3,		601.03
101.12,		348.12,		726.36
101.07,		347.03,		851.41
223.35,		97.81,		598.99
223.43,		96.57,		723.94
223.35,		95.23,		848.91
224.96,		222.94,		599.96
224.74,		221.63,		725.22
224.59,		220.25,		849.95
226.39,		347.73,		601.54
226.24,		346.54,		726.58
226.01,		345.62,		851.29
348.45,		96.65,		598.74
348.36,		95.03,		724.1
348.06,		94.05,		849.01
349.74,		221.64,		600.33
349.64,		220.13,		725.07
349.68,		218.71,		850.3
351.12,		346.55,		601.58
351.37,		345.17,		726.5
351.08,		343.91,		851.54
100.77,		224.49,		101.68
100.95,		224.89,		226.8
101.47,		225.06,		351.75
102.37,		349.58,		101.49
102.65,		349.89,		226.36
103.02,		350.09,		351.34
104.0,		474.29,		101.14
104.19,		474.64,		225.95
104.39,		475.06,		351.17
226.06,		222.92,		101.43
225.96,		223.15,		226.4
226.31,		223.6,		351.66
227.44,		347.95,		101.14
227.54,		348.21,		226.21
227.71,		348.28,		351.2
229.01,		472.94,		100.81
229.33,		473.22,		225.98
229.23,		473.28,		351.08
350.87,		221.27,		101.26
351.22,		221.52,		226.29
351.46,		222.07,		351.27
352.48,		346.43,		100.92
352.68,		346.8,		225.94
352.88,		347.01,		351.0
353.9,		471.14,		100.68
354.25,		471.64,		225.62
354.3,		472.09,		350.97
99.84,		223.55,		224.79
96.73,		222.24,		349.9
93.78,		220.94,		474.8
97.85,		348.34,		226.13
94.62,		347.35,		351.07
91.63,		346.11,		475.89
95.67,		473.41,		227.08
92.64,		472.32,		352.16
89.47,		471.09,		477.1
224.9,		225.76,		227.9
221.69,		224.5,		353.21
218.8,		223.05,		477.86
222.91,		350.42,		229.14
219.49,		349.38,		354.28
216.43,		347.98,		478.92
220.4,		475.42,		230.23
217.31,		474.17,		355.09
214.4,		473.02,		480.35
349.83,		227.49,		231.24
346.79,		226.51,		356.09
343.47,		225.1,		481.03
347.59,		352.72,		232.39
344.62,		351.28,		357.44
341.28,		350.33,		482.26
345.61,		477.65,		233.49
342.39,		476.24,		358.42
339.37,		475.12,		483.44
100.25,		223.58,		350.93
100.11,		225.02,		475.8
99.98,		226.47,		600.87
96.99,		348.67,		349.53
96.76,		350.14,		474.39
96.7,		351.38,		599.63
93.87,		473.57,		347.98
93.48,		475.2,		472.94
93.4,		476.59,		597.86
225.16,		227.0,		351.26
225.01,		228.43,		475.98
224.93,		229.71,		601.3
221.92,		351.67,		349.54
221.73,		353.33,		474.82
221.66,		354.78,		599.63
218.67,		476.77,		347.96
218.49,		478.46,		472.91
218.36,		479.6,		598.17
350.06,		229.86,		351.13
349.7,		231.44,		476.07
349.76,		233.19,		601.0
346.97,		355.06,		349.69
346.88,		356.54,		474.54
346.68,		357.91,		599.57
343.64,		479.93,		348.32
343.3,		481.35,		473.32
343.41,		482.93,		598.24
100.39,		223.91,		473.25
102.59,		224.73,		598.34
104.56,		225.1,		723.16
99.39,		349.0,		472.63
101.52,		349.71,		597.52
103.58,		350.03,		722.72
98.09,		473.97,		472.03
100.03,		474.59,		597.26
102.2,		475.05,		721.87
225.29,		225.32,		470.89
227.49,		225.68,		596.23
229.45,		226.39,		720.9
224.3,		350.3,		470.65
226.19,		350.91,		595.43
228.25,		351.52,		720.31
222.94,		475.09,		469.98
224.93,		475.56,		594.9
227.35,		476.31,		719.82
350.26,		226.32,		469.03
352.5,		226.74,		593.8
354.57,		227.67,		718.91
349.22,		351.38,		468.33
351.31,		351.94,		593.29
353.27,		352.47,		718.51
348.19,		476.47,		467.91
349.92,		476.84,		592.88
352.25,		477.42,		717.72
98.27,		226.81,		600.12
97.65,		225.08,		725.08
96.83,		223.39,		850.26
101.4,		351.92,		601.91
100.74,		350.0,		726.85
99.85,		348.26,		851.85
104.52,		476.78,		603.58
103.53,		474.99,		728.72
102.96,		473.11,		853.66
223.42,		223.64,		600.95
222.69,		222.15,		726.0
221.67,		220.26,		850.99
226.43,		348.78,		602.81
225.59,		347.05,		727.5
224.93,		345.09,		852.8
229.38,		473.67,		604.31
228.62,		471.86,		729.47
227.9,		470.05,		854.23
348.11,		220.69,		601.57
347.59,		218.82,		726.49
346.7,		217.29,		851.62
351.33,		345.54,		603.5
350.5,		343.72,		728.58
349.82,		341.99,		853.43
354.3,		470.46,		605.3
353.54,		468.95,		730.15
353.02,		467.12,		854.88
102.17,		350.65,		98.87
99.22,		347.54,		224.16
96.78,		344.35,		348.71
98.52,		475.63,		101.89
95.63,		472.72,		226.9
93.0,		469.47,		351.74
94.93,		600.64,		105.13
92.14,		597.54,		229.98
89.47,		594.55,		354.66
226.83,		354.31,		101.83
224.16,		351.11,		226.48
221.51,		348.25,		351.71
223.21,		479.0,		104.64
220.79,		476.18,		229.66
217.94,		473.03,		354.4
219.8,		604.13,		107.56
217.06,		600.99,		232.55
214.21,		597.82,		357.51
351.84,		357.7,		104.57
349.24,		354.8,		229.4
346.31,		351.45,		354.21
348.41,		482.66,		107.59
345.5,		479.68,		232.3
343.05,		476.49,		357.3
344.75,		607.55,		110.26
342.08,		604.48,		235.35
339.37,		601.31,		360.31
98.94,		351.14,		226.32
100.92,		352.94,		351.56
103.15,		354.79,		476.4
97.64,		476.34,		224.83
99.7,		478.01,		349.6
101.71,		479.85,		474.51
96.74,		601.15,		222.95
98.77,		602.88,		347.92
100.91,		604.65,		472.94
223.87,		352.21,		224.16
225.94,		354.21,		349.17
227.87,		356.0,		474.26
222.66,		477.18,		222.58
225.06,		478.94,		347.55
227.26,		480.97,		472.52
221.72,		602.46,		220.93
223.53,		604.0,		345.63
225.94,		605.93,		470.73
348.84,		353.37,		222.38
351.11,		355.17,		347.16
352.93,		356.96,		472.02
347.7,		478.28,		220.62
349.94,		480.17,		345.61
351.82,		482.1,		470.36
346.71,		603.23,		218.55
348.85,		605.19,		343.74
351.1,		606.9,		468.43
99.44,		350.76,		348.54
98.84,		350.24,		473.76
98.79,		349.48,		598.59
97.08,		475.86,		349.2
96.48,		475.17,		474.44
96.18,		474.81,		599.46
94.48,		600.73,		349.9
94.01,		599.96,		474.76
93.79,		599.8,		599.59
224.39,		353.38,		349.23
224.08,		352.86,		473.95
223.61,		352.0,		598.92
222.06,		478.36,		349.49
221.47,		477.99,		474.62
221.16,		477.36,		599.6
219.15,		603.38,		350.42
219.01,		602.6,		475.33
218.51,		602.26,		600.19
349.34,		355.64,		349.29
349.19,		355.1,		474.4
348.52,		354.68,		599.58
346.97,		480.79,		350.08
346.69,		480.45,		474.96
346.06,		479.63,		600.04
344.47,		605.81,		350.48
343.99,		605.22,		475.51
343.6,		604.7,		600.59
101.5,		349.24,		475.44
102.9,		348.32,		600.34
103.77,		347.04,		725.59
102.49,		474.28,		476.65
103.66,		473.03,		601.52
104.65,		471.96,		726.58
103.9,		599.32,		477.83
104.97,		597.98,		602.72
105.98,		596.9,		727.74
226.45,		348.17,		474.41
227.85,		347.18,		599.65
228.76,		346.07,		724.53
227.67,		473.3,		475.38
228.72,		472.13,		600.42
229.89,		471.06,		725.37
228.82,		598.13,		476.83
229.93,		597.11,		601.8
231.13,		595.85,		726.5
351.57,		347.35,		473.52
352.81,		345.83,		598.33
353.57,		344.77,		723.57
352.81,		472.06,		474.57
353.85,		470.85,		599.39
355.0,		469.88,		724.66
353.8,		597.18,		475.71
354.75,		595.9,		600.77
356.09,		595.04,		725.73
98.72,		348.71,		600.95
96.09,		351.37,		726.03
93.23,		354.18,		851.04
97.72,		473.7,		598.43
95.16,		476.69,		723.42
92.65,		479.38,		848.09
97.29,		598.57,		595.48
94.44,		601.23,		720.4
91.62,		604.11,		845.54
223.47,		349.53,		603.75
220.91,		352.28,		728.47
218.31,		355.21,		853.49
222.78,		474.61,		600.89
220.05,		477.39,		726.0
217.45,		480.1,		850.82
221.94,		599.61,		598.06
219.47,		602.43,		723.01
216.62,		604.99,		848.21
348.58,		350.46,		606.56
345.78,		353.19,		731.5
343.11,		355.81,		856.27
347.8,		475.47,		603.56
345.3,		478.35,		728.38
342.42,		481.1,		853.47
346.91,		600.54,		600.85
344.17,		603.35,		725.68
341.77,		605.84,		850.6
98.43,		476.34,		100.37
96.18,		478.77,		225.38
93.91,		481.82,		350.13
99.49,		601.42,		97.7
97.01,		603.86,		222.68
94.84,		606.74,		347.58
100.53,		726.27,		95.1
98.28,		728.9,		220.1
95.97,		731.61,		345.14
223.33,		475.16,		102.95
221.1,		477.94,		227.75
218.65,		480.76,		352.86
224.34,		600.15,		100.23
222.14,		603.07,		225.16
219.57,		605.54,		350.04
225.33,		725.05,		97.27
222.97,		727.79,		222.33
220.56,		730.56,		347.28
348.36,		474.22,		105.25
346.0,		477.02,		230.08
343.81,		479.68,		355.18
349.34,		599.23,		102.34
347.11,		601.96,		227.51
344.87,		604.6,		352.47
350.64,		724.53,		99.77
348.13,		726.86,		224.71
345.6,		729.59,		349.65
101.84,		473.52,		224.91
103.0,		472.87,		349.77
104.34,		471.71,		474.92
105.21,		598.56,		225.82
106.81,		597.53,		350.63
108.16,		596.78,		475.48
108.64,		723.64,		226.64
110.26,		722.73,		351.3
111.67,		721.61,		476.6
226.66,		470.11,		223.49
227.94,		469.01,		348.25
229.7,		468.48,		473.41
230.32,		595.13,		224.36
231.45,		594.29,		349.16
233.26,		593.35,		474.08
233.89,		719.9,		225.19
235.2,		719.18,		350.03
236.67,		718.28,		474.93
351.75,		466.55,		221.99
352.94,		465.87,		346.9
354.28,		464.73,		472.14
355.31,		591.39,		222.89
356.7,		590.56,		347.61
358.23,		589.59,		472.93
358.88,		716.5,		223.68
360.04,		715.55,		348.55
361.51,		714.82,		473.79
99.49,		475.73,		349.27
96.03,		476.25,		474.21
92.86,		476.73,		599.05
96.11,		600.52,		348.53
92.61,		600.85,		473.4
89.33,		601.64,		598.27
92.66,		725.36,		348.17
88.84,		726.19,		472.99
85.98,		726.45,		598.08
224.41,		479.12,		352.49
220.97,		479.79,		477.45
217.57,		479.91,		602.27
220.69,		603.9,		352.03
217.55,		604.38,		476.71
214.17,		605.06,		601.99
217.32,		729.08,		351.41
214.01,		729.35,		476.48
210.57,		730.06,		601.24
349.03,		482.48,		355.86
345.78,		483.13,		480.94
342.39,		483.47,		605.71
345.76,		607.34,		355.22
342.41,		608.02,		480.27
339.36,		608.54,		605.24
342.49,		732.4,		354.8
339.18,		733.02,		479.8
335.75,		733.45,		604.47
99.94,		474.33,		473.12
102.13,		476.51,		598.24
104.19,		478.57,		722.81
102.93,		599.24,		471.19
105.37,		601.34,		596.04
107.55,		603.63,		720.99
106.21,		724.46,		468.88
108.41,		726.37,		593.84
110.34,		728.27,		718.9
224.88,		471.43,		470.69
227.02,		473.23,		595.68
229.17,		475.24,		720.88
228.04,		596.47,		468.97
230.17,		598.32,		593.96
232.28,		600.36,		718.79
231.13,		721.34,		466.72
233.12,		723.12,		591.82
235.34,		725.09,		716.63
349.95,		468.21,		468.61
351.83,		470.04,		593.6
354.15,		472.38,		718.79
352.83,		592.99,		466.9
355.08,		595.03,		591.61
357.42,		596.98,		716.5
356.14,		717.96,		464.56
358.12,		719.87,		589.78
360.58,		721.94,		714.62
101.81,		473.39,		598.6
99.33,		473.53,		723.22
97.11,		473.6,		848.24
99.03,		598.07,		598.16
96.39,		598.56,		723.14
93.88,		598.78,		847.86
96.05,		723.29,		597.72
93.35,		723.46,		722.59
91.01,		723.65,		847.74
226.91,		476.05,		600.71
224.48,		476.22,		725.71
221.87,		476.55,		850.85
223.65,		601.21,		600.31
221.39,		601.52,		725.56
218.83,		601.54,		850.63
220.76,		726.1,		600.24
218.49,		726.25,		725.0
216.02,		726.5,		850.01
351.62,		479.12,		603.12
349.33,		479.22,		728.2
346.95,		479.74,		853.35
348.68,		604.14,		602.79
346.51,		604.27,		727.88
344.01,		604.71,		853.03
346.05,		729.16,		602.7
343.39,		729.17,		727.64
340.8,		729.57,		852.56
101.09,		598.11,		101.1
100.24,		596.81,		226.07
99.35,		595.64,		351.09
103.29,		723.23,		102.55
102.32,		721.62,		227.41
101.24,		720.36,		352.31
105.4,		848.26,		104.0
104.32,		847.02,		229.04
103.6,		845.2,		354.04
226.03,		596.43,		102.04
224.98,		594.84,		226.92
224.11,		593.32,		352.28
228.37,		721.19,		103.51
227.42,		719.91,		228.41
226.09,		718.52,		353.49
230.22,		846.17,		105.01
229.24,		844.78,		230.05
228.43,		843.33,		354.93
351.3,		594.18,		103.14
350.35,		592.8,		227.92
349.35,		591.11,		352.81
353.27,		719.02,		104.48
352.3,		717.47,		229.33
351.3,		716.18,		354.26
355.32,		844.07,		105.81
354.32,		842.63,		230.99
353.53,		840.94,		355.92
99.07,		598.46,		224.69
99.87,		596.37,		349.76
100.48,		594.79,		475.01
97.88,		723.53,		226.66
98.67,		721.66,		351.87
99.7,		719.52,		476.78
97.09,		848.28,		228.68
97.95,		846.43,		353.65
98.57,		844.76,		478.8
224.0,		599.55,		224.01
224.61,		597.54,		348.96
225.51,		595.76,		473.84
222.94,		724.44,		226.13
223.78,		722.51,		351.14
224.65,		720.61,		475.82
222.0,		849.46,		228.01
223.03,		847.57,		352.72
223.73,		845.49,		478.05
348.97,		600.4,		223.4
349.67,		598.32,		348.16
350.81,		596.42,		472.99
347.96,		725.28,		225.23
348.98,		723.57,		350.08
349.85,		721.28,		475.14
347.21,		850.31,		227.07
347.77,		848.2,		352.0
348.81,		846.58,		476.98
99.53,		598.19,		349.01
97.55,		597.0,		473.86
95.89,		595.47,		598.66
96.49,		723.23,		350.34
94.33,		721.85,		475.21
92.66,		720.41,		600.32
93.34,		848.22,		351.51
91.46,		846.69,		476.45
89.89,		845.21,		601.59
224.36,		601.14,		350.7
222.49,		599.99,		475.6
220.67,		598.32,		600.7
221.38,		726.28,		352.18
219.42,		724.88,		476.96
217.59,		723.43,		602.05
218.1,		851.17,		353.57
216.58,		849.58,		478.36
214.78,		848.41,		603.32
349.15,		604.2,		352.55
347.5,		602.94,		477.56
345.82,		601.46,		602.56
346.33,		729.31,		353.76
344.52,		727.8,		478.96
342.75,		726.24,		603.82
343.33,		854.17,		355.05
341.27,		852.9,		480.28
339.52,		851.19,		605.07
99.52,		600.43,		476.51
99.99,		600.39,		601.34
100.52,		600.07,		726.72
99.92,		725.6,		476.61
100.44,		725.27,		601.66
100.94,		725.14,		726.66
100.23,		850.76,		477.09
100.84,		850.28,		601.9
101.19,		850.28,		727.01
224.81,		600.43,		475.86
224.94,		599.95,		601.16
225.76,		599.91,		726.14
224.8,		725.19,		476.02
225.22,		725.17,		601.09
225.83,		724.91,		726.36
225.28,		849.98,		476.59
225.75,		850.12,		601.54
226.12,		849.82,		726.67
349.65,		600.04,		475.68
350.23,		599.92,		600.57
350.74,		599.36,		725.64
350.07,		725.06,		475.57
350.33,		724.63,		600.54
350.74,		724.61,		725.81
350.29,		850.09,		475.76
350.55,		849.84,		600.9
351.13,		849.66,		725.89
98.92,		601.74,		601.38
102.41,		599.13,		726.3
105.71,		596.94,		851.4
102.74,		726.57,		603.98
106.07,		724.27,		728.64
109.53,		721.66,		853.42
106.4,		851.54,		605.97
109.74,		848.98,		730.99
113.1,		846.62,		855.91
223.52,		597.83,		598.09
227.09,		595.54,		722.88
230.47,		593.28,		847.92
227.37,		722.96,		600.34
230.92,		720.64,		725.17
234.01,		718.09,		850.05
231.34,		847.73,		602.66
234.67,		845.47,		727.48
238.19,		842.92,		852.46
348.74,		594.34,		594.37
352.25,		592.02,		719.29
355.54,		589.53,		844.24
352.46,		719.16,		596.74
355.77,		716.81,		721.71
359.23,		714.35,		846.75
356.31,		844.09,		599.25
359.51,		841.48,		724.12
363.0,		839.14,		848.99
223.01,		101.46,		101.26
222.35,		100.23,		226.08
221.71,		99.44,		351.14
219.45,		226.47,		102.16
219.1,		225.24,		227.0
218.09,		224.47,		352.36
216.4,		351.38,		103.08
215.52,		350.35,		228.33
214.8,		349.09,		353.37
348.17,		105.01,		101.97
347.2,		103.93,		226.94
346.66,		102.77,		352.06
344.46,		229.81,		103.07
343.76,		228.72,		227.83
343.22,		227.74,		352.93
341.12,		354.91,		103.85
340.46,		353.73,		228.96
339.8,		352.49,		353.99
473.13,		108.22,		102.66
472.22,		107.34,		227.49
471.51,		106.37,		352.63
469.65,		233.48,		103.68
469.04,		232.48,		228.71
468.17,		231.17,		353.59
466.27,		358.06,		104.83
465.54,		356.97,		229.73
464.61,		356.21,		354.77
224.94,		98.82,		226.62
224.36,		101.74,		351.45
223.9,		104.66,		476.41
225.66,		223.65,		223.75
225.06,		226.84,		348.64
224.57,		229.54,		473.53
226.52,		348.88,		220.6
225.81,		351.55,		345.78
225.54,		354.61,		470.71
349.88,		97.89,		227.13
349.43,		101.02,		351.84
348.65,		103.66,		477.01
350.56,		223.07,		224.17
350.18,		225.7,		349.29
349.54,		228.56,		474.28
351.41,		347.8,		221.32
350.99,		350.89,		346.16
350.35,		353.66,		471.11
475.01,		97.01,		227.6
474.52,		100.08,		352.77
473.56,		102.75,		477.81
475.86,		222.29,		224.7
475.11,		224.9,		349.58
474.78,		227.83,		474.7
476.73,		347.24,		221.76
476.0,		349.93,		346.73
475.53,		353.0,		471.88
224.59,		98.97,		350.63
223.27,		100.58,		475.47
222.29,		102.29,		600.58
222.42,		224.16,		348.82
220.97,		225.71,		473.88
219.7,		227.33,		598.78
219.93,		349.04,		347.28
218.97,		350.57,		472.52
217.53,		352.04,		597.48
349.61,		101.3,		351.59
348.36,		103.02,		476.58
347.2,		104.46,		601.78
347.2,		226.24,		350.07
346.18,		227.75,		475.13
344.94,		229.27,		600.26
345.14,		351.07,		348.65
343.93,		352.77,		473.59
342.56,		354.58,		598.6
474.45,		103.61,		353.18
473.38,		105.26,		478.24
471.99,		106.78,		603.15
472.26,		228.79,		351.21
471.1,		230.4,		476.37
469.83,		231.66,		601.26
470.06,		353.62,		349.87
468.85,		355.22,		474.7
467.74,		356.65,		599.88
224.64,		98.68,		473.55
226.29,		102.05,		598.31
228.4,		105.94,		723.3
224.29,		223.63,		469.62
226.17,		227.36,		594.86
227.8,		230.64,		719.65
223.95,		348.46,		466.23
225.56,		352.22,		590.91
227.62,		355.86,		716.15
349.47,		98.76,		471.39
351.42,		102.43,		596.38
353.32,		106.21,		721.43
349.16,		223.91,		467.91
351.05,		227.6,		592.77
353.01,		231.29,		717.67
348.8,		348.9,		464.35
350.55,		352.66,		589.2
352.43,		356.28,		714.28
474.73,		99.2,		469.85
476.28,		102.86,		594.75
478.3,		106.48,		719.54
474.3,		224.32,		466.26
476.06,		228.01,		590.94
477.88,		231.34,		715.95
473.65,		349.27,		462.55
475.7,		352.89,		587.32
477.46,		356.42,		712.21
226.56,		100.83,		600.37
227.49,		104.36,		725.37
228.48,		107.78,		850.41
229.96,		225.74,		597.06
231.32,		228.95,		722.19
232.24,		232.67,		846.87
233.84,		350.67,		593.57
234.79,		354.28,		718.68
236.23,		357.64,		843.69
351.44,		97.25,		599.63
352.47,		100.48,		724.66
353.42,		104.07,		849.26
354.97,		221.8,		596.17
356.17,		225.45,		721.07
357.18,		228.91,		846.04
358.89,		346.94,		592.68
359.69,		350.21,		717.6
361.13,		353.95,		842.61
476.37,		93.61,		598.64
477.41,		96.86,		723.33
478.54,		100.14,		848.61
480.06,		218.29,		595.11
481.21,		221.56,		719.94
482.19,		225.35,		844.86
483.57,		343.24,		591.66
484.66,		346.76,		716.65
485.82,		350.34,		841.5
224.94,		223.85,		100.2
225.09,		227.51,		225.17
225.22,		231.04,		350.01
225.64,		349.14,		96.7
225.93,		352.37,		221.82
225.9,		356.19,		346.63
226.16,		473.69,		93.17
226.5,		477.4,		217.91
226.77,		480.98,		342.83
349.84,		223.24,		100.16
350.31,		226.61,		225.02
350.18,		230.47,		350.13
350.6,		348.19,		96.55
351.0,		351.67,		221.32
351.07,		355.28,		346.37
351.61,		473.2,		93.04
351.41,		476.57,		217.73
351.76,		480.22,		342.71
474.95,		222.41,		99.94
475.21,		226.3,		224.72
475.23,		229.79,		349.93
475.85,		347.6,		96.35
475.93,		351.17,		221.44
475.98,		354.55,		346.33
476.29,		472.47,		92.83
476.59,		475.88,		217.78
476.57,		479.69,		342.78
224.81,		223.51,		226.39
223.34,		223.98,		351.15
221.66,		224.61,		476.24
221.16,		348.45,		225.6
219.96,		349.06,		350.54
218.07,		349.88,		475.46
217.84,		473.04,		224.68
216.42,		473.79,		349.85
215.08,		474.61,		474.61
349.48,		226.63,		227.82
347.91,		227.54,		352.81
346.69,		227.97,		477.61
346.34,		351.7,		226.81
344.61,		352.24,		351.99
343.32,		353.17,		477.02
342.99,		476.5,		226.03
341.54,		477.16,		350.99
339.91,		478.12,		476.19
474.49,		230.04,		229.07
473.12,		230.79,		354.0
471.73,		231.65,		479.1
471.14,		355.01,		228.31
469.77,		355.89,		353.41
468.09,		356.68,		478.31
467.85,		479.94,		227.46
466.16,		480.57,		352.68
464.6,		481.63,		477.55
225.02,		225.76,		350.3
221.97,		228.89,		475.34
218.41,		232.1,		600.34
225.76,		350.61,		347.36
222.62,		354.03,		472.36
219.41,		356.74,		597.22
226.53,		475.87,		344.31
223.23,		478.82,		469.4
220.02,		481.79,		594.25
349.82,		225.13,		353.87
346.76,		228.21,		478.81
343.52,		231.29,		603.57
350.66,		350.01,		350.89
347.47,		353.34,		475.55
344.1,		356.31,		600.68
351.46,		475.28,		347.44
348.06,		478.27,		472.63
344.78,		481.51,		597.56
475.0,		224.54,		357.13
471.54,		227.73,		482.01
468.31,		230.86,		606.74
475.75,		349.72,		354.12
472.55,		352.65,		478.91
469.2,		355.81,		603.66
476.18,		474.46,		350.89
473.07,		477.77,		475.94
469.97,		480.62,		600.69
226.94,		224.23,		475.59
224.94,		226.16,		600.38
223.5,		228.17,		725.31
229.63,		349.05,		473.67
228.16,		351.36,		598.64
226.47,		353.17,		723.34
232.69,		474.15,		471.39
230.89,		476.07,		596.66
229.24,		478.14,		721.31
351.42,		221.42,		477.23
349.8,		223.53,		602.17
348.51,		225.37,		727.23
354.72,		346.4,		475.3
352.74,		348.15,		600.04
351.41,		350.11,		725.07
357.59,		471.09,		473.24
355.7,		473.42,		598.36
354.23,		475.2,		723.3
476.69,		218.63,		478.71
475.04,		220.31,		604.01
473.53,		222.6,		728.77
479.51,		343.45,		477.08
477.74,		345.33,		601.69
476.39,		347.54,		726.73
482.58,		468.26,		474.85
480.78,		470.4,		600.05
479.23,		472.3,		724.9
226.78,		225.96,		597.87
226.26,		222.28,		722.86
226.2,		218.65,		847.98
223.35,		350.89,		601.75
222.96,		347.33,		726.57
222.64,		343.47,		851.65
220.02,		475.69,		605.33
219.57,		472.01,		730.39
219.04,		468.48,		855.09
351.78,		229.14,		598.69
351.29,		225.45,		723.68
350.92,		222.02,		848.45
348.52,		354.24,		602.01
348.07,		350.39,		727.16
347.67,		347.03,		852.14
345.07,		479.26,		605.71
344.72,		475.63,		730.67
344.16,		471.65,		855.58
476.58,		232.66,		599.24
476.37,		229.17,		724.06
475.95,		225.44,		848.82
473.35,		357.65,		602.53
472.86,		353.92,		727.62
472.54,		350.47,		852.47
470.06,		482.53,		606.22
469.5,		478.82,		731.43
469.08,		475.3,		856.27
223.76,		350.09,		101.48
221.09,		347.99,		226.48
218.44,		345.68,		351.21
221.82,		475.08,		103.61
219.18,		472.8,		228.46
216.69,		470.48,		353.47
219.93,		600.38,		105.98
217.26,		597.89,		230.72
214.64,		595.6,		355.75
348.64,		351.9,		104.08
345.82,		349.79,		228.83
343.43,		347.57,		354.08
346.87,		477.13,		106.31
344.22,		474.79,		231.3
341.45,		472.65,		356.2
344.94,		602.14,		108.34
342.17,		599.89,		233.51
339.52,		597.43,		358.6
473.41,		353.99,		106.79
470.8,		351.57,		231.49
468.17,		349.24,		356.74
471.57,		478.97,		108.92
468.96,		476.68,		233.78
466.44,		474.4,		358.95
469.53,		603.7,		111.08
466.98,		601.48,		236.24
464.62,		599.4,		360.84
223.62,		348.79,		225.94
224.74,		349.55,		350.9
226.27,		350.55,		475.66
223.83,		473.67,		224.82
225.1,		474.72,		349.68
226.35,		475.83,		474.7
223.7,		598.58,		223.86
224.86,		599.67,		349.0
226.44,		600.59,		473.8
348.63,		348.73,		224.73
349.87,		349.77,		349.49
351.08,		350.65,		474.71
348.88,		473.8,		223.77
350.11,		474.73,		348.45
351.28,		475.61,		473.51
348.92,		598.82,		222.39
349.91,		599.45,		347.38
351.5,		600.81,		472.61
473.82,		348.61,		223.53
474.88,		349.75,		348.35
476.14,		350.41,		473.51
473.62,		473.71,		222.45
475.11,		474.51,		347.51
475.97,		475.39,		472.38
473.57,		598.54,		221.55
475.19,		599.43,		346.25
476.1,		600.55,		471.47
226.51,		350.27,		348.22
228.12,		348.65,		473.12
229.81,		347.07,		598.08
222.97,		475.21,		349.64
224.3,		473.6,		474.67
225.97,		472.01,		599.7
218.92,		599.83,		351.33
220.85,		598.51,		476.4
222.26,		596.64,		601.38
351.18,		353.8,		346.4
352.94,		352.24,		471.37
354.55,		350.81,		596.67
347.75,		478.86,		348.09
349.35,		477.02,		473.08
351.09,		475.38,		597.99
344.25,		603.78,		349.87
345.89,		602.07,		474.68
347.49,		600.51,		599.54
476.25,		357.42,		345.11
477.88,		355.69,		469.95
479.56,		354.41,		594.78
472.7,		482.32,		346.46
474.2,		480.82,		471.51
475.64,		479.0,		596.43
468.84,		607.18,		348.02
470.6,		605.65,		473.34
472.38,		604.09,		598.12
223.39,		351.96,		474.87
225.82,		348.67,		599.95
228.44,		345.34,		724.72
226.74,		476.92,		478.23
229.05,		473.67,		603.17
231.6,		470.21,		728.12
230.06,		601.79,		481.3
232.44,		598.43,		606.17
234.92,		595.1,		731.12
348.39,		348.69,		472.24
350.88,		345.47,		597.5
353.29,		342.39,		722.14
351.56,		473.45,		475.58
354.09,		470.37,		600.49
356.66,		467.04,		725.34
354.85,		598.55,		478.66
357.51,		595.2,		603.72
360.04,		592.22,		728.67
473.13,		345.58,		469.89
475.68,		342.44,		594.61
478.29,		339.19,		719.78
476.38,		470.43,		472.96
478.93,		467.33,		597.96
481.73,		464.01,		722.64
479.9,		595.47,		476.19
482.31,		592.12,		601.03
484.86,		588.74,		725.85
225.85,		347.93,		600.28
222.57,		347.15,		725.1
219.51,		346.46,		849.93
223.14,		472.8,		600.76
220.08,		471.99,		725.97
217.01,		471.22,		850.91
220.63,		597.8,		601.92
217.63,		597.28,		726.82
214.64,		596.14,		851.64
350.74,		350.33,		603.07
347.78,		349.6,		728.08
344.43,		348.63,		853.0
348.01,		475.35,		604.19
345.02,		474.52,		728.9
342.04,		473.81,		854.02
345.8,		600.62,		604.81
342.47,		599.53,		729.64
339.58,		598.67,		854.54
475.71,		352.84,		606.12
472.36,		352.02,		731.33
469.49,		351.27,		856.3
472.87,		478.04,		607.2
469.88,		477.13,		732.01
467.0,		476.12,		856.9
470.38,		603.08,		607.84
467.38,		602.09,		732.86
464.35,		601.27,		857.91
223.87,		474.97,		98.22
226.2,		472.47,		223.16
228.29,		469.88,		348.31
224.73,		599.68,		100.62
226.61,		597.37,		225.46
228.92,		594.75,		350.38
225.45,		724.8,		103.13
227.34,		722.17,		228.02
229.61,		719.73,		353.08
348.81,		474.23,		96.04
351.18,		471.78,		220.88
353.17,		469.3,		345.81
349.73,		599.08,		98.61
351.95,		596.66,		223.59
354.0,		594.4,		348.46
350.34,		723.99,		100.98
352.56,		721.64,		225.74
354.67,		719.31,		350.86
473.8,		473.31,		94.0
476.13,		471.09,		218.81
478.13,		468.63,		343.93
474.5,		598.33,		96.19
476.77,		595.9,		221.25
478.8,		593.41,		346.06
475.21,		723.36,		98.63
477.23,		721.16,		223.65
479.47,		718.81,		348.75
225.31,		474.08,		226.43
222.89,		476.75,		351.57
220.71,		479.58,		476.2
225.71,		598.9,		223.81
223.58,		601.52,		348.88
221.18,		604.13,		473.6
226.32,		724.04,		221.1
224.04,		726.72,		346.0
221.66,		729.14,		470.92
350.28,		473.66,		228.57
347.95,		476.13,		353.57
345.77,		478.97,		478.61
350.99,		598.38,		226.25
348.72,		601.3,		351.1
346.31,		603.78,		476.06
351.55,		723.41,		223.34
348.87,		726.15,		348.41
346.74,		728.86,		473.4
475.45,		473.07,		231.03
473.05,		475.7,		356.11
470.74,		478.46,		480.87
475.88,		598.1,		228.6
473.43,		600.72,		353.25
471.34,		603.34,		478.25
476.03,		722.95,		226.03
473.99,		725.61,		350.73
471.67,		728.28,		475.82
223.75,		473.74,		351.04
221.02,		471.34,		476.02
218.15,		469.07,		601.15
220.93,		598.67,		353.44
218.26,		596.15,		478.28
215.18,		594.12,		603.47
218.03,		723.49,		355.54
215.33,		721.31,		480.59
212.47,		718.97,		605.53
348.82,		476.37,		354.07
346.07,		474.21,		479.07
343.29,		471.9,		603.77
345.96,		601.45,		356.23
343.24,		599.15,		481.24
340.18,		597.01,		606.01
343.02,		726.16,		358.52
340.08,		723.97,		483.27
337.58,		721.65,		608.28
473.79,		479.05,		357.01
470.62,		477.12,		481.88
468.04,		474.8,		606.89
470.88,		604.09,		359.17
467.88,		602.02,		484.07
465.33,		599.7,		609.15
467.8,		729.22,		361.5
465.26,		726.99,		486.13
462.39,		724.48,		611.03
224.66,		473.4,		474.77
223.97,		476.62,		600.04
223.84,		479.76,		724.92
223.56,		598.13,		471.82
222.98,		601.36,		596.75
222.81,		604.71,		721.79
222.21,		723.26,		468.5
222.04,		726.43,		593.63
221.63,		729.59,		718.73
349.42,		474.54,		475.52
349.37,		477.47,		600.46
348.65,		480.7,		725.39
348.37,		599.38,		472.18
348.18,		602.69,		597.09
347.7,		605.88,		721.98
347.32,		724.34,		468.98
346.78,		727.59,		594.08
346.46,		730.69,		718.77
474.56,		475.64,		475.78
474.14,		478.71,		600.78
473.63,		481.94,		725.69
473.2,		600.5,		472.62
473.01,		603.64,		597.48
472.45,		606.91,		722.42
472.32,		725.63,		469.39
471.67,		728.71,		594.29
471.34,		731.96,		719.5
223.17,		475.73,		598.31
223.02,		477.23,		723.36
223.12,		479.19,		848.46
220.28,		600.6,		596.78
220.33,		602.44,		721.64
220.47,		604.34,		846.56
217.73,		725.63,		595.0
217.67,		727.23,		719.99
217.72,		729.18,		845.1
348.01,		478.47,		598.57
348.02,		480.02,		723.43
348.22,		481.89,		848.47
345.69,		603.18,		596.62
345.56,		605.05,		721.79
345.37,		607.03,		846.63
342.61,		728.13,		594.91
342.51,		730.2,		719.92
342.67,		731.93,		844.87
473.13,		480.96,		598.61
472.99,		482.73,		723.6
472.96,		484.62,		848.6
470.34,		606.26,		596.49
470.26,		607.95,		721.6
470.36,		609.67,		846.64
467.73,		731.21,		594.76
467.69,		732.92,		719.91
467.84,		734.49,		844.77
223.96,		599.91,		100.11
225.25,		601.83,		225.28
226.16,		604.1,		350.22
221.56,		724.69,		98.13
222.73,		726.97,		222.96
224.01,		729.18,		348.06
219.67,		849.75,		95.9
220.67,		851.81,		220.93
221.86,		854.03,		346.0
348.92,		602.2,		98.86
350.0,		604.34,		223.83
351.31,		606.32,		348.75
346.8,		726.87,		97.0
348.02,		728.87,		221.85
349.13,		731.05,		346.95
344.88,		851.91,		94.76
345.95,		853.94,		219.54
346.91,		856.25,		344.78
473.8,		604.24,		97.78
474.81,		606.3,		222.91
476.26,		608.33,		347.91
471.86,		729.02,		95.83
472.89,		731.07,		220.86
474.07,		733.23,		345.76
469.57,		854.08,		93.67
470.39,		856.4,		218.72
471.78,		858.43,		343.71
226.79,		601.55,		226.26
228.02,		604.63,		350.95
229.77,		607.74,		476.15
227.92,		726.48,		223.01
229.51,		729.78,		347.89
231.09,		732.95,		473.04
228.94,		851.5,		219.8
230.42,		854.71,		344.64
232.0,		857.76,		469.8
351.85,		600.58,		224.59
353.38,		603.4,		349.62
354.73,		606.66,		474.49
352.85,		725.51,		221.27
354.53,		728.7,		346.22
355.96,		731.56,		471.17
354.03,		850.3,		218.33
355.56,		853.58,		343.14
357.17,		856.46,		468.25
476.65,		599.36,		223.13
478.02,		602.55,		348.05
479.67,		605.58,		472.78
477.79,		724.08,		219.87
479.27,		727.57,		344.72
480.81,		730.52,		469.8
478.75,		849.09,		216.83
480.43,		852.27,		341.64
482.05,		855.45,		466.69
224.41,		601.01,		349.15
222.96,		600.71,		474.15
220.76,		600.38,		599.08
226.37,		726.01,		349.56
224.71,		725.53,		474.56
222.7,		725.35,		599.33
228.32,		851.15,		349.8
226.26,		850.63,		474.9
224.47,		850.39,		599.61
349.63,		599.24,		350.96
347.81,		598.73,		475.85
345.86,		598.52,		600.91
351.44,		724.01,		351.18
349.68,		723.94,		476.29
347.51,		723.22,		601.43
353.38,		849.35,		351.67
351.31,		848.74,		476.71
349.36,		848.41,		601.88
474.65,		597.27,		352.85
472.49,		597.19,		477.9
470.54,		596.58,		602.92
476.24,		722.6,		353.28
474.25,		721.8,		478.07
472.44,		721.7,		603.04
478.18,		847.34,		353.72
476.23,		847.04,		478.75
474.3,		846.39,		603.79
226.34,		599.89,		473.92
223.15,		603.65,		598.84
220.06,		607.17,		723.94
229.29,		725.08,		470.38
225.92,		728.69,		595.31
223.09,		732.4,		720.13
232.05,		849.87,		466.8
229.02,		853.43,		591.83
225.97,		857.36,		716.68
351.31,		597.11,		477.01
348.1,		601.01,		602.05
345.09,		604.62,		727.1
353.98,		722.36,		473.66
351.06,		725.79,		598.43
348.07,		729.36,		723.24
357.13,		847.12,		470.14
354.02,		850.71,		594.75
350.99,		854.33,		719.82
476.21,		594.7,		480.28
472.86,		598.28,		605.26
469.93,		601.7,		730.12
478.92,		719.37,		476.76
475.85,		723.2,		601.77
472.89,		726.64,		726.5
481.72,		844.52,		473.34
478.74,		848.13,		598.14
475.58,		851.78,		722.94
224.19,		601.83,		598.93
223.19,		598.68,		724.15
222.05,		595.58,		848.88
223.68,		726.56,		602.26
222.39,		723.6,		727.16
221.16,		720.48,		852.16
222.79,		851.89,		605.27
221.42,		848.38,		730.19
220.22,		845.49,		855.3
349.65,		602.49,		600.13
348.33,		599.58,		725.25
346.91,		596.31,		850.24
348.48,		727.78,		603.41
347.44,		724.43,		728.39
346.21,		721.31,		853.4
347.61,		852.47,		606.48
346.42,		849.38,		731.69
345.06,		846.2,		856.38
474.24,		603.32,		601.35
473.0,		600.37,		726.73
471.81,		597.01,		851.23
473.5,		728.5,		604.65
472.16,		725.28,		729.51
471.06,		722.27,		854.55
472.87,		853.27,		607.91
471.42,		850.4,		732.97
470.42,		847.01,		857.88
350.71,		98.2,		100.97
348.35,		99.93,		226.1
345.87,		101.25,		351.05
350.64,		223.34,		99.8
348.04,		224.66,		224.55
345.55,		226.01,		349.3
350.13,		348.27,		98.17
347.92,		349.88,		223.09
345.48,		351.31,		348.11
475.76,		98.61,		103.33
473.65,		100.11,		228.41
471.13,		101.52,		353.3
475.42,		223.45,		101.95
472.98,		225.12,		226.75
470.69,		226.57,		352.04
475.17,		348.66,		100.3
472.92,		350.13,		225.55
470.53,		351.45,		350.56
600.95,		98.85,		105.93
598.32,		100.35,		230.84
596.13,		102.06,		355.85
600.67,		223.96,		104.55
598.04,		225.46,		229.27
595.72,		227.09,		354.25
600.21,		348.83,		102.98
597.85,		350.48,		227.87
595.52,		352.02,		352.99
348.6,		100.36,		225.8
344.93,		98.88,		350.65
341.62,		96.95,		475.78
350.89,		225.5,		227.65
347.42,		223.61,		352.45
343.8,		221.82,		477.56
353.34,		350.58,		229.53
349.95,		348.77,		354.4
346.35,		346.83,		479.28
473.48,		97.82,		229.36
469.79,		96.21,		354.17
466.36,		94.34,		479.36
476.0,		223.08,		231.26
472.5,		221.23,		356.01
468.75,		219.5,		480.92
478.37,		347.78,		232.83
474.94,		346.29,		357.93
471.42,		344.33,		482.79
598.4,		95.44,		232.83
594.9,		93.99,		357.82
591.26,		92.12,		482.67
600.83,		220.7,		234.59
597.03,		218.61,		359.66
593.78,		217.02,		484.42
603.3,		345.45,		236.45
599.55,		343.62,		361.55
596.31,		341.95,		486.42
348.67,		100.77,		351.84
345.63,		99.73,		476.88
342.87,		99.04,		601.75
350.28,		225.69,		352.81
347.24,		224.85,		477.78
344.42,		224.07,		602.66
351.74,		350.79,		353.78
348.83,		350.03,		478.84
345.79,		348.78,		603.78
473.49,		99.24,		354.69
470.67,		98.12,		479.65
467.69,		97.51,		604.59
475.03,		224.14,		355.72
472.21,		223.29,		480.91
469.18,		222.18,		605.75
476.78,		349.31,		356.67
473.83,		348.27,		481.67
470.86,		347.48,		606.68
598.31,		97.38,		357.5
595.59,		96.87,		482.49
592.54,		95.83,		607.71
600.07,		222.37,		358.54
597.07,		221.55,		483.74
594.19,		220.63,		608.47
601.83,		347.66,		359.43
598.67,		346.56,		484.68
595.89,		345.63,		609.43
349.36,		99.65,		475.07
348.92,		99.54,		600.07
348.23,		99.15,		725.25
350.59,		224.86,		475.37
350.17,		224.36,		600.27
349.35,		224.05,		725.24
351.71,		349.56,		475.46
351.26,		349.62,		600.46
350.77,		349.37,		725.69
474.59,		98.74,		475.63
473.96,		98.51,		600.42
473.22,		98.3,		725.49
475.82,		223.75,		476.06
475.12,		223.31,		601.03
474.43,		223.07,		726.02
476.86,		348.46,		476.11
476.08,		348.53,		601.03
475.83,		348.21,		725.99
599.38,		97.58,		476.32
598.89,		97.22,		601.07
598.32,		96.8,		726.39
600.57,		222.38,		476.58
599.85,		222.06,		601.51
599.42,		222.07,		726.48
601.68,		347.56,		476.88
601.12,		347.1,		601.95
600.45,		346.94,		726.84
348.95,		99.45,		600.91
348.96,		98.69,		726.01
349.29,		98.44,		851.08
352.46,		224.48,		601.72
352.39,		223.98,		726.69
352.68,		223.31,		851.61
355.85,		349.27,		602.26
355.7,		348.82,		727.39
355.74,		348.06,		852.2
474.12,		96.03,		601.13
473.97,		95.44,		726.18
474.22,		94.87,		851.01
477.34,		221.04,		601.58
477.47,		220.64,		726.53
477.41,		219.91,		851.57
480.85,		345.77,		602.07
480.96,		345.25,		727.02
480.63,		345.18,		852.11
599.06,		92.66,		601.09
599.13,		92.04,		726.16
598.86,		91.84,		851.04
602.44,		217.61,		601.66
602.55,		217.16,		726.55
602.37,		216.57,		851.8
605.56,		342.43,		602.17
605.81,		342.26,		727.15
605.75,		341.56,		852.19
351.35,		225.4,		101.11
348.88,		222.85,		226.14
346.55,		220.91,		350.87
353.47,		350.38,		103.45
351.07,		347.99,		228.3
348.51,		345.59,		353.18
355.25,		475.08,		105.61
353.08,		472.92,		230.46
350.52,		470.59,		355.72
476.07,		223.17,		103.41
473.72,		221.26,		228.51
471.53,		218.85,		353.15
478.31,		348.21,		105.52
475.74,		345.89,		230.43
473.7,		343.55,		355.46
479.94,		473.2,		108.02
477.68,		470.74,		233.02
475.55,		468.55,		357.71
600.95,		221.2,		105.48
598.63,		219.0,		230.62
596.21,		216.52,		355.81
603.07,		346.03,		107.86
600.66,		343.88,		233.03
598.57,		341.73,		358.04
605.33,		470.98,		110.24
602.99,		468.99,		235.38
600.32,		466.53,		360.23
348.41,		223.38,		223.74
346.96,		226.22,		348.89
345.57,		229.2,		473.64
350.38,		348.31,		221.0
349.22,		350.93,		345.74
347.82,		354.05,		470.81
352.63,		473.02,		218.1
351.21,		476.13,		342.89
350.0,		479.02,		468.03
473.38,		221.11,		225.22
471.97,		224.11,		350.2
470.56,		227.06,		475.29
475.33,		346.05,		222.2
474.0,		349.19,		347.1
472.63,		351.69,		472.42
477.33,		470.95,		219.7
476.04,		473.81,		344.24
474.7,		477.02,		469.42
598.12,		218.89,		226.49
596.8,		221.74,		351.68
595.47,		224.76,		476.67
600.54,		344.13,		223.58
599.15,		346.68,		348.51
597.81,		349.86,		473.53
602.65,		468.77,		220.85
601.14,		471.93,		345.85
599.96,		474.72,		470.89
351.84,		224.38,		350.9
352.23,		227.1,		475.9
353.07,		229.73,		600.61
353.93,		349.37,		348.21
354.75,		352.13,		473.15
355.12,		354.65,		598.05
356.55,		474.36,		345.33
357.17,		477.27,		470.26
357.62,		479.81,		595.57
476.91,		222.0,		350.43
477.35,		224.95,		475.18
477.92,		227.48,		600.15
479.04,		347.2,		347.77
479.79,		349.69,		472.41
480.09,		352.56,		597.46
481.3,		472.01,		345.08
481.91,		474.83,		470.03
482.48,		477.4,		595.06
601.64,		219.63,		349.79
602.4,		222.53,		474.69
603.01,		225.19,		599.64
604.0,		344.71,		347.17
604.79,		347.63,		471.92
605.31,		350.2,		596.98
606.46,		469.87,		344.17
607.13,		472.63,		469.26
607.7,		475.16,		594.39
349.56,		226.74,		473.38
346.59,		223.9,		598.27
343.51,		220.99,		723.19
352.98,		351.84,		475.99
349.89,		349.02,		601.26
346.96,		346.35,		726.19
356.13,		476.47,		479.12
353.05,		473.8,		604.09
350.0,		470.97,		728.81
474.58,		223.46,		476.39
471.54,		220.67,		601.13
468.25,		217.85,		726.18
477.68,		348.29,		479.27
474.88,		345.62,		604.1
471.88,		342.88,		729.0
481.17,		473.44,		481.89
477.95,		470.61,		606.87
474.89,		467.57,		732.1
599.34,		219.97,		479.38
596.43,		217.12,		604.33
593.43,		214.51,		729.05
602.69,		344.95,		482.05
599.63,		342.18,		607.31
596.58,		339.28,		732.24
606.21,		469.97,		484.96
602.99,		466.95,		609.82
599.84,		464.38,		735.07
349.98,		226.38,		601.3
346.84,		222.87,		725.97
344.29,		219.16,		851.18
347.8,		351.59,		604.7
345.01,		347.93,		729.78
341.93,		344.01,		854.63
345.53,		476.3,		608.22
342.75,		472.58,		733.14
340.05,		468.98,		858.32
474.94,		228.53,		604.29
471.87,		224.98,		729.16
468.98,		221.12,		853.83
472.73,		353.55,		607.55
470.03,		349.72,		732.56
466.92,		346.34,		857.46
470.37,		478.42,		611.22
467.73,		474.62,		736.07
464.96,		471.14,		861.0
599.92,		230.37,		607.0
596.83,		226.66,		732.08
593.87,		223.33,		856.81
597.7,		355.46,		610.46
594.64,		351.9,		735.63
591.82,		348.07,		860.29
595.53,		480.47,		614.38
592.87,		476.84,		739.02
589.8,		473.14,		863.99
349.55,		349.76,		99.65
350.27,		352.3,		224.43
351.12,		355.01,		349.45
349.49,		474.58,		96.76
350.02,		477.55,		221.61
350.83,		480.08,		346.55
349.33,		599.46,		94.19
349.97,		602.25,		219.0
350.7,		605.04,		344.02
474.42,		349.91,		98.64
475.2,		352.57,		223.97
475.9,		355.31,		348.6
474.29,		474.83,		96.23
474.89,		477.53,		221.09
475.74,		480.39,		345.93
474.49,		599.68,		93.34
474.87,		602.6,		218.22
475.67,		605.15,		343.38
599.81,		350.15,		98.08
600.31,		352.76,		223.12
601.14,		355.43,		348.11
599.64,		474.78,		95.52
600.09,		477.59,		220.19
600.9,		480.36,		345.26
599.56,		599.89,		92.82
600.23,		602.65,		217.72
600.61,		605.47,		342.51
349.6,		350.14,		223.09
347.66,		351.84,		348.05
345.74,		353.82,		472.91
351.88,		475.01,		221.15
349.6,		477.09,		346.05
347.9,		479.05,		471.17
354.22,		600.01,		219.2
352.11,		602.04,		344.34
350.17,		603.98,		469.38
474.39,		347.65,		225.12
472.41,		349.88,		350.11
470.65,		351.53,		474.92
476.75,		472.58,		223.15
474.62,		474.73,		348.17
472.66,		476.55,		472.98
478.81,		597.59,		221.24
476.87,		599.81,		346.3
474.92,		601.77,		471.19
599.53,		345.67,		226.97
597.46,		347.62,		352.18
595.38,		349.58,		477.07
601.62,		470.54,		225.04
599.7,		472.61,		350.24
597.92,		474.48,		475.19
604.21,		595.47,		223.22
601.81,		597.39,		348.38
599.99,		599.52,		473.07
348.09,		351.94,		348.72
346.08,		348.84,		473.71
343.7,		345.65,		598.6
346.58,		476.7,		351.92
344.18,		473.63,		476.84
342.11,		470.29,		602.06
345.17,		602.02,		355.15
342.67,		598.83,		480.01
340.78,		595.59,		604.89
473.08,		353.62,		351.0
470.98,		350.17,		476.22
468.63,		347.05,		601.12
471.67,		478.21,		354.32
469.2,		475.37,		479.21
467.18,		471.97,		604.26
469.87,		603.31,		357.24
467.9,		600.17,		482.37
465.42,		596.9,		607.53
598.23,		354.82,		353.2
595.7,		351.57,		478.35
593.73,		348.72,		603.22
596.62,		480.02,		356.41
594.49,		476.92,		481.57
592.0,		473.46,		606.31
595.17,		605.03,		359.63
592.93,		601.66,		484.7
590.55,		598.3,		609.72
350.56,		350.69,		476.73
353.12,		353.16,		601.5
355.81,		355.62,		726.76
348.11,		475.72,		474.18
350.71,		478.06,		599.13
353.64,		480.66,		724.27
345.91,		600.78,		471.85
348.71,		603.16,		597.09
351.22,		605.52,		721.95
475.7,		353.06,		474.17
478.23,		355.72,		598.89
480.64,		358.11,		723.99
473.3,		478.02,		471.77
475.83,		480.51,		596.5
478.24,		482.65,		721.47
470.68,		602.96,		469.25
473.47,		605.25,		594.28
476.15,		607.96,		719.21
600.31,		355.21,		471.24
603.22,		357.74,		596.38
605.89,		360.39,		721.36
598.36,		480.29,		469.22
600.63,		482.69,		593.85
603.44,		485.14,		718.94
596.1,		605.28,		466.87
598.4,		607.62,		591.88
600.86,		609.97,		716.66
351.9,		348.82,		601.81
352.18,		349.63,		726.53
352.39,		350.14,		851.61
353.07,		473.71,		601.19
353.22,		474.78,		726.06
353.69,		475.09,		851.05
354.09,		598.94,		600.36
354.51,		599.46,		725.36
354.69,		600.12,		850.37
476.61,		347.75,		601.29
477.07,		348.51,		726.32
477.41,		349.36,		851.35
478.02,		472.55,		600.55
478.15,		473.31,		725.6
478.71,		473.87,		850.83
478.88,		597.75,		600.1
479.57,		598.54,		724.94
479.62,		599.02,		849.74
601.59,		346.51,		601.14
602.18,		347.4,		725.85
602.6,		347.69,		851.1
602.97,		471.61,		600.53
603.26,		472.4,		725.33
603.5,		472.91,		850.38
604.2,		596.39,		599.48
604.38,		597.31,		724.57
604.85,		597.98,		849.41
351.5,		475.57,		99.64
351.26,		473.54,		224.56
351.18,		471.59,		349.46
347.98,		600.63,		101.74
348.24,		598.65,		226.65
348.0,		596.84,		351.4
344.85,		725.77,		103.57
344.79,		723.74,		228.56
344.75,		721.47,		353.66
476.41,		479.15,		99.76
476.14,		477.15,		224.83
476.26,		474.79,		349.73
473.07,		604.19,		101.56
472.83,		601.93,		226.66
472.83,		599.88,		351.73
469.66,		728.82,		103.69
469.38,		727.05,		228.57
469.77,		724.99,		353.59
601.34,		482.15,		99.88
601.08,		480.28,		224.6
601.37,		478.13,		349.69
597.89,		607.16,		101.93
597.84,		605.4,		226.73
598.04,		603.13,		351.79
594.73,		732.3,		103.94
594.7,		730.0,		228.51
594.63,		728.14,		353.87
351.05,		476.47,		224.66
352.85,		478.75,		349.72
355.2,		480.38,		474.79
350.53,		601.52,		223.02
352.49,		603.68,		347.98
354.48,		605.4,		472.92
349.88,		726.64,		220.74
351.75,		728.39,		345.83
353.8,		730.4,		471.1
476.05,		477.01,		222.73
477.9,		479.12,		347.58
479.85,		480.8,		472.75
475.46,		602.33,		221.08
477.37,		603.99,		345.9
479.44,		605.78,		470.93
474.74,		727.33,		219.01
476.66,		729.16,		343.84
478.66,		731.01,		469.02
601.14,		477.58,		220.69
603.11,		479.55,		345.61
604.85,		481.47,		470.77
600.42,		602.83,		218.6
602.3,		604.45,		343.71
604.38,		606.33,		468.65
600.08,		727.52,		216.73
601.76,		729.4,		341.79
604.13,		731.53,		466.99
348.85,		475.0,		351.3
348.11,		473.03,		476.24
347.35,		471.22,		601.18
351.86,		599.92,		352.78
350.8,		598.17,		478.07
350.24,		596.34,		602.93
354.48,		724.76,		354.5
353.38,		722.92,		479.54
352.91,		721.4,		604.75
473.95,		472.12,		352.02
473.11,		470.35,		476.9
472.12,		468.75,		602.02
476.47,		597.21,		353.74
475.87,		595.29,		478.57
475.02,		593.82,		603.71
479.44,		721.98,		355.71
478.48,		720.21,		480.34
477.58,		718.55,		605.64
599.09,		469.65,		352.61
598.25,		467.84,		477.7
597.27,		466.04,		602.69
601.57,		594.29,		354.68
600.87,		592.87,		479.7
599.8,		590.95,		604.42
604.28,		719.44,		356.12
603.61,		717.8,		481.36
602.83,		716.1,		606.31
348.04,		476.09,		476.0
347.98,		473.81,		600.69
347.49,		472.16,		725.69
346.51,		600.77,		477.86
346.15,		598.83,		602.65
345.89,		597.15,		727.77
344.79,		725.69,		479.68
344.76,		723.91,		604.5
344.5,		722.05,		729.48
473.13,		477.29,		476.08
472.92,		475.38,		601.13
472.45,		473.49,		725.96
471.56,		602.45,		478.03
471.28,		600.69,		602.82
471.14,		598.68,		728.14
469.78,		727.4,		479.75
469.56,		725.54,		605.03
469.45,		723.54,		729.82
597.94,		478.95,		476.47
597.73,		477.31,		601.18
597.53,		475.1,		726.51
596.51,		604.12,		478.45
596.03,		602.02,		603.25
596.14,		600.22,		728.14
595.16,		728.81,		480.0
594.79,		726.98,		605.23
594.6,		725.27,		730.07
350.5,		473.41,		600.92
347.2,		477.22,		725.62
344.15,		480.67,		850.52
348.41,		598.44,		597.16
345.15,		602.06,		722.33
342.02,		605.59,		847.08
346.38,		723.44,		593.61
342.91,		726.78,		718.74
339.79,		730.34,		843.48
475.45,		475.88,		603.97
472.06,		479.33,		728.84
468.9,		482.85,		853.85
473.33,		600.75,		600.29
470.23,		604.12,		725.33
466.76,		607.87,		850.25
471.17,		725.6,		597.04
467.79,		729.01,		722.0
464.88,		732.79,		846.61
600.41,		477.79,		607.26
597.35,		481.65,		732.1
594.07,		484.95,		857.14
598.07,		603.08,		603.49
595.28,		606.39,		728.41
591.7,		609.96,		853.29
596.1,		727.8,		600.05
593.03,		731.21,		724.89
589.55,		734.85,		849.73
351.61,		597.91,		100.13
354.73,		596.13,		225.17
357.83,		594.26,		350.15
354.85,		723.08,		102.12
357.75,		721.22,		227.17
360.9,		719.32,		351.93
357.71,		848.0,		103.86
361.12,		845.91,		228.61
363.88,		844.23,		353.64
476.51,		595.18,		97.02
479.5,		593.08,		222.18
482.72,		591.36,		347.17
479.48,		719.8,		98.98
482.64,		718.12,		224.16
485.61,		716.25,		349.1
482.6,		844.84,		100.73
485.72,		843.06,		225.79
488.98,		841.1,		350.9
601.5,		592.08,		94.06
604.59,		590.29,		218.92
607.56,		588.11,		343.81
604.82,		717.09,		95.81
607.92,		715.2,		220.9
610.92,		713.26,		345.6
607.88,		841.92,		97.51
610.74,		840.0,		222.45
613.75,		838.1,		347.42
350.93,		600.63,		226.56
352.74,		601.49,		351.49
354.55,		602.24,		476.51
348.8,		725.31,		225.56
350.75,		726.48,		350.56
352.58,		727.46,		475.57
346.92,		850.45,		224.88
348.55,		851.4,		349.74
350.54,		852.27,		474.85
475.79,		602.39,		224.89
477.6,		603.32,		349.69
479.51,		604.32,		474.66
473.68,		727.44,		224.02
475.53,		728.57,		349.06
477.36,		729.17,		474.02
471.83,		852.55,		223.14
473.59,		853.41,		348.05
475.26,		854.29,		472.81
600.9,		604.7,		223.09
602.76,		605.37,		348.07
604.26,		606.46,		472.93
599.08,		729.21,		222.05
600.62,		730.35,		346.95
602.26,		731.28,		472.02
596.93,		854.51,		221.14
598.62,		855.48,		346.31
600.11,		856.12,		471.02
351.88,		601.47,		348.31
354.48,		603.88,		473.46
357.2,		606.37,		598.28
351.72,		726.31,		345.91
354.17,		728.71,		470.88
356.98,		731.07,		595.85
351.53,		851.32,		343.39
354.02,		853.86,		468.45
356.74,		856.19,		593.35
476.72,		601.3,		345.74
479.54,		604.03,		470.78
481.97,		606.32,		595.51
476.45,		726.36,		343.28
479.11,		729.03,		468.08
481.75,		731.35,		593.2
476.49,		851.47,		340.77
479.04,		854.02,		465.73
481.71,		856.31,		590.56
601.89,		601.64,		343.14
604.48,		604.01,		467.89
607.1,		606.57,		592.96
601.7,		726.77,		340.54
604.29,		729.04,		465.66
606.81,		731.71,		590.48
601.71,		851.38,		338.13
603.85,		854.09,		463.15
606.61,		856.6,		588.18
351.73,		599.22,		475.76
351.85,		596.73,		600.71
351.99,		594.39,		725.77
351.8,		724.0,		477.98
352.24,		721.69,		603.13
352.12,		719.34,		727.96
351.85,		849.24,		480.27
352.43,		846.84,		605.17
352.41,		844.32,		730.47
476.88,		598.93,		475.39
476.74,		596.52,		600.33
477.32,		594.13,		725.28
476.72,		723.79,		477.99
477.09,		721.76,		602.9
477.4,		719.37,		727.6
477.21,		848.9,		480.11
477.54,		846.66,		605.15
477.46,		844.4,		729.89
601.82,		598.78,		475.32
601.96,		596.51,		600.17
602.09,		594.09,		725.01
601.95,		723.95,		477.55
601.94,		721.59,		602.6
602.26,		719.16,		727.5
602.12,		848.81,		480.06
602.26,		846.47,		604.73
602.3,		843.86,		729.95
350.45,		600.68,		598.61
352.16,		597.99,		723.75
353.8,		595.27,		848.82
351.56,		725.71,		601.51
353.56,		722.66,		726.16
355.3,		720.12,		851.29
352.75,		850.7,		604.17
354.76,		847.64,		728.96
356.52,		845.33,		854.02
475.22,		599.25,		596.6
477.02,		596.65,		721.75
479.09,		593.95,		846.84
476.54,		724.4,		599.67
478.23,		721.55,		724.38
480.21,		718.87,		849.54
477.81,		849.22,		602.04
479.92,		846.74,		727.23
481.74,		843.8,		852.2
600.14,		598.06,		594.97
602.2,		595.55,		719.76
604.09,		592.78,		844.63
601.58,		722.87,		597.73
603.36,		720.12,		722.49
605.24,		717.42,		847.65
602.86,		847.82,		600.05
604.69,		845.14,		725.09
606.64,		842.54,		850.09
475.42,		98.2,		100.06
473.03,		95.68,		224.94
470.85,		93.38,		349.94
477.77,		222.86,		102.5
475.03,		220.49,		227.21
472.58,		218.07,		352.44
479.75,		348.02,		104.71
477.29,		345.54,		229.68
474.99,		342.92,		355.0
600.38,		95.91,		102.33
598.04,		93.69,		227.22
595.55,		91.08,		352.21
602.37,		220.66,		104.76
600.12,		218.29,		229.95
597.69,		216.06,		354.7
604.63,		346.02,		107.15
602.29,		343.57,		232.35
599.58,		340.97,		357.22
725.25,		93.77,		104.82
722.93,		91.37,		229.79
720.58,		88.82,		354.47
727.47,		218.79,		107.02
725.15,		216.07,		232.32
722.66,		213.73,		356.98
729.45,		343.65,		109.64
727.11,		341.38,		234.56
724.91,		338.79,		359.7
473.99,		100.57,		226.68
473.46,		101.8,		351.46
472.74,		102.7,		476.86
474.45,		225.46,		225.57
473.77,		226.62,		350.43
473.52,		227.86,		475.71
475.1,		350.42,		224.59
474.39,		351.72,		349.25
473.88,		352.8,		474.3
598.98,		99.89,		227.29
598.24,		101.13,		352.24
597.84,		102.13,		477.28
599.49,		224.84,		226.24
598.85,		226.21,		351.12
598.32,		227.38,		476.06
599.97,		350.02,		225.05
599.37,		351.04,		349.88
598.9,		352.1,		475.01
723.97,		99.41,		227.89
723.24,		100.46,		353.1
722.84,		101.62,		477.9
724.7,		224.43,		226.8
724.02,		225.65,		352.05
723.32,		226.56,		476.74
725.14,		349.49,		225.9
724.3,		350.53,		350.7
724.01,		351.59,		475.64
474.48,		100.75,		348.36
474.64,		102.18,		473.13
474.7,		103.56,		598.24
477.73,		225.6,		346.71
477.98,		227.1,		471.77
477.93,		228.32,		596.62
481.28,		350.48,		345.34
481.3,		352.14,		470.22
481.5,		353.66,		595.35
599.26,		97.31,		347.99
599.6,		98.68,		473.18
599.8,		100.21,		598.16
602.87,		222.31,		346.66
603.11,		223.79,		471.7
603.11,		225.32,		596.58
606.07,		347.15,		345.09
605.99,		348.56,		470.04
606.17,		350.18,		595.33
724.53,		93.94,		348.14
724.65,		95.58,		472.98
724.87,		96.96,		597.87
727.6,		218.99,		346.39
727.83,		220.49,		471.66
727.81,		221.93,		596.54
731.04,		343.92,		345.14
731.31,		345.22,		469.99
731.36,		346.85,		594.86
474.21,		99.78,		475.81
477.72,		101.28,		600.88
481.11,		102.92,		725.83
472.99,		224.98,		474.59
475.98,		226.05,		599.32
479.38,		227.73,		724.32
471.34,		349.56,		472.83
474.75,		351.29,		598.0
477.87,		352.75,		722.87
599.34,		101.26,		472.71
602.59,		102.73,		597.29
605.99,		104.4,		722.32
597.62,		226.37,		470.95
601.27,		227.98,		596.02
604.57,		229.44,		720.83
596.35,		351.26,		469.56
599.39,		352.93,		594.56
602.78,		354.29,		719.4
724.06,		102.77,		469.43
727.71,		104.15,		594.25
730.94,		105.8,		719.1
722.72,		227.94,		467.8
725.86,		229.36,		592.57
729.54,		231.05,		717.47
721.3,		352.75,		466.29
724.57,		354.17,		591.21
728.03,		355.87,		716.06
474.29,		98.46,		599.67
472.18,		97.13,		724.66
469.61,		96.1,		849.69
471.48,		223.52,		600.53
469.16,		222.23,		725.74
467.02,		221.06,		850.64
468.7,		348.19,		601.65
466.62,		347.0,		726.91
464.31,		345.95,		851.76
599.07,		101.1,		601.76
596.81,		100.05,		727.04
594.76,		98.75,		851.66
596.49,		225.88,		602.86
594.11,		224.85,		728.06
592.06,		223.71,		852.9
593.75,		350.94,		603.97
591.73,		349.66,		729.05
589.37,		348.73,		854.16
724.02,		103.65,		604.32
721.7,		102.54,		729.04
719.73,		101.19,		854.12
721.22,		228.5,		605.28
719.08,		227.4,		730.32
716.76,		226.51,		855.14
718.73,		353.47,		606.58
716.53,		352.66,		731.18
714.43,		351.39,		856.21
474.56,		223.7,		99.06
473.68,		223.02,		224.22
472.36,		222.28,		349.22
476.1,		348.41,		99.57
474.98,		347.9,		224.86
473.77,		347.46,		349.66
477.17,		473.67,		100.27
476.12,		472.94,		225.41
475.17,		472.48,		350.26
599.7,		222.19,		100.43
598.53,		221.49,		225.5
597.3,		220.95,		350.14
601.15,		347.09,		100.89
599.74,		346.52,		225.81
598.56,		345.99,		350.92
602.21,		471.99,		101.5
601.06,		471.74,		226.39
600.1,		471.05,		351.55
724.55,		220.59,		101.53
723.56,		220.28,		226.63
722.3,		219.54,		351.35
726.12,		346.01,		102.1
724.99,		345.22,		227.01
723.79,		344.55,		352.11
727.48,		470.68,		102.58
726.35,		470.22,		227.54
725.09,		469.86,		352.43
473.31,		223.54,		223.22
473.36,		219.84,		347.82
473.6,		216.48,		473.03
472.03,		348.31,		226.69
472.14,		345.01,		351.65
472.09,		341.53,		476.43
470.74,		473.46,		230.22
470.68,		469.8,		355.23
470.97,		466.26,		480.16
598.46,		224.81,		223.07
598.39,		220.99,		347.83
598.55,		217.84,		472.84
597.17,		349.85,		226.51
597.14,		346.19,		351.66
597.34,		342.76,		476.49
595.64,		474.59,		230.29
595.95,		471.04,		354.91
595.89,		467.61,		479.93
723.22,		226.16,		222.81
723.52,		222.66,		348.12
723.27,		219.14,		472.9
721.96,		350.91,		226.6
722.1,		347.54,		351.4
722.08,		344.04,		476.39
720.71,		475.71,		229.87
721.01,		472.35,		355.08
720.63,		468.8,		479.92
476.49,		226.15,		349.05
476.98,		227.21,		474.16
476.68,		227.86,		599.05
476.98,		351.01,		348.13
477.42,		352.18,		473.18
477.56,		352.99,		598.4
477.62,		476.21,		347.57
477.86,		476.81,		472.48
477.8,		477.85,		597.57
601.75,		225.41,		349.01
601.69,		226.29,		474.1
601.81,		227.18,		598.9
601.98,		350.39,		348.35
602.37,		351.57,		473.21
602.52,		352.17,		598.34
602.81,		475.59,		347.27
602.98,		476.55,		472.33
603.17,		477.44,		597.36
726.62,		225.03,		348.85
726.99,		225.85,		473.81
727.08,		226.82,		598.99
727.03,		349.92,		347.92
727.27,		350.85,		472.92
727.27,		351.78,		598.06
727.54,		475.12,		346.96
727.86,		476.0,		472.3
728.08,		476.77,		597.06
476.64,		224.76,		476.39
475.04,		224.49,		601.26
473.67,		224.24,		726.27
476.58,		349.63,		476.66
475.49,		349.52,		601.55
473.78,		349.43,		726.44
476.93,		474.85,		476.88
475.56,		474.57,		601.91
473.92,		474.23,		726.82
601.52,		224.4,		477.64
600.23,		224.28,		602.94
598.65,		223.86,		727.77
601.63,		349.67,		477.93
600.43,		349.1,		603.2
599.07,		349.19,		727.9
602.14,		474.37,		478.25
600.58,		474.38,		603.08
599.13,		473.99,		728.16
726.72,		224.41,		479.32
725.24,		224.03,		604.22
723.82,		223.79,		729.29
726.58,		349.48,		479.46
725.1,		349.2,		604.28
723.74,		348.71,		729.57
726.75,		474.36,		479.57
725.45,		473.92,		604.74
724.22,		473.62,		729.76
475.9,		224.14,		601.8
476.79,		227.17,		726.64
478.07,		229.86,		851.64
473.04,		349.28,		598.96
474.19,		352.12,		723.78
475.01,		355.03,		848.86
470.07,		474.07,		596.21
471.05,		476.92,		720.94
471.91,		479.78,		845.99
600.81,		227.25,		600.4
601.88,		230.16,		725.48
603.07,		232.75,		850.6
597.96,		352.19,		597.69
599.1,		355.09,		722.94
599.82,		357.62,		847.55
595.03,		477.11,		595.11
595.85,		479.77,		720.13
597.18,		482.57,		845.13
725.77,		230.0,		599.52
726.98,		232.83,		724.32
727.87,		235.78,		849.14
722.62,		355.12,		596.75
723.66,		357.86,		721.48
725.14,		360.79,		846.73
719.85,		480.01,		593.77
720.95,		483.01,		718.94
721.74,		485.44,		843.79
475.88,		348.46,		98.58
476.4,		346.48,		223.78
476.58,		344.45,		348.59
476.51,		473.66,		100.68
476.61,		471.48,		225.94
476.9,		469.15,		350.92
476.86,		598.34,		102.98
477.03,		596.4,		227.88
477.6,		594.35,		353.02
600.88,		348.25,		98.38
601.42,		346.03,		223.27
601.79,		343.8,		348.27
601.29,		473.01,		100.38
601.69,		471.01,		225.38
602.17,		468.8,		350.39
601.93,		598.36,		102.58
602.47,		595.9,		227.43
602.68,		593.72,		352.44
726.11,		347.79,		97.74
726.36,		345.71,		222.79
726.86,		343.6,		347.89
726.24,		472.66,		100.18
726.65,		470.6,		224.98
727.19,		468.3,		350.27
726.95,		597.9,		102.18
727.03,		595.38,		227.43
727.64,		593.41,		352.09
475.27,		351.83,		224.96
473.89,		348.28,		349.64
472.07,		344.42,		474.85
478.66,		476.62,		228.63
476.86,		473.17,		353.4
475.39,		469.23,		478.5
481.9,		601.6,		232.2
480.58,		598.09,		357.11
478.76,		594.22,		482.27
600.03,		348.38,		226.45
598.82,		344.68,		351.21
597.14,		340.87,		476.13
603.78,		473.2,		229.96
601.93,		469.47,		354.81
600.33,		466.1,		479.96
607.22,		598.09,		233.63
605.63,		594.59,		358.55
604.0,		590.79,		483.66
725.14,		344.83,		227.63
723.42,		341.27,		352.57
722.18,		337.49,		477.46
728.66,		469.81,		231.56
727.07,		465.91,		356.3
725.36,		462.42,		481.25
731.78,		594.65,		235.05
730.46,		590.95,		360.01
728.93,		587.21,		485.26
474.22,		352.06,		348.26
472.06,		352.52,		473.18
469.64,		352.8,		598.07
473.69,		477.1,		347.67
471.47,		477.18,		472.73
469.21,		477.74,		597.57
473.35,		601.79,		347.19
471.0,		602.33,		472.36
468.86,		602.84,		597.49
598.88,		352.5,		350.49
596.97,		352.69,		475.17
594.59,		353.11,		600.32
598.7,		477.34,		349.95
596.53,		477.63,		474.99
594.49,		478.15,		599.8
598.54,		602.19,		349.53
596.12,		602.72,		474.61
594.03,		603.15,		599.58
723.88,		352.7,		352.63
722.04,		353.04,		477.49
719.83,		353.5,		602.32
723.9,		477.61,		352.1
721.32,		478.03,		477.24
719.36,		478.53,		601.93
723.28,		602.8,		351.54
721.15,		603.05,		476.61
718.79,		603.43,		601.84
473.72,		350.14,		475.4
476.12,		348.5,		600.42
478.71,		346.64,		725.4
473.92,		475.31,		477.15
476.29,		473.35,		602.3
478.93,		471.48,		727.26
474.28,		600.11,		478.94
476.95,		598.35,		603.76
479.26,		596.6,		729.12
598.51,		349.72,		472.94
601.14,		348.0,		598.01
603.88,		346.26,		722.74
599.11,		475.06,		474.68
601.61,		473.02,		599.55
604.09,		471.26,		724.54
599.47,		599.84,		476.36
601.96,		598.3,		601.41
604.55,		596.59,		726.42
723.67,		349.68,		470.45
726.12,		347.98,		595.15
728.8,		346.08,		720.19
723.93,		474.66,		472.13
726.67,		472.97,		597.1
729.13,		470.97,		722.09
724.26,		599.68,		473.64
726.75,		598.01,		598.87
729.25,		596.33,		723.88
473.21,		350.72,		598.11
472.58,		352.29,		722.95
472.05,		353.53,		847.99
476.18,		475.64,		596.57
475.82,		477.37,		721.68
475.34,		478.62,		846.79
478.89,		600.83,		595.47
478.6,		601.98,		720.57
478.25,		603.56,		845.56
598.15,		347.79,		598.38
597.77,		349.22,		723.53
597.13,		350.39,		848.57
601.23,		472.84,		597.04
600.49,		474.09,		722.03
600.08,		475.64,		847.17
603.92,		597.99,		595.67
603.6,		599.14,		720.8
603.47,		600.41,		845.71
723.0,		344.79,		599.01
722.43,		346.38,		724.07
722.09,		347.69,		848.95
726.14,		469.67,		597.57
725.67,		471.07,		722.49
725.06,		472.55,		847.76
728.88,		594.63,		596.06
728.4,		595.97,		721.35
728.22,		597.57,		846.23
474.95,		474.55,		101.24
476.67,		471.96,		226.1
478.27,		469.27,		351.34
473.31,		599.48,		103.94
474.95,		597.07,		228.75
476.26,		594.32,		353.84
471.36,		724.35,		106.64
473.04,		721.99,		231.56
474.68,		719.47,		356.69
600.05,		476.41,		99.6
601.64,		473.89,		224.52
603.21,		471.09,		349.64
598.24,		601.33,		102.34
600.01,		598.73,		227.18
601.48,		596.33,		352.19
596.53,		726.53,		104.85
598.11,		723.91,		229.76
599.61,		720.99,		355.01
724.91,		478.42,		98.02
726.54,		475.45,		222.98
728.37,		473.14,		348.17
723.21,		603.28,		100.81
724.71,		600.54,		225.61
726.47,		597.9,		350.48
721.38,		727.99,		103.29
722.95,		725.62,		228.5
724.48,		722.81,		353.13
476.73,		474.39,		224.38
479.43,		473.8,		349.67
481.94,		472.92,		474.63
475.43,		599.27,		225.13
478.1,		598.75,		350.23
480.62,		598.04,		474.95
473.98,		724.22,		225.89
476.63,		723.8,		350.59
478.95,		722.94,		475.74
602.0,		475.79,		222.04
604.37,		475.3,		347.15
606.84,		474.47,		472.09
600.56,		600.83,		222.57
602.85,		600.11,		347.73
605.41,		599.37,		472.47
599.18,		725.63,		223.26
601.56,		725.1,		348.17
603.93,		724.58,		473.08
726.93,		477.13,		219.62
729.59,		476.51,		344.6
731.92,		476.15,		469.45
725.65,		602.16,		220.44
728.09,		601.66,		345.32
730.5,		601.16,		470.38
724.05,		727.15,		220.98
726.36,		726.72,		345.83
728.83,		726.0,		470.87
475.45,		473.42,		349.1
477.46,		471.76,		474.22
479.57,		470.26,		599.2
473.99,		598.55,		350.77
476.09,		596.9,		475.83
477.99,		595.11,		600.7
472.8,		723.76,		352.84
474.64,		721.92,		477.55
476.94,		720.24,		602.49
600.35,		474.92,		347.2
602.53,		473.35,		472.26
604.53,		471.48,		597.08
599.12,		599.91,		348.83
601.31,		598.36,		473.68
602.95,		596.37,		598.65
597.86,		725.15,		350.41
599.79,		723.13,		475.63
601.98,		721.35,		600.63
725.62,		476.28,		345.09
727.44,		474.8,		470.27
729.54,		472.9,		594.97
724.06,		601.18,		346.85
726.14,		599.76,		472.07
727.93,		598.08,		596.77
722.76,		726.44,		348.74
724.62,		724.8,		473.45
726.67,		722.84,		598.71
475.04,		474.64,		473.41
474.54,		477.87,		598.28
474.04,		481.3,		723.17
473.85,		599.27,		469.68
473.37,		602.98,		594.67
472.77,		606.56,		719.81
472.76,		724.32,		466.45
472.16,		727.87,		591.13
471.57,		731.58,		716.26
600.12,		475.64,		473.69
599.55,		479.2,		599.01
598.98,		482.74,		723.72
599.14,		600.61,		470.31
598.57,		603.98,		595.29
597.91,		607.82,		720.37
597.86,		725.43,		466.65
597.37,		729.08,		591.75
596.65,		732.39,		716.84
725.11,		476.62,		474.3
724.62,		480.32,		599.45
724.11,		483.74,		724.19
724.08,		601.65,		470.91
723.49,		605.11,		595.9
722.84,		608.69,		720.51
723.07,		726.62,		467.27
722.17,		730.17,		592.38
721.9,		733.81,		717.16
473.2,		476.74,		599.55
475.2,		479.01,		724.36
477.41,		480.73,		849.29
470.19,		601.77,		597.53
472.3,		603.84,		722.44
474.46,		605.84,		847.57
467.37,		726.84,		595.39
469.4,		728.77,		720.46
471.6,		730.87,		845.36
598.23,		479.69,		597.29
600.37,		481.65,		721.96
602.67,		483.76,		846.99
594.91,		604.58,		595.18
597.54,		606.88,		720.28
599.67,		609.01,		845.23
592.32,		729.46,		592.93
594.47,		731.59,		717.97
596.58,		733.64,		843.2
722.87,		482.82,		595.03
725.09,		484.65,		719.67
727.27,		486.64,		844.9
720.19,		607.83,		592.93
722.17,		609.69,		717.85
724.63,		611.81,		842.75
717.1,		732.76,		590.89
719.4,		734.8,		715.79
721.36,		736.63,		840.79
473.27,		599.98,		100.58
471.39,		600.9,		225.5
469.41,		602.03,		350.5
469.7,		724.84,		99.37
467.97,		726.04,		224.36
466.18,		727.27,		349.43
466.43,		849.57,		98.06
464.6,		851.04,		222.94
462.67,		851.99,		347.95
598.41,		603.19,		102.29
596.6,		604.31,		227.27
594.64,		605.73,		352.5
594.78,		728.09,		101.24
593.23,		729.14,		225.91
591.06,		730.45,		350.86
591.51,		853.12,		99.78
589.58,		854.11,		224.95
587.78,		855.3,		349.83
723.26,		606.48,		104.3
721.25,		608.01,		229.22
719.51,		608.84,		354.2
719.5,		731.55,		102.94
717.99,		732.83,		227.97
715.88,		734.11,		352.91
716.55,		856.37,		101.72
714.55,		857.73,		226.69
712.63,		858.78,		351.78
474.17,		598.88,		224.04
474.72,		599.59,		348.95
475.12,		600.68,		473.78
471.56,		723.79,		223.14
472.14,		724.75,		348.2
472.62,		725.63,		472.91
468.88,		849.01,		222.22
469.67,		849.56,		347.13
470.31,		850.45,		472.25
599.42,		601.63,		223.53
599.85,		602.28,		348.38
600.23,		603.13,		473.31
596.69,		726.54,		222.6
597.2,		727.23,		347.39
597.85,		728.11,		472.37
594.16,		851.21,		221.57
594.59,		852.22,		346.5
594.89,		853.27,		471.64
724.05,		604.04,		223.0
724.73,		604.83,		347.95
725.11,		605.44,		472.91
721.61,		728.71,		222.03
722.27,		729.68,		347.15
722.59,		730.48,		472.05
719.23,		853.74,		221.17
719.47,		854.66,		346.15
720.01,		855.47,		471.08
474.23,		598.16,		350.57
471.55,		602.0,		475.72
468.97,		605.5,		600.47
473.86,		723.08,		346.92
471.19,		726.92,		472.03
468.7,		730.51,		596.91
473.18,		848.02,		343.36
470.9,		851.63,		468.27
468.23,		855.57,		592.91
599.21,		598.64,		353.4
596.76,		602.43,		478.04
594.11,		606.34,		602.91
598.96,		723.86,		349.46
596.08,		727.14,		474.46
593.48,		731.07,		599.31
598.43,		848.56,		345.73
595.81,		852.33,		470.67
593.04,		856.12,		595.68
724.14,		599.1,		355.77
721.48,		603.13,		481.01
719.03,		606.53,		605.68
723.94,		724.22,		352.28
721.2,		727.88,		477.03
718.67,		731.52,		602.1
723.17,		849.06,		348.51
720.81,		852.96,		473.36
717.98,		856.49,		598.37
475.4,		599.15,		473.29
472.94,		601.4,		598.07
470.81,		603.77,		723.36
472.22,		723.98,		470.95
469.84,		726.15,		595.65
467.85,		728.73,		720.9
469.13,		849.02,		468.47
466.93,		851.29,		593.53
464.51,		853.76,		718.24
600.32,		602.06,		475.7
598.02,		604.73,		600.54
595.74,		606.89,		725.55
597.1,		727.17,		473.0
594.91,		729.52,		597.9
592.52,		731.94,		723.11
594.15,		852.19,		470.66
591.61,		854.46,		595.86
589.36,		856.79,		720.69
725.17,		605.37,		477.94
723.0,		607.64,		602.75
720.52,		610.14,		727.75
722.1,		730.11,		475.36
719.65,		732.65,		600.1
717.74,		735.04,		725.34
718.92,		855.29,		473.0
716.87,		857.69,		597.91
714.4,		859.92,		723.07
475.61,		599.35,		600.01
474.55,		601.62,		725.04
473.39,		603.49,		849.94
478.85,		724.53,		598.15
477.69,		726.58,		723.05
476.56,		728.39,		847.93
482.23,		849.2,		596.25
481.03,		851.39,		721.15
479.71,		853.56,		845.95
600.71,		596.18,		601.26
599.37,		598.15,		726.07
598.13,		600.32,		851.12
603.87,		721.34,		599.12
602.76,		723.19,		724.21
601.63,		725.27,		849.32
607.18,		846.23,		597.19
605.99,		848.24,		722.5
604.49,		850.36,		847.46
725.58,		593.0,		602.27
724.13,		594.91,		727.57
723.27,		596.92,		852.42
728.75,		718.09,		600.71
727.55,		720.08,		725.54
726.51,		722.18,		850.57
731.89,		842.89,		598.61
730.86,		845.02,		723.41
729.61,		846.82,		848.58
598.67,		98.21,		101.26
601.82,		99.95,		226.39
604.94,		101.85,		351.12
596.44,		223.11,		99.51
599.6,		225.11,		224.34
602.62,		226.78,		349.43
594.35,		347.94,		97.5
597.6,		350.02,		222.59
600.32,		351.7,		347.29
723.75,		100.18,		98.08
726.75,		102.17,		223.21
729.82,		104.21,		348.07
721.51,		225.03,		96.32
724.53,		226.97,		221.18
727.69,		228.9,		346.05
719.38,		350.11,		94.53
722.4,		352.25,		219.59
725.35,		353.93,		344.32
848.56,		102.24,		95.1
851.6,		104.06,		220.03
854.56,		106.19,		345.1
846.36,		227.26,		93.27
849.54,		229.21,		218.2
852.62,		231.19,		343.39
844.27,		352.29,		91.25
847.27,		354.28,		216.44
850.38,		355.98,		341.23
600.69,		99.92,		225.75
597.61,		99.28,		350.56
594.47,		99.04,		475.6
598.8,		224.52,		225.67
595.48,		224.47,		350.59
592.27,		224.38,		475.61
596.5,		349.83,		225.96
593.45,		349.51,		350.88
590.02,		349.27,		476.02
725.73,		101.73,		228.53
722.55,		101.57,		353.77
719.22,		101.27,		478.52
723.51,		226.83,		228.83
720.32,		226.67,		353.95
717.32,		226.28,		478.74
721.65,		351.81,		229.07
718.15,		351.29,		354.09
715.08,		351.33,		478.97
850.59,		103.94,		232.01
847.45,		103.44,		356.87
844.3,		103.16,		481.83
848.44,		228.81,		232.11
845.33,		228.63,		357.0
842.23,		228.37,		481.96
846.65,		353.72,		232.22
843.29,		353.63,		357.38
840.23,		353.38,		482.1
600.47,		101.8,		351.99
599.04,		98.83,		476.61
597.75,		96.07,		601.84
598.69,		226.78,		354.55
597.59,		223.93,		479.73
596.16,		221.22,		604.54
597.12,		351.69,		357.44
595.97,		349.06,		482.39
594.91,		345.87,		607.73
725.38,		103.49,		353.02
723.96,		100.55,		478.09
722.74,		97.79,		603.0
723.68,		228.58,		356.12
722.44,		225.31,		481.0
721.12,		222.78,		605.91
722.14,		353.44,		358.87
721.16,		350.48,		483.97
719.74,		347.37,		608.84
850.51,		105.07,		354.22
848.95,		102.06,		479.54
847.82,		99.23,		604.15
848.67,		229.91,		357.16
847.62,		227.07,		482.26
846.14,		224.22,		607.04
847.05,		354.84,		360.28
845.84,		352.06,		485.25
844.57,		348.99,		609.97
600.52,		99.87,		474.32
599.28,		102.22,		599.29
598.13,		104.68,		724.35
599.5,		225.11,		471.92
598.56,		227.33,		597.14
597.51,		229.75,		722.05
598.67,		350.08,		469.6
597.59,		352.31,		594.68
596.73,		354.79,		719.68
725.21,		100.78,		475.6
724.19,		103.06,		600.29
723.34,		105.56,		725.4
724.47,		225.81,		472.99
723.47,		228.14,		597.94
722.72,		230.56,		722.77
723.84,		350.92,		470.47
722.72,		353.02,		595.45
721.76,		355.37,		720.64
850.14,		101.55,		476.26
849.57,		104.03,		601.38
848.25,		106.24,		726.25
849.56,		226.58,		474.21
848.42,		228.99,		599.21
847.4,		231.21,		724.07
848.72,		351.43,		471.45
847.82,		353.86,		596.35
846.92,		356.29,		721.67
599.81,		101.26,		599.74
603.49,		99.35,		724.58
606.97,		97.81,		849.63
596.98,		226.01,		601.74
600.89,		224.34,		726.48
604.22,		222.51,		851.51
594.37,		350.9,		603.24
598.05,		349.21,		728.49
602.07,		347.53,		853.18
724.77,		103.89,		596.17
728.31,		102.13,		721.04
731.87,		100.44,		845.98
722.15,		228.87,		597.88
725.58,		227.02,		722.75
729.24,		225.17,		847.97
719.3,		353.7,		599.78
723.26,		352.11,		724.73
727.02,		350.21,		849.39
849.41,		106.3,		592.46
853.14,		104.64,		717.56
856.84,		102.99,		842.36
846.96,		231.33,		594.43
850.65,		229.62,		719.05
854.39,		227.79,		844.32
844.38,		356.32,		595.88
847.92,		354.6,		721.26
851.86,		353.14,		845.84
597.92,		223.88,		100.99
597.69,		224.68,		225.99
597.36,		225.82,		351.04
594.48,		348.9,		99.9
594.01,		349.63,		225.0
593.85,		350.64,		349.91
590.41,		473.87,		99.0
590.29,		474.67,		224.16
589.94,		475.77,		348.8
723.02,		227.69,		101.13
722.73,		228.52,		226.21
722.42,		229.42,		351.23
719.2,		352.64,		100.13
718.79,		353.62,		225.13
718.76,		354.26,		350.23
715.4,		477.3,		99.27
715.18,		478.29,		224.2
714.74,		479.41,		349.22
847.96,		231.3,		101.41
847.76,		232.37,		226.52
847.35,		233.24,		351.4
844.29,		356.28,		100.44
844.0,		357.07,		225.55
843.59,		358.26,		350.53
840.32,		481.26,		99.71
840.19,		482.31,		224.67
839.89,		482.9,		349.32
599.26,		223.67,		223.66
599.33,		221.52,		348.86
599.98,		219.31,		473.65
597.75,		348.55,		225.82
597.96,		346.37,		350.95
598.55,		344.25,		475.98
596.24,		473.54,		227.95
596.86,		471.37,		352.92
597.25,		469.08,		477.89
724.14,		225.11,		223.2
724.41,		222.94,		348.25
725.1,		220.73,		473.2
722.65,		350.17,		225.71
723.26,		347.97,		350.59
723.43,		345.91,		475.54
721.31,		474.81,		227.51
721.92,		472.92,		352.64
721.93,		470.61,		477.58
849.03,		226.36,		222.89
849.26,		224.25,		347.91
849.99,		222.25,		472.95
847.9,		351.42,		225.22
848.16,		349.14,		350.05
848.38,		346.93,		475.23
846.35,		476.6,		227.45
846.67,		474.15,		352.32
847.19,		472.05,		477.52
601.01,		224.2,		350.33
604.06,		225.43,		475.11
607.17,		227.17,		600.27
599.21,		348.92,		348.9
602.27,		350.52,		473.73
605.34,		352.01,		598.82
597.51,		473.99,		347.5
600.4,		475.64,		472.28
603.74,		476.91,		597.38
725.95,		225.84,		347.22
728.96,		227.3,		472.03
732.26,		228.73,		596.99
723.98,		350.74,		345.74
727.22,		352.25,		470.62
730.4,		353.69,		595.86
722.38,		475.79,		344.43
725.16,		477.39,		469.47
728.43,		478.6,		594.48
850.9,		227.43,		344.15
854.03,		228.91,		469.04
857.18,		230.38,		594.0
849.04,		352.61,		342.63
852.25,		353.96,		467.52
855.4,		355.63,		592.55
847.26,		477.71,		341.36
850.27,		479.05,		466.37
853.26,		480.34,		591.33
599.11,		223.81,		476.38
600.64,		222.24,		601.03
602.3,		220.55,		726.3
596.24,		348.53,		477.91
597.67,		347.0,		602.62
599.4,		345.41,		727.91
593.42,		473.48,		479.25
594.86,		472.04,		604.28
596.5,		470.51,		729.49
724.02,		226.26,		474.68
725.65,		224.82,		599.71
727.07,		223.27,		724.51
721.06,		351.62,		476.13
722.62,		349.67,		601.22
724.47,		348.03,		726.17
718.18,		476.39,		477.81
720.13,		474.67,		603.0
721.43,		473.21,		727.61
848.92,		228.99,		472.9
850.27,		227.64,		598.21
852.3,		226.08,		722.96
846.22,		354.19,		474.79
847.63,		352.44,		599.7
849.18,		350.8,		724.75
843.32,		479.28,		476.39
844.83,		477.66,		601.38
846.74,		476.02,		726.37
599.73,		223.41,		599.88
601.3,		222.06,		724.67
603.12,		220.94,		849.79
597.58,		348.48,		601.07
599.17,		347.07,		726.14
600.88,		345.96,		850.95
595.37,		473.46,		602.37
597.18,		472.29,		727.29
598.61,		470.77,		852.47
724.89,		225.67,		598.28
726.39,		224.47,		723.33
727.99,		223.09,		848.34
722.82,		350.72,		599.82
724.04,		349.52,		724.49
725.7,		348.43,		849.49
720.58,		475.71,		600.78
722.19,		474.42,		725.93
723.28,		473.21,		851.09
849.71,		227.88,		596.64
851.44,		226.78,		721.75
852.84,		225.43,		846.65
847.58,		353.0,		598.16
849.21,		351.73,		723.01
850.77,		350.4,		848.03
845.41,		477.72,		599.2
846.95,		476.67,		724.54
848.62,		475.34,		849.19
600.53,		349.54,		100.36
598.86,		348.5,		225.27
597.43,		347.06,		350.25
602.85,		474.43,		101.43
601.34,		473.21,		226.16
599.55,		472.18,		351.37
605.36,		599.46,		102.52
603.75,		598.2,		227.6
601.96,		597.35,		352.59
725.35,		347.13,		101.82
723.93,		345.96,		226.67
722.16,		344.73,		351.66
727.83,		472.15,		102.77
726.17,		470.98,		228.04
724.59,		470.04,		353.02
730.0,		597.34,		104.01
728.36,		595.9,		229.02
726.86,		594.89,		354.13
850.29,		344.67,		103.21
848.72,		343.59,		228.03
847.15,		342.67,		353.21
852.69,		469.97,		104.44
851.13,		468.77,		229.47
849.57,		467.45,		354.23
855.31,		594.66,		105.53
853.52,		593.58,		230.64
851.8,		592.39,		355.52
601.43,		351.73,		226.91
599.35,		352.4,		351.6
597.34,		353.26,		476.94
598.85,		476.68,		225.94
596.8,		477.66,		350.71
594.73,		478.26,		475.92
596.23,		601.65,		225.04
594.29,		602.64,		350.11
592.04,		603.32,		475.03
726.2,		354.15,		228.87
724.11,		355.01,		354.1
722.05,		356.14,		478.92
723.61,		479.1,		228.07
721.58,		480.13,		352.91
719.44,		481.07,		478.14
721.07,		604.1,		227.13
719.08,		604.9,		352.22
716.95,		605.95,		477.04
851.19,		356.71,		231.04
849.21,		357.84,		355.81
847.1,		358.41,		480.75
848.82,		481.83,		229.96
846.89,		482.78,		354.92
844.49,		483.5,		480.31
846.3,		606.73,		229.34
844.14,		607.43,		354.23
841.82,		608.86,		479.13
600.46,		351.65,		349.06
596.68,		349.12,		474.16
593.07,		346.94,		599.07
599.24,		476.68,		351.33
595.65,		474.27,		476.11
592.22,		471.87,		601.05
598.23,		601.62,		353.45
594.72,		599.11,		478.36
591.18,		596.95,		603.51
725.52,		352.61,		352.75
721.8,		350.26,		477.77
717.98,		347.97,		602.45
724.19,		477.63,		355.05
720.75,		475.24,		479.73
717.15,		473.31,		604.68
723.01,		602.59,		357.07
719.79,		600.34,		481.93
715.98,		598.1,		606.81
850.22,		353.55,		356.16
846.57,		351.28,		481.22
843.31,		349.09,		606.22
849.3,		478.51,		358.59
845.79,		476.33,		483.75
842.21,		473.9,		608.49
848.12,		603.52,		360.84
844.51,		601.5,		485.54
841.17,		598.86,		610.39
601.96,		349.35,		475.67
604.09,		352.95,		600.96
606.53,		356.18,		725.63
600.37,		474.27,		472.61
602.53,		477.89,		597.58
604.72,		481.41,		722.49
598.5,		599.15,		469.15
600.87,		602.84,		594.06
603.2,		606.08,		718.71
726.93,		350.99,		473.48
729.21,		354.54,		598.56
731.27,		358.04,		723.33
725.01,		475.95,		470.38
727.52,		479.32,		595.06
729.74,		482.85,		719.89
723.31,		601.07,		466.92
725.6,		604.28,		591.76
728.06,		607.76,		716.71
851.84,		352.86,		471.33
853.93,		356.36,		595.9
856.48,		359.8,		720.96
850.02,		477.65,		467.8
852.34,		481.08,		592.91
854.59,		484.45,		717.8
848.4,		602.93,		464.27
850.71,		606.01,		589.12
852.88,		609.66,		714.42
600.87,		351.01,		598.97
603.84,		350.79,		723.96
606.91,		350.39,		849.05
600.66,		476.25,		599.4
603.45,		475.77,		724.15
606.52,		475.36,		849.22
599.87,		600.97,		599.95
603.08,		600.62,		724.87
605.76,		600.19,		849.86
725.83,		351.69,		595.87
728.79,		351.31,		720.94
731.83,		350.66,		845.81
725.65,		476.65,		596.33
728.54,		476.32,		721.54
731.29,		475.66,		846.35
725.07,		601.8,		596.75
727.8,		601.01,		721.69
730.84,		600.89,		846.87
851.06,		352.24,		593.11
853.85,		351.52,		717.96
856.58,		351.18,		843.15
850.34,		477.04,		593.34
853.2,		476.85,		718.46
856.22,		476.04,		843.48
849.97,		602.16,		593.77
852.72,		601.74,		718.82
855.93,		601.41,		843.94
599.27,		473.2,		98.99
601.21,		474.19,		223.75
602.52,		474.83,		348.78
601.0,		598.19,		97.87
602.56,		598.92,		223.1
604.25,		599.98,		348.18
602.59,		723.01,		97.12
604.12,		724.0,		221.92
605.71,		724.81,		347.16
724.41,		471.46,		97.18
725.98,		472.54,		222.33
727.58,		473.16,		347.17
725.78,		596.52,		96.42
727.63,		597.65,		221.45
729.18,		598.22,		346.57
727.64,		721.38,		95.59
729.02,		722.49,		220.62
730.73,		723.35,		345.79
849.56,		469.83,		95.68
850.85,		470.86,		220.68
852.76,		471.44,		345.42
850.95,		594.87,		94.87
852.73,		595.94,		219.73
854.46,		596.53,		344.61
852.68,		719.94,		94.1
854.28,		720.77,		218.99
856.05,		721.64,		344.02
599.77,		473.76,		225.54
597.33,		471.49,		350.62
595.27,		469.58,		475.47
597.98,		598.77,		227.89
595.66,		596.7,		352.78
593.37,		594.2,		477.83
595.87,		723.7,		230.08
593.55,		721.4,		355.11
591.57,		719.12,		480.1
724.72,		475.52,		228.0
722.5,		473.58,		352.89
720.18,		471.39,		477.83
722.57,		600.61,		230.05
720.55,		598.38,		354.97
718.24,		596.15,		479.82
721.02,		725.4,		232.2
718.69,		723.45,		357.14
716.56,		721.25,		482.35
849.52,		477.57,		230.2
847.39,		475.23,		355.12
845.34,		473.26,		479.96
847.59,		602.56,		232.37
845.55,		600.25,		357.16
843.26,		598.14,		482.39
845.45,		727.7,		234.4
843.51,		725.23,		359.37
841.05,		723.05,		484.33
601.82,		474.44,		351.36
604.34,		474.68,		476.15
607.18,		474.95,		601.43
601.24,		599.41,		351.22
604.26,		599.58,		476.23
606.83,		599.91,		601.07
601.35,		724.54,		350.66
604.2,		724.46,		475.84
606.78,		724.9,		600.84
726.58,		474.5,		348.66
729.09,		474.69,		473.67
732.03,		475.15,		598.7
726.38,		599.72,		348.37
729.02,		599.91,		473.37
731.64,		600.07,		598.1
726.01,		724.61,		348.26
729.11,		724.78,		473.2
731.76,		725.06,		597.92
851.61,		474.82,		345.95
854.2,		475.24,		471.05
857.15,		475.44,		595.7
851.4,		599.76,		345.53
853.91,		600.13,		470.65
856.85,		600.2,		595.66
851.39,		724.61,		345.19
853.72,		725.06,		470.41
856.63,		725.11,		595.34
600.29,		474.98,		474.97
603.82,		473.63,		600.15
607.54,		472.55,		725.06
603.29,		599.84,		476.05
606.79,		598.59,		601.13
610.18,		597.65,		726.02
606.45,		724.91,		477.16
609.57,		723.81,		602.14
613.32,		722.52,		726.96
725.43,		471.94,		471.71
728.98,		470.81,		596.43
732.12,		469.85,		721.44
728.23,		596.93,		472.55
731.47,		595.72,		597.37
735.18,		594.91,		722.72
731.07,		721.82,		473.5
734.59,		720.86,		598.64
738.11,		719.79,		723.37
850.37,		469.32,		468.42
853.63,		468.03,		593.14
857.26,		466.99,		718.08
852.99,		594.33,		469.23
856.69,		592.77,		593.86
860.03,		592.21,		719.1
855.78,		719.21,		470.11
859.6,		718.06,		595.23
862.87,		716.87,		720.17
600.95,		475.71,		600.65
602.09,		475.58,		725.81
603.61,		475.54,		850.49
601.96,		600.44,		600.58
603.27,		600.65,		725.69
604.7,		601.02,		850.53
602.7,		725.61,		600.25
604.03,		725.6,		725.47
605.46,		725.64,		850.5
725.95,		474.66,		599.39
727.2,		474.64,		724.14
728.56,		474.76,		849.35
726.59,		599.52,		598.99
728.07,		599.83,		724.3
729.63,		599.76,		848.95
727.55,		724.57,		599.19
728.93,		724.75,		724.09
730.68,		724.61,		848.98
850.84,		473.48,		598.02
852.19,		473.68,		722.73
853.59,		473.66,		847.95
851.88,		598.42,		597.96
853.06,		598.66,		722.77
854.56,		598.82,		847.62
852.84,		723.53,		597.68
853.92,		723.82,		722.64
855.36,		723.73,		847.7
600.38,		601.61,		100.06
600.12,		599.54,		225.3
600.15,		597.27,		350.22
601.96,		726.64,		102.38
602.0,		724.3,		227.39
601.88,		722.14,		352.16
603.82,		851.54,		104.58
603.85,		849.43,		229.41
603.96,		847.3,		354.32
725.26,		599.91,		100.25
725.25,		597.64,		225.31
724.95,		595.32,		350.04
727.05,		724.79,		102.45
726.77,		722.6,		227.33
726.94,		720.51,		352.27
728.5,		849.83,		104.54
728.56,		847.79,		229.62
728.66,		845.63,		354.62
850.11,		598.06,		100.13
850.22,		596.12,		225.06
850.33,		593.59,		350.23
851.98,		723.05,		102.29
852.0,		720.63,		227.35
852.03,		718.74,		352.41
853.8,		847.93,		104.52
853.91,		845.81,		229.51
853.57,		843.76,		354.39
601.58,		599.37,		224.7
604.25,		600.15,		349.54
607.56,		600.94,		474.65
601.78,		724.29,		223.73
604.88,		724.99,		348.76
608.11,		725.8,		473.79
602.64,		849.3,		222.98
605.57,		850.21,		347.86
608.46,		850.75,		473.04
726.16,		599.08,		221.62
729.32,		599.63,		346.27
732.31,		600.4,		471.3
726.99,		723.87,		220.63
729.72,		724.75,		345.68
732.87,		725.51,		470.49
727.1,		848.86,		219.96
730.58,		849.79,		345.03
733.67,		850.09,		469.79
851.03,		598.4,		218.33
854.27,		598.72,		343.43
857.36,		599.77,		468.11
851.67,		723.42,		217.65
854.9,		724.08,		342.65
858.13,		724.89,		467.45
852.18,		848.21,		216.84
855.65,		848.84,		341.79
858.43,		849.76,		466.77
598.35,		601.29,		349.06
599.67,		602.72,		474.13
601.36,		604.41,		599.4
597.92,		726.04,		347.8
599.47,		727.79,		472.76
600.98,		729.42,		597.69
597.77,		851.28,		346.14
599.3,		852.97,		471.13
600.55,		854.36,		595.89
723.16,		601.49,		347.55
724.72,		603.2,		472.64
726.06,		604.49,		597.64
722.95,		726.23,		346.11
724.45,		728.11,		471.06
725.89,		729.67,		595.97
722.67,		851.39,		344.3
724.21,		852.81,		469.32
725.81,		854.78,		594.5
848.16,		601.29,		346.21
849.52,		603.52,		471.19
851.32,		604.95,		596.19
848.17,		726.59,		344.5
849.31,		728.1,		469.77
851.15,		729.95,		594.59
847.59,		851.67,		343.0
849.23,		853.15,		468.0
850.92,		854.84,		593.01
599.26,		601.09,		473.5
596.25,		603.8,		598.16
593.06,		606.53,		723.26
596.58,		726.06,		470.68
593.31,		728.72,		595.48
590.3,		731.26,		720.56
593.71,		851.04,		467.92
591.01,		853.57,		593.06
587.85,		856.17,		717.9
723.88,		603.81,		476.51
721.18,		606.38,		601.32
717.97,		609.0,		726.36
721.47,		728.86,		473.79
718.17,		731.39,		598.55
715.48,		733.86,		723.67
718.86,		853.9,		471.26
715.73,		856.49,		595.98
712.79,		859.01,		720.79
849.06,		606.9,		479.35
845.9,		608.93,		604.33
842.97,		611.83,		729.17
846.22,		731.43,		476.88
843.31,		734.07,		601.61
840.27,		736.75,		726.72
843.61,		856.55,		474.06
840.6,		859.1,		598.91
837.71,		861.54,		723.92
600.23,		599.12,		601.84
600.1,		602.21,		726.93
600.04,		605.25,		851.98
596.55,		723.99,		598.9
596.49,		726.95,		723.61
596.15,		730.34,		848.61
593.0,		848.62,		595.7
592.66,		851.83,		720.75
592.55,		854.95,		845.44
725.16,		602.61,		602.07
725.09,		605.83,		727.02
724.9,		608.92,		851.81
721.59,		727.74,		598.87
721.27,		730.58,		723.88
720.97,		733.93,		848.81
717.9,		852.45,		595.79
717.53,		855.7,		720.65
717.73,		858.91,		845.62
850.24,		606.12,		602.12
850.02,		609.57,		727.1
849.68,		612.49,		852.09
846.66,		731.35,		598.89
846.27,		734.21,		723.71
846.31,		737.47,		848.84
842.72,		856.21,		595.7
842.5,		859.38,		720.83
842.44,		862.46,		845.72
