27, 125, pa2-debug-f-output1.txt
195.89,		191.86,		190.79
400.88,		395.16,		196.25
101.04,		101.01,		100.26
98.87,		100.05,		225.12
96.6,		98.75,		350.18
102.36,		225.99,		101.35
100.19,		224.99,		226.33
98.12,		223.87,		351.27
103.7,		351.02,		102.42
101.79,		349.89,		227.39
99.56,		349.0,		352.22
225.9,		99.46,		102.4
223.76,		98.69,		227.38
221.55,		97.54,		352.45
227.43,		224.7,		103.35
225.42,		223.39,		228.48
223.27,		222.41,		353.6
228.74,		349.61,		104.65
226.48,		348.62,		229.46
224.56,		347.56,		354.52
350.97,		98.26,		104.56
348.86,		97.01,		229.63
346.62,		96.17,		354.6
352.26,		223.05,		105.49
350.11,		222.25,		230.77
348.11,		221.21,		355.45
353.73,		348.2,		106.78
351.81,		347.09,		231.63
349.4,		346.11,		356.62
101.06,		101.73,		223.76
100.43,		100.03,		348.85
99.79,		97.77,		473.69
100.76,		226.73,		225.87
99.87,		224.78,		350.76
99.08,		222.89,		475.53
100.28,		351.88,		227.81
99.65,		349.73,		352.48
98.97,		347.77,		477.57
226.14,		102.33,		224.37
225.61,		100.16,		349.34
224.68,		98.34,		474.34
225.94,		227.23,		226.55
224.89,		225.19,		351.44
224.49,		223.39,		476.31
224.99,		352.32,		228.45
224.67,		350.38,		353.47
224.02,		348.4,		478.45
351.0,		102.75,		224.91
350.2,		100.63,		350.1
349.64,		98.72,		475.07
350.58,		227.45,		227.09
349.96,		225.48,		352.13
349.42,		223.72,		476.97
350.31,		352.45,		229.24
349.4,		350.49,		354.08
348.84,		348.79,		478.89
100.03,		101.15,		349.62
102.9,		104.44,		474.71
106.26,		107.46,		599.74
96.67,		226.26,		346.73
99.76,		229.34,		471.66
103.28,		232.54,		596.61
93.59,		350.89,		343.58
96.78,		353.96,		468.52
99.95,		357.21,		593.49
224.75,		104.31,		346.19
228.01,		107.39,		471.39
231.46,		110.64,		596.35
221.39,		229.28,		343.41
224.89,		232.29,		468.27
228.24,		235.63,		593.17
218.25,		354.24,		340.14
221.5,		357.35,		465.06
224.8,		360.3,		590.02
349.57,		107.68,		343.08
352.81,		110.79,		467.85
356.07,		113.78,		592.93
346.52,		232.55,		339.81
349.93,		235.54,		464.98
352.87,		238.44,		589.68
343.44,		357.43,		336.93
346.46,		360.35,		461.91
349.85,		363.48,		586.78
99.24,		98.07,		473.32
103.06,		98.14,		598.46
106.64,		98.45,		723.5
96.56,		222.96,		473.46
100.06,		223.08,		598.53
103.76,		223.42,		723.2
93.63,		347.87,		473.36
97.07,		348.03,		598.42
100.76,		348.33,		723.56
223.93,		100.9,		470.06
228.0,		101.07,		594.63
231.33,		101.04,		719.89
221.21,		225.99,		469.69
224.93,		226.04,		594.73
228.6,		226.11,		719.65
218.27,		350.94,		469.82
222.34,		350.92,		594.51
225.7,		351.08,		719.57
349.23,		103.93,		466.38
352.86,		103.72,		591.12
356.34,		104.1,		716.02
346.06,		228.83,		466.18
349.85,		228.95,		591.11
353.62,		228.91,		716.2
343.17,		353.76,		465.94
346.88,		354.03,		591.14
350.55,		354.14,		716.16
100.12,		98.71,		599.95
102.88,		102.26,		724.81
105.97,		105.98,		849.81
102.68,		223.88,		596.24
105.53,		227.13,		721.04
108.53,		230.91,		846.01
104.99,		348.37,		592.66
108.17,		352.0,		717.74
111.2,		355.87,		842.61
225.2,		96.23,		596.86
227.91,		99.72,		722.19
231.13,		103.31,		847.05
227.63,		221.19,		593.46
230.68,		224.71,		718.47
233.53,		228.39,		843.24
229.92,		346.12,		589.63
232.9,		349.59,		714.44
236.13,		353.29,		839.35
349.89,		93.48,		594.25
352.67,		97.23,		718.92
355.86,		100.73,		844.0
352.61,		218.44,		590.52
355.28,		222.18,		715.53
358.34,		225.83,		840.5
354.97,		343.31,		586.63
357.83,		347.17,		711.69
360.81,		350.37,		836.71
102.01,		224.6,		101.95
99.75,		225.52,		226.79
97.63,		226.76,		351.93
98.39,		349.4,		100.95
96.46,		350.41,		225.72
94.16,		351.53,		350.69
94.63,		474.37,		99.6
92.43,		475.57,		224.49
90.32,		476.81,		349.58
226.91,		228.4,		103.89
224.82,		229.37,		229.0
222.8,		230.26,		354.11
222.99,		353.05,		102.75
220.78,		354.3,		227.98
218.94,		355.51,		352.7
219.49,		478.0,		101.64
217.31,		479.19,		226.89
215.32,		480.27,		351.76
351.85,		232.11,		106.23
349.68,		232.97,		231.08
347.57,		234.08,		356.21
348.21,		356.73,		104.99
346.06,		358.16,		230.1
344.03,		358.95,		354.97
344.5,		481.74,		103.81
342.46,		483.12,		228.86
340.42,		483.92,		353.63
99.02,		225.75,		225.02
100.3,		225.25,		350.25
101.14,		224.84,		474.96
100.49,		350.67,		225.51
101.55,		349.94,		350.51
102.62,		349.68,		475.39
101.63,		475.56,		226.09
102.73,		475.1,		351.22
103.88,		474.8,		475.95
224.04,		224.49,		224.2
225.26,		223.96,		349.06
226.18,		223.28,		473.94
225.38,		349.44,		224.48
226.34,		348.66,		349.46
227.55,		348.42,		474.67
226.91,		474.16,		224.99
227.93,		473.61,		350.03
228.76,		473.43,		475.01
349.18,		222.85,		223.0
350.05,		222.7,		347.76
351.43,		222.07,		472.94
350.61,		347.93,		223.44
351.6,		347.62,		348.42
352.51,		347.02,		473.34
351.57,		472.96,		223.89
352.99,		472.67,		348.74
353.72,		471.88,		473.71
99.44,		226.37,		349.15
99.48,		222.88,		473.94
99.22,		219.48,		598.8
100.44,		351.19,		352.68
100.31,		347.88,		477.66
100.31,		344.37,		602.34
101.5,		476.45,		355.91
101.24,		472.76,		481.06
101.11,		469.53,		605.77
224.55,		225.48,		349.01
224.5,		221.98,		474.05
224.07,		218.55,		599.24
225.34,		350.45,		352.48
225.57,		346.76,		477.76
225.35,		343.53,		602.41
226.6,		475.12,		356.09
226.28,		471.89,		481.22
226.15,		468.15,		605.9
349.3,		224.17,		349.13
349.09,		220.76,		474.37
349.26,		217.51,		599.28
350.37,		349.3,		352.65
350.54,		345.64,		477.54
350.2,		342.28,		602.7
351.59,		474.35,		356.23
351.23,		470.85,		481.0
351.13,		467.07,		605.94
100.9,		226.08,		476.94
103.75,		229.36,		601.86
106.96,		232.86,		726.98
101.67,		351.16,		473.82
104.63,		354.36,		598.68
107.53,		357.57,		723.78
102.02,		476.31,		470.57
105.27,		479.47,		595.32
108.25,		482.43,		720.23
225.68,		225.58,		473.89
228.83,		228.67,		598.67
231.86,		231.8,		723.62
226.33,		350.42,		470.71
229.42,		353.53,		595.41
232.73,		356.68,		720.34
227.15,		475.36,		467.34
230.13,		478.54,		592.4
233.41,		481.67,		717.28
350.91,		224.84,		470.81
353.65,		227.9,		595.61
356.78,		231.15,		720.72
351.31,		349.67,		467.68
354.42,		352.72,		592.64
357.39,		356.09,		717.45
351.98,		474.64,		464.42
355.18,		477.91,		589.23
358.36,		481.16,		714.13
98.5,		224.81,		598.11
101.0,		222.17,		722.79
103.32,		219.8,		848.01
98.89,		349.58,		600.65
101.18,		347.31,		725.77
103.65,		344.77,		850.56
99.46,		474.76,		602.98
101.95,		472.16,		727.93
104.24,		469.65,		852.84
223.47,		224.39,		595.48
225.82,		221.82,		720.65
228.32,		219.26,		845.56
224.03,		349.62,		598.16
226.33,		347.07,		722.99
228.61,		344.26,		847.87
224.15,		474.62,		600.67
226.53,		471.95,		725.61
229.15,		469.3,		850.6
348.37,		224.03,		593.29
350.69,		221.78,		717.95
353.15,		219.3,		843.18
348.79,		349.0,		595.88
351.16,		346.78,		720.54
353.69,		344.06,		845.54
349.35,		474.15,		598.36
351.74,		471.65,		723.42
353.99,		469.19,		848.08
101.84,		348.06,		100.25
105.19,		349.35,		225.35
108.73,		350.7,		350.5
104.2,		473.22,		99.07
107.53,		474.51,		223.92
111.29,		475.85,		348.82
106.53,		597.84,		97.71
110.14,		599.29,		222.72
113.77,		600.84,		347.73
226.81,		345.8,		96.98
230.06,		346.91,		221.98
233.64,		348.4,		347.05
229.29,		470.77,		95.56
232.82,		472.0,		220.47
236.08,		473.05,		345.36
231.74,		595.59,		94.33
235.0,		596.95,		219.02
238.43,		598.16,		344.01
351.59,		343.14,		93.64
355.11,		344.49,		218.39
358.55,		345.94,		343.3
353.96,		468.21,		91.97
357.48,		469.57,		217.17
360.95,		470.88,		342.14
356.54,		593.03,		90.65
359.94,		594.3,		215.59
363.59,		595.76,		340.61
98.54,		348.87,		226.49
95.46,		348.51,		351.55
92.61,		348.05,		476.6
100.73,		473.75,		227.07
97.78,		473.3,		351.89
95.04,		473.08,		476.96
103.12,		598.61,		227.22
100.15,		598.42,		352.09
97.38,		598.09,		477.2
223.2,		346.32,		229.38
220.5,		346.24,		354.49
217.88,		346.01,		479.26
225.74,		471.58,		229.84
222.7,		471.15,		354.89
219.73,		470.81,		479.84
227.63,		596.6,		230.21
224.8,		596.05,		355.05
221.94,		595.93,		480.22
348.5,		344.25,		232.28
345.51,		343.88,		357.34
342.58,		343.8,		482.39
350.85,		469.42,		232.81
347.71,		469.2,		357.79
344.69,		468.53,		482.56
352.74,		594.13,		233.16
349.98,		594.11,		357.82
347.05,		593.77,		483.06
99.92,		348.42,		351.26
101.04,		350.02,		476.45
102.85,		351.59,		601.43
99.71,		473.64,		350.05
101.05,		475.12,		474.71
102.56,		476.53,		599.79
99.93,		598.34,		348.19
101.1,		599.91,		473.22
102.82,		601.66,		598.4
224.84,		348.45,		349.86
226.21,		349.95,		475.05
227.55,		351.29,		600.0
224.59,		473.62,		348.32
226.2,		475.12,		473.32
227.49,		476.41,		598.51
224.83,		598.28,		346.98
226.15,		600.15,		471.92
227.68,		601.48,		596.95
349.65,		348.38,		348.54
351.09,		350.16,		473.62
352.48,		351.43,		598.44
349.77,		473.59,		346.83
351.14,		475.1,		471.98
352.8,		476.48,		596.85
349.81,		598.33,		345.62
351.13,		599.88,		470.35
352.76,		601.4,		595.36
101.41,		350.05,		476.25
105.18,		349.67,		601.1
108.41,		349.37,		725.9
98.94,		475.1,		476.37
102.44,		474.7,		601.53
106.1,		474.53,		726.3
96.78,		599.76,		476.86
100.0,		599.4,		602.02
103.63,		599.13,		726.63
226.49,		352.2,		472.67
229.9,		352.12,		597.66
233.44,		351.96,		722.41
223.94,		477.21,		473.02
227.69,		476.99,		597.92
230.9,		476.73,		722.94
221.56,		602.57,		473.2
225.0,		602.07,		598.14
228.51,		601.87,		723.38
351.44,		354.95,		469.16
355.06,		354.64,		594.01
358.52,		354.4,		719.05
348.92,		479.86,		469.42
352.36,		479.45,		594.36
356.13,		479.46,		719.19
346.57,		604.82,		469.62
349.95,		604.69,		594.92
353.52,		604.49,		719.68
101.73,		349.06,		598.66
101.98,		347.07,		723.42
102.09,		344.97,		848.28
104.24,		474.15,		600.57
104.43,		472.08,		725.16
104.73,		470.1,		850.43
106.75,		598.75,		602.54
106.99,		596.65,		727.6
107.37,		594.92,		852.39
226.41,		346.58,		598.33
226.93,		344.47,		723.2
227.16,		342.47,		848.02
229.29,		471.29,		600.31
229.39,		469.56,		725.07
229.67,		467.44,		850.2
231.48,		596.39,		602.34
232.14,		594.19,		727.05
232.21,		592.25,		852.04
351.35,		344.11,		597.68
351.8,		341.9,		723.0
352.02,		339.94,		847.98
354.16,		468.84,		599.76
354.48,		467.01,		725.05
354.52,		464.76,		849.76
356.51,		593.98,		601.69
356.83,		591.79,		726.96
357.31,		589.71,		851.89
98.85,		476.48,		100.89
99.82,		475.72,		225.94
100.77,		475.46,		351.06
95.5,		601.31,		101.4
96.68,		601.0,		226.08
97.47,		600.44,		351.51
92.02,		726.39,		101.9
92.99,		725.8,		227.02
93.72,		725.05,		351.88
223.88,		480.13,		99.8
224.94,		479.57,		224.72
225.91,		478.97,		349.84
220.33,		604.92,		100.57
221.48,		604.47,		225.39
222.23,		603.94,		350.5
216.92,		730.01,		101.08
218.09,		729.23,		225.96
218.76,		728.75,		351.2
348.77,		483.43,		99.03
350.0,		482.89,		224.06
350.81,		482.15,		348.81
345.27,		608.38,		99.25
346.16,		607.71,		224.46
347.39,		607.43,		349.38
341.83,		733.23,		100.11
342.78,		732.89,		225.21
344.13,		732.21,		349.97
99.85,		474.87,		224.47
99.55,		476.39,		349.5
99.16,		478.15,		474.32
100.92,		599.89,		222.7
100.17,		601.41,		347.92
99.98,		602.86,		472.48
101.5,		725.03,		221.27
100.89,		726.21,		346.33
100.8,		728.13,		471.18
224.97,		474.28,		224.92
224.63,		475.56,		349.88
224.01,		477.34,		474.68
225.61,		599.31,		223.1
225.31,		600.81,		348.45
224.85,		602.35,		473.15
226.47,		724.24,		221.52
225.94,		725.56,		346.87
225.52,		727.28,		471.44
350.02,		473.38,		225.14
349.72,		475.12,		350.2
349.28,		476.6,		475.01
350.71,		598.46,		223.54
350.45,		600.13,		348.73
349.87,		601.2,		473.63
351.46,		723.52,		221.98
351.3,		725.1,		346.89
350.81,		726.36,		472.03
98.99,		475.0,		351.25
100.15,		473.69,		476.43
100.89,		472.45,		601.11
102.29,		599.78,		352.67
103.42,		598.46,		477.58
104.15,		597.35,		602.76
105.61,		724.74,		354.17
106.74,		723.67,		478.75
107.39,		722.14,		603.87
223.98,		471.79,		350.19
224.9,		470.28,		475.17
226.05,		468.95,		600.45
227.38,		596.72,		351.79
228.38,		595.22,		476.6
229.1,		593.88,		601.79
230.47,		721.49,		352.85
231.62,		720.32,		477.74
232.53,		719.13,		603.02
349.0,		468.52,		349.43
350.05,		467.21,		474.4
350.89,		465.75,		599.46
352.4,		593.39,		350.74
353.2,		592.12,		475.64
354.34,		590.68,		600.8
355.57,		718.53,		351.93
356.66,		717.07,		476.97
357.56,		715.56,		601.7
101.43,		474.03,		473.69
99.99,		471.15,		598.76
98.93,		468.7,		723.41
103.62,		599.0,		476.58
102.14,		596.07,		601.5
100.93,		593.58,		726.39
105.8,		724.18,		479.44
104.54,		721.06,		604.33
103.16,		718.52,		729.25
226.35,		471.97,		474.98
225.02,		469.14,		599.95
223.75,		466.24,		724.97
228.58,		596.68,		477.7
227.33,		594.17,		602.8
225.95,		591.19,		727.6
230.67,		721.57,		480.6
229.47,		718.91,		605.83
228.17,		716.29,		730.68
351.09,		469.57,		476.09
350.09,		466.66,		601.1
348.66,		464.06,		726.11
353.59,		594.58,		479.16
352.35,		591.63,		603.99
350.85,		588.96,		729.03
355.74,		719.22,		481.68
354.64,		716.56,		606.75
353.31,		713.99,		731.57
98.93,		473.49,		598.75
100.0,		472.17,		723.75
100.76,		471.13,		848.94
98.35,		598.46,		600.12
99.47,		597.33,		725.01
100.02,		596.3,		850.04
97.68,		723.13,		601.0
98.72,		722.28,		725.62
99.66,		721.34,		850.73
224.14,		473.82,		597.93
225.1,		473.1,		722.91
226.04,		472.09,		848.03
223.31,		598.81,		598.87
224.26,		598.06,		723.96
225.09,		596.87,		849.0
222.61,		723.94,		600.22
223.82,		722.86,		725.07
224.61,		722.01,		850.08
349.04,		474.51,		596.99
350.07,		473.6,		721.9
350.72,		472.72,		846.95
348.28,		599.79,		598.08
349.15,		598.95,		723.11
350.3,		597.63,		848.04
347.87,		724.74,		599.14
348.53,		723.5,		723.99
349.42,		722.56,		848.83
101.88,		598.36,		100.61
98.22,		600.71,		225.43
94.24,		603.12,		350.5
103.44,		723.06,		98.34
99.89,		725.73,		223.02
96.0,		728.15,		348.1
105.36,		848.09,		95.72
101.73,		850.55,		220.63
97.82,		852.93,		345.83
226.79,		596.45,		104.33
222.79,		599.05,		229.24
219.12,		601.34,		354.11
228.67,		721.25,		101.94
224.79,		723.79,		226.97
221.18,		726.52,		352.09
230.29,		846.43,		99.42
226.58,		848.78,		224.36
222.92,		851.49,		349.52
351.53,		594.52,		108.01
348.07,		597.07,		233.08
344.3,		599.62,		357.8
353.36,		719.5,		105.57
349.94,		722.02,		230.45
346.09,		724.73,		355.4
355.44,		844.59,		103.15
351.84,		847.3,		228.15
347.9,		849.63,		353.07
100.64,		598.79,		225.67
96.96,		599.59,		350.88
93.5,		599.81,		475.33
100.45,		723.99,		225.22
96.63,		724.47,		350.1
93.21,		725.31,		474.95
100.33,		849.13,		224.55
96.44,		849.56,		349.82
92.88,		850.05,		474.51
225.62,		599.15,		229.41
222.06,		599.9,		354.64
218.38,		600.26,		479.54
225.27,		724.34,		228.96
221.49,		724.82,		353.8
217.89,		725.43,		478.67
224.92,		849.08,		228.28
221.14,		849.79,		353.39
217.58,		850.25,		478.23
350.53,		599.48,		233.26
346.9,		600.17,		357.93
343.31,		600.39,		483.13
350.36,		724.47,		232.52
346.73,		725.21,		357.54
342.76,		725.57,		482.52
350.04,		849.66,		232.29
346.49,		849.94,		357.1
342.73,		850.62,		482.08
98.21,		597.96,		352.0
100.18,		598.75,		476.54
102.18,		599.72,		601.91
96.27,		723.04,		351.36
98.13,		723.9,		475.88
99.67,		724.39,		601.04
94.16,		848.01,		350.29
96.23,		848.87,		475.39
97.56,		849.55,		600.57
223.3,		600.04,		350.22
225.14,		600.88,		475.03
226.9,		601.65,		599.93
221.36,		725.21,		349.65
222.95,		725.94,		474.43
224.94,		726.76,		599.24
219.19,		850.14,		348.93
221.04,		850.71,		473.48
222.86,		851.61,		598.81
348.3,		602.4,		348.16
350.11,		603.05,		473.07
352.13,		603.66,		598.23
346.14,		727.17,		347.49
348.1,		727.89,		472.47
349.73,		728.87,		597.44
344.26,		852.4,		346.96
346.19,		853.01,		471.88
347.62,		853.67,		596.74
98.46,		600.72,		476.1
96.29,		603.94,		601.38
94.23,		607.62,		726.38
98.48,		725.94,		473.0
95.93,		729.15,		597.95
94.27,		732.57,		722.81
97.94,		850.81,		469.4
95.87,		854.01,		594.62
93.93,		857.4,		719.5
223.45,		601.24,		478.13
221.49,		604.2,		603.28
219.4,		607.68,		728.08
223.1,		726.24,		474.82
220.98,		729.33,		600.13
219.21,		732.67,		725.08
222.95,		850.97,		471.51
220.92,		854.27,		596.84
218.88,		857.39,		721.64
348.31,		601.27,		480.59
346.56,		604.89,		605.28
344.12,		608.3,		730.18
348.15,		726.41,		477.21
346.08,		729.79,		601.95
344.01,		733.05,		726.94
347.86,		851.26,		473.91
345.81,		854.65,		598.63
343.73,		858.05,		723.5
101.77,		598.46,		600.09
101.11,		601.69,		724.91
100.39,		604.9,		849.79
100.61,		723.34,		596.85
100.07,		726.63,		721.41
99.09,		729.84,		846.68
99.55,		848.21,		593.41
98.65,		851.58,		718.24
97.99,		854.92,		843.24
226.79,		599.63,		600.54
226.01,		603.0,		725.47
225.36,		606.46,		850.44
225.66,		724.49,		597.27
224.83,		727.76,		722.38
224.18,		731.14,		847.39
224.48,		849.69,		594.03
223.72,		853.09,		719.03
223.11,		856.17,		844.07
352.1,		600.84,		601.44
351.16,		604.37,		726.42
350.5,		607.23,		851.27
350.67,		725.94,		598.01
349.86,		729.09,		722.95
349.3,		732.66,		847.99
349.39,		850.89,		594.95
348.61,		854.19,		719.68
347.93,		857.27,		844.8
223.3,		98.2,		99.87
224.93,		96.12,		225.05
226.8,		94.26,		349.85
220.07,		223.03,		102.05
221.78,		220.94,		226.82
223.44,		219.12,		351.84
216.94,		348.13,		103.71
218.4,		345.83,		228.91
220.43,		343.92,		353.77
348.28,		101.25,		98.27
349.96,		99.38,		222.98
351.76,		97.46,		348.13
344.94,		226.15,		100.23
346.82,		224.45,		225.31
348.28,		222.53,		350.05
341.7,		351.2,		102.18
343.58,		349.34,		227.12
345.36,		347.34,		352.14
473.15,		104.51,		96.64
475.0,		102.56,		221.55
476.73,		100.44,		346.58
469.78,		229.46,		98.48
471.74,		227.65,		223.44
473.23,		225.66,		348.32
466.63,		354.45,		100.29
468.6,		352.63,		225.65
470.24,		350.55,		350.61
223.09,		99.36,		224.01
224.75,		98.04,		348.87
226.15,		96.28,		473.93
223.77,		224.46,		225.3
225.2,		223.03,		350.46
226.83,		221.48,		475.44
224.43,		349.53,		226.74
225.93,		347.94,		351.89
227.46,		346.31,		476.92
347.85,		98.67,		222.3
349.72,		97.13,		347.4
351.04,		95.74,		472.43
348.63,		223.84,		223.85
350.37,		222.39,		348.78
351.74,		220.8,		473.68
349.66,		348.87,		225.44
350.9,		347.33,		350.46
352.57,		345.74,		475.38
473.2,		98.34,		220.98
474.63,		96.74,		345.77
476.17,		95.1,		470.73
473.93,		223.16,		222.22
475.34,		221.47,		347.32
476.76,		219.99,		472.4
474.47,		347.93,		223.73
476.0,		346.43,		348.72
477.63,		345.19,		473.94
223.24,		98.03,		349.87
219.7,		95.56,		475.17
216.56,		93.51,		599.93
220.64,		223.01,		352.37
217.3,		220.77,		477.39
214.37,		218.32,		602.23
218.29,		347.82,		354.46
215.14,		345.63,		479.44
211.81,		343.45,		604.45
347.99,		100.53,		353.16
344.68,		98.19,		478.2
341.44,		95.74,		603.14
345.68,		225.2,		355.59
342.34,		223.11,		480.6
339.29,		220.65,		605.66
343.25,		350.31,		357.95
339.93,		348.21,		482.99
336.9,		345.69,		607.94
473.16,		102.7,		356.69
469.62,		100.25,		481.81
466.28,		98.13,		606.44
470.64,		227.83,		359.14
467.38,		225.29,		483.72
464.18,		223.2,		608.71
468.32,		352.67,		360.99
464.87,		350.38,		485.95
461.73,		348.03,		611.14
226.13,		100.34,		475.2
227.22,		96.89,		600.01
228.26,		93.48,		724.9
229.23,		225.46,		478.42
230.38,		221.8,		603.35
231.28,		218.33,		728.51
232.46,		350.34,		481.88
233.55,		346.6,		606.72
234.43,		342.99,		732.02
351.04,		97.27,		473.76
352.04,		93.73,		599.01
353.03,		90.14,		723.89
354.4,		222.15,		477.56
355.36,		218.66,		602.27
356.44,		215.01,		727.21
357.39,		347.06,		481.08
358.3,		343.58,		605.83
359.19,		340.21,		730.85
476.22,		94.2,		472.77
477.21,		90.4,		598.01
478.09,		87.19,		722.94
479.33,		218.97,		476.61
480.15,		215.73,		601.46
481.34,		211.88,		726.38
482.35,		344.01,		479.77
483.36,		340.24,		604.8
484.47,		336.94,		729.8
225.04,		99.62,		600.14
228.34,		97.43,		725.13
231.83,		95.32,		850.08
226.91,		224.48,		602.62
230.62,		222.32,		727.44
234.06,		220.23,		852.54
229.11,		349.46,		604.83
232.82,		347.46,		729.8
236.06,		345.11,		854.62
349.82,		97.65,		596.66
353.5,		95.42,		721.84
356.89,		93.0,		846.56
351.97,		222.53,		598.98
355.56,		220.47,		723.75
358.96,		218.03,		848.64
354.29,		347.61,		601.09
357.66,		345.18,		726.31
361.1,		342.85,		850.9
474.99,		95.69,		593.34
478.37,		93.18,		718.39
481.95,		91.22,		843.28
476.88,		220.38,		595.66
480.54,		218.39,		720.43
483.81,		216.2,		845.44
478.96,		345.28,		597.49
482.47,		342.99,		722.36
486.11,		340.96,		847.62
225.79,		225.78,		99.87
228.5,		228.77,		224.77
231.16,		231.22,		349.48
228.91,		350.63,		96.84
231.53,		353.72,		221.98
233.94,		356.1,		346.68
231.78,		475.84,		94.19
234.7,		478.36,		219.21
237.2,		481.08,		343.87
350.76,		222.76,		97.2
353.59,		225.69,		222.09
356.24,		228.44,		347.08
353.9,		347.77,		94.39
356.67,		350.56,		219.51
359.06,		353.41,		344.22
356.71,		472.51,		91.35
359.23,		475.39,		216.52
362.04,		478.34,		341.33
475.95,		219.99,		94.58
478.42,		222.55,		219.34
481.18,		225.32,		344.29
478.86,		344.64,		91.6
481.31,		347.6,		216.85
484.11,		350.23,		341.59
481.7,		469.78,		89.01
484.06,		472.36,		213.82
486.91,		475.12,		338.69
226.52,		226.03,		226.08
226.76,		229.39,		351.23
226.68,		232.69,		476.26
227.31,		351.06,		222.72
227.7,		354.58,		347.82
227.64,		357.86,		472.89
228.67,		475.85,		219.46
228.53,		479.21,		344.48
228.53,		482.85,		469.32
351.33,		225.02,		226.23
351.69,		228.44,		351.23
351.68,		231.86,		476.09
352.55,		349.92,		222.77
352.51,		353.55,		347.78
352.63,		356.9,		472.66
353.35,		474.83,		219.35
353.44,		478.25,		344.44
353.64,		481.89,		469.57
476.54,		224.22,		226.05
476.65,		227.53,		350.94
476.68,		231.05,		476.04
477.35,		349.25,		222.83
477.38,		352.46,		347.68
477.67,		355.63,		472.64
478.5,		474.12,		219.24
478.44,		477.19,		344.5
478.6,		480.91,		469.51
223.28,		225.67,		349.22
221.08,		228.59,		474.18
219.26,		231.56,		599.13
222.07,		350.81,		346.29
220.03,		353.39,		471.55
218.18,		356.32,		596.47
220.82,		475.51,		343.69
218.94,		478.46,		468.6
216.91,		481.45,		593.51
348.21,		226.88,		351.09
346.35,		229.93,		475.91
344.19,		232.65,		600.98
347.11,		351.82,		348.25
345.22,		354.57,		473.09
343.14,		357.65,		598.05
345.74,		476.85,		345.52
343.91,		479.9,		470.54
341.91,		482.63,		595.42
472.84,		228.15,		353.06
471.01,		230.87,		478.13
469.25,		233.92,		602.73
472.05,		353.14,		349.93
470.14,		356.12,		474.92
468.19,		358.86,		600.02
470.84,		478.14,		347.09
468.78,		480.88,		472.26
467.03,		483.74,		597.34
224.31,		224.54,		474.39
222.41,		221.52,		599.45
220.55,		218.95,		724.38
225.06,		349.5,		477.55
223.06,		346.74,		602.29
221.33,		343.86,		727.17
226.04,		474.51,		480.45
224.0,		471.7,		605.14
222.04,		468.58,		730.17
349.58,		223.74,		476.35
347.52,		220.94,		601.26
345.66,		217.95,		726.18
349.97,		349.03,		479.58
348.18,		345.87,		604.24
345.97,		343.03,		729.36
350.78,		473.68,		482.41
348.96,		470.84,		607.27
346.86,		467.92,		732.1
474.56,		223.08,		478.42
472.46,		220.45,		603.23
470.37,		217.26,		728.51
475.17,		348.09,		481.51
473.06,		345.26,		606.43
471.25,		342.2,		731.16
475.78,		473.2,		484.16
473.7,		470.26,		609.02
471.71,		467.21,		734.01
224.27,		224.28,		598.31
224.86,		222.71,		723.1
226.0,		220.71,		848.06
226.68,		349.09,		599.97
227.5,		347.32,		724.83
228.73,		345.58,		850.16
229.29,		474.23,		601.75
230.09,		472.23,		726.93
231.29,		470.81,		851.59
349.2,		221.66,		597.25
350.1,		219.7,		722.35
350.79,		218.17,		847.11
351.48,		346.81,		599.09
352.52,		345.09,		724.1
353.56,		342.91,		849.04
354.19,		471.44,		600.69
355.28,		469.74,		725.73
356.04,		468.02,		850.65
474.18,		219.2,		596.28
474.76,		217.09,		721.11
475.95,		215.56,		846.22
476.72,		344.0,		598.11
477.4,		342.12,		723.05
478.48,		340.48,		848.15
479.41,		469.11,		599.83
480.38,		466.9,		724.7
481.34,		465.65,		849.68
223.97,		351.07,		98.56
227.57,		351.03,		223.21
230.85,		350.85,		348.46
224.53,		476.27,		98.9
227.79,		476.05,		223.82
230.99,		475.75,		348.67
224.54,		601.34,		99.05
227.7,		601.26,		223.79
231.14,		600.66,		348.81
349.14,		350.73,		94.91
352.29,		350.81,		220.17
355.82,		350.46,		344.83
349.24,		476.09,		95.19
352.53,		475.73,		220.26
356.22,		475.56,		345.27
349.5,		600.96,		95.52
352.99,		600.71,		220.69
356.37,		600.66,		345.6
474.08,		350.51,		91.73
477.08,		350.34,		216.49
480.67,		350.09,		341.43
474.45,		476.04,		92.02
477.67,		475.41,		216.82
481.03,		475.12,		341.75
474.52,		600.68,		92.33
477.93,		600.6,		217.31
481.25,		600.32,		342.03
225.15,		348.82,		224.61
224.63,		350.82,		349.57
223.79,		352.26,		474.68
223.88,		473.83,		222.79
222.86,		475.49,		347.88
222.03,		477.43,		472.66
221.87,		598.77,		220.85
221.15,		600.44,		345.94
220.51,		602.4,		471.06
350.19,		350.61,		225.38
349.62,		352.13,		350.37
348.69,		354.09,		475.11
348.7,		475.41,		223.57
348.09,		477.28,		348.51
346.97,		479.23,		473.67
347.05,		600.64,		221.55
346.37,		602.11,		346.65
345.69,		604.11,		471.49
475.03,		352.3,		226.08
474.44,		353.98,		351.01
473.74,		355.83,		475.99
473.55,		477.03,		224.36
472.86,		479.03,		349.34
472.24,		480.64,		474.24
472.07,		602.21,		222.56
471.21,		603.96,		347.43
470.37,		605.51,		472.46
225.54,		348.85,		350.27
227.43,		349.15,		475.48
228.87,		349.55,		600.5
227.97,		473.81,		350.01
229.27,		474.1,		475.05
230.9,		474.31,		600.18
229.65,		598.93,		350.03
231.32,		599.22,		474.92
233.0,		599.29,		599.8
350.75,		346.89,		348.89
352.16,		347.05,		473.91
353.81,		347.24,		598.85
352.58,		472.04,		348.46
354.37,		472.33,		473.76
355.71,		472.23,		598.66
354.76,		596.95,		348.17
356.31,		597.18,		473.27
358.11,		597.31,		598.36
475.55,		344.91,		347.4
477.14,		344.96,		472.47
478.92,		345.17,		597.08
477.58,		469.86,		347.06
479.14,		469.98,		471.95
480.76,		470.1,		597.08
479.74,		594.96,		346.89
481.45,		595.0,		471.94
482.92,		595.4,		596.8
226.75,		351.52,		474.26
224.73,		353.51,		599.22
222.4,		355.06,		724.25
225.65,		476.64,		472.38
223.53,		478.25,		597.36
221.25,		479.95,		722.47
224.88,		601.85,		470.82
222.34,		603.42,		595.57
220.32,		605.25,		720.57
351.82,		352.8,		476.54
349.43,		354.36,		601.28
347.22,		356.12,		726.38
350.59,		477.96,		474.6
348.71,		479.67,		599.63
346.41,		481.4,		724.55
349.83,		602.82,		473.04
347.46,		604.51,		597.93
345.39,		606.49,		723.06
476.57,		353.94,		478.72
474.35,		355.51,		603.61
472.28,		357.14,		728.56
475.61,		478.67,		476.69
473.41,		480.61,		601.6
471.27,		482.38,		726.58
474.68,		603.59,		475.15
472.52,		605.67,		600.2
470.24,		607.09,		725.06
225.75,		350.17,		600.0
225.25,		348.37,		725.18
224.78,		346.92,		849.8
226.65,		475.23,		601.62
225.84,		473.65,		726.91
225.68,		471.64,		851.84
227.02,		600.29,		603.41
226.96,		598.58,		728.43
226.48,		596.93,		853.48
350.76,		349.61,		600.44
350.18,		347.78,		725.53
349.6,		345.74,		850.41
351.37,		474.51,		602.04
351.16,		472.64,		727.21
350.58,		470.91,		852.06
352.11,		599.55,		603.88
351.99,		597.88,		729.07
351.38,		595.58,		853.9
475.47,		348.59,		600.77
475.21,		347.07,		726.04
475.02,		345.12,		850.76
476.48,		473.62,		602.52
476.17,		471.87,		727.52
475.67,		470.54,		852.64
477.03,		598.71,		604.31
476.61,		596.66,		729.28
476.4,		595.21,		854.46
223.14,		474.53,		100.28
226.22,		471.38,		225.0
229.05,		468.16,		349.94
219.88,		599.25,		103.23
223.06,		596.24,		228.2
225.86,		593.17,		353.16
216.94,		724.18,		106.23
219.64,		721.41,		231.3
222.67,		718.02,		356.39
347.97,		477.69,		97.05
351.18,		474.74,		221.99
354.01,		471.44,		347.13
345.01,		602.56,		100.27
347.83,		599.34,		225.12
351.06,		596.35,		350.03
341.65,		727.38,		103.17
344.65,		724.33,		228.09
347.69,		721.53,		353.22
473.11,		480.99,		94.18
475.96,		477.97,		219.22
478.99,		474.59,		343.96
469.57,		605.96,		97.3
473.03,		602.64,		222.37
475.9,		599.71,		347.16
466.77,		730.87,		100.31
469.67,		727.81,		225.34
472.75,		724.53,		350.3
223.47,		476.05,		223.24
225.27,		476.25,		348.54
227.5,		476.63,		473.19
226.83,		600.95,		223.19
229.07,		601.36,		347.94
231.14,		601.31,		472.99
230.52,		726.08,		222.83
232.48,		725.95,		347.92
234.66,		726.22,		472.75
348.28,		472.57,		221.28
350.53,		472.53,		346.24
352.6,		473.05,		471.15
351.67,		597.24,		221.02
354.09,		597.59,		345.99
356.14,		597.75,		470.7
355.39,		722.28,		220.59
357.42,		722.78,		345.49
359.56,		722.61,		470.62
473.01,		468.83,		218.87
475.29,		468.86,		344.0
477.44,		469.48,		468.83
476.68,		594.05,		218.88
478.64,		594.16,		343.7
481.04,		594.37,		468.81
480.01,		718.77,		218.6
482.27,		719.02,		343.48
484.51,		719.4,		468.43
223.43,		474.88,		349.67
220.0,		473.56,		474.81
216.97,		472.17,		599.59
226.96,		599.82,		351.44
223.84,		598.72,		476.31
220.3,		596.98,		601.14
230.41,		724.67,		352.99
227.24,		723.63,		477.7
224.26,		721.92,		602.72
348.31,		471.4,		352.83
344.98,		469.79,		478.16
341.91,		468.59,		602.9
352.02,		596.34,		354.43
348.4,		594.57,		479.51
345.53,		593.46,		604.44
355.61,		721.14,		355.96
352.11,		719.83,		480.95
349.06,		718.28,		605.76
472.84,		467.3,		355.98
469.8,		466.11,		481.32
466.59,		464.59,		606.12
476.49,		592.36,		357.85
473.58,		591.08,		482.64
470.15,		589.63,		607.75
480.05,		717.33,		359.19
476.92,		715.95,		484.17
473.86,		714.54,		609.24
226.34,		476.28,		473.71
222.77,		479.34,		598.58
219.14,		482.12,		723.26
227.96,		601.38,		470.93
224.25,		604.08,		595.95
220.62,		606.75,		720.65
229.07,		726.1,		467.8
225.71,		729.17,		592.93
222.2,		731.93,		717.84
351.35,		474.81,		477.31
347.57,		477.85,		601.96
344.37,		480.77,		727.21
352.88,		599.93,		474.26
349.36,		602.79,		599.34
345.79,		605.79,		724.23
354.15,		725.04,		471.67
350.8,		727.64,		596.37
347.06,		730.56,		721.18
476.12,		473.78,		481.0
472.77,		476.62,		605.49
469.3,		479.36,		730.7
477.4,		598.68,		478.11
474.27,		601.53,		602.72
470.55,		603.93,		727.98
478.79,		723.54,		475.26
475.68,		726.34,		600.22
471.75,		729.16,		725.07
225.24,		476.96,		601.71
223.97,		477.59,		726.83
223.09,		478.83,		851.88
225.42,		601.85,		601.21
224.08,		602.5,		726.19
223.06,		603.62,		851.0
225.45,		726.72,		600.3
224.31,		727.76,		725.0
223.39,		728.69,		850.06
350.15,		476.85,		603.07
349.19,		477.47,		727.96
348.02,		478.55,		853.11
350.2,		601.82,		602.25
349.18,		602.66,		727.13
348.02,		603.11,		852.02
350.38,		726.5,		601.06
349.54,		727.46,		726.12
348.36,		728.61,		851.23
475.21,		476.39,		604.13
474.15,		477.4,		729.12
472.9,		478.72,		853.89
475.28,		601.42,		603.18
474.1,		602.33,		728.13
473.16,		603.26,		853.13
475.35,		726.65,		602.48
474.51,		727.52,		727.5
473.24,		728.37,		852.38
226.34,		599.22,		99.71
223.2,		602.04,		224.85
219.79,		604.63,		349.5
225.78,		724.57,		97.15
222.73,		726.97,		221.89
219.3,		729.62,		346.97
225.23,		849.19,		94.65
222.09,		851.96,		219.11
218.51,		854.78,		344.31
351.51,		599.88,		102.85
347.9,		602.68,		227.9
345.04,		605.22,		352.77
350.68,		724.94,		100.27
347.6,		727.78,		225.27
344.32,		730.2,		350.0
350.41,		850.16,		97.35
347.24,		852.7,		222.34
343.83,		855.36,		347.34
476.45,		600.55,		106.42
473.02,		603.3,		231.21
469.69,		605.85,		356.34
475.87,		725.76,		103.56
472.36,		728.4,		228.44
469.09,		731.05,		353.41
475.09,		850.45,		101.16
471.69,		853.17,		225.76
468.56,		855.72,		350.86
223.3,		601.56,		226.31
219.93,		600.05,		351.39
216.72,		598.92,		476.39
219.94,		726.55,		227.44
216.32,		725.13,		352.5
213.15,		724.0,		477.28
215.96,		851.41,		228.78
212.57,		849.89,		353.92
209.51,		848.73,		478.21
348.3,		605.24,		229.61
345.12,		603.68,		354.46
341.83,		602.53,		479.4
344.82,		729.89,		230.67
341.36,		728.59,		355.48
337.93,		727.59,		480.7
341.06,		854.95,		231.78
338.03,		853.68,		356.87
334.3,		852.53,		481.63
473.15,		608.92,		233.02
469.92,		607.25,		358.17
466.39,		606.28,		482.82
469.67,		733.79,		234.09
465.98,		732.28,		359.28
462.87,		731.34,		483.89
465.87,		858.48,		235.32
462.29,		857.16,		360.46
459.21,		855.92,		485.05
224.42,		601.66,		350.3
224.55,		600.03,		475.28
224.69,		597.63,		600.33
226.13,		726.63,		352.36
226.51,		724.91,		477.44
226.26,		722.83,		602.37
227.71,		851.77,		354.52
228.05,		849.72,		479.1
227.91,		847.81,		604.38
349.58,		600.09,		350.48
349.67,		598.08,		475.34
349.59,		596.17,		600.25
351.45,		725.21,		352.39
351.15,		722.99,		477.18
351.21,		721.17,		602.38
353.01,		850.14,		354.15
352.83,		848.13,		479.27
352.94,		846.29,		604.5
474.67,		598.38,		350.12
474.47,		596.33,		475.37
474.58,		594.66,		600.15
476.15,		723.47,		352.24
476.03,		721.35,		477.31
476.18,		719.56,		602.22
477.66,		848.46,		354.45
477.83,		846.27,		479.11
477.96,		844.25,		604.04
224.2,		598.36,		476.64
222.15,		598.71,		601.5
219.75,		599.12,		726.37
225.6,		723.46,		476.0
223.04,		723.54,		601.44
220.95,		723.99,		726.13
226.84,		848.21,		475.65
224.35,		848.54,		600.96
222.37,		849.1,		725.79
349.34,		597.09,		478.78
346.98,		597.56,		603.75
344.66,		597.8,		728.74
350.32,		721.93,		478.55
348.34,		722.47,		603.24
346.07,		722.92,		728.34
351.81,		846.97,		478.05
349.47,		847.34,		602.92
347.46,		847.87,		728.14
474.18,		595.77,		481.1
471.98,		596.4,		605.83
469.74,		596.5,		730.86
475.49,		720.83,		480.71
473.03,		721.12,		605.48
470.78,		721.46,		730.71
476.76,		845.88,		480.03
474.5,		846.05,		605.38
472.31,		846.63,		730.18
223.22,		599.74,		599.35
221.78,		599.07,		724.32
220.53,		598.4,		849.05
222.05,		725.01,		599.95
220.49,		724.17,		724.85
218.95,		723.15,		850.07
220.72,		850.0,		600.94
219.32,		848.96,		725.5
217.56,		848.23,		850.69
348.22,		601.25,		600.63
346.88,		600.42,		725.55
345.29,		599.19,		850.81
347.1,		726.03,		601.59
345.8,		725.48,		726.12
344.18,		724.38,		851.26
345.91,		851.29,		602.1
344.21,		850.19,		727.08
343.07,		849.5,		852.05
473.38,		602.49,		602.19
471.9,		601.64,		726.95
470.46,		600.82,		852.06
472.0,		727.53,		603.08
470.32,		726.44,		728.05
469.05,		725.8,		853.01
470.66,		852.32,		603.69
469.17,		851.54,		728.7
467.63,		850.65,		853.63
351.16,		100.62,		98.91
349.78,		101.04,		223.82
348.61,		101.51,		348.54
351.33,		225.7,		98.18
350.38,		226.34,		223.28
348.87,		226.53,		348.13
351.77,		350.82,		97.91
350.57,		351.05,		222.99
349.44,		351.83,		347.97
475.92,		100.41,		99.77
474.68,		101.04,		225.07
473.77,		101.08,		350.13
476.29,		225.36,		99.6
475.21,		225.91,		224.69
474.13,		226.22,		349.62
477.03,		350.49,		99.06
475.6,		350.72,		223.96
474.56,		351.27,		349.11
600.97,		100.01,		101.31
599.9,		100.46,		226.27
598.52,		100.84,		351.02
601.52,		224.95,		100.8
600.39,		225.39,		225.61
598.83,		225.97,		350.81
601.91,		349.86,		100.19
600.76,		350.6,		225.48
599.22,		350.97,		350.23
348.94,		99.9,		225.08
351.86,		103.34,		349.87
354.46,		106.59,		474.77
349.06,		224.91,		221.66
351.71,		228.36,		346.53
354.36,		231.85,		471.71
349.17,		349.87,		218.28
351.55,		353.29,		343.31
354.62,		356.52,		468.28
473.91,		100.15,		222.2
476.63,		103.28,		347.13
479.45,		106.73,		472.09
473.87,		224.7,		219.13
476.76,		228.15,		343.79
479.46,		231.67,		468.69
473.8,		349.95,		215.84
476.83,		353.28,		340.54
479.58,		356.5,		465.45
598.78,		99.74,		219.47
601.55,		103.12,		344.41
604.36,		106.63,		469.27
598.92,		224.81,		216.22
601.44,		227.96,		341.22
604.4,		231.55,		465.97
598.72,		349.75,		213.08
601.67,		353.1,		337.75
604.43,		356.48,		462.91
348.24,		100.77,		349.71
350.55,		98.83,		474.77
352.89,		96.75,		599.63
350.27,		225.46,		351.63
352.61,		223.44,		476.68
355.26,		221.65,		601.56
352.63,		350.44,		353.44
355.01,		348.5,		478.64
357.5,		346.6,		603.55
472.87,		98.25,		347.37
475.33,		96.31,		472.18
478.02,		94.21,		597.37
475.43,		223.09,		349.29
477.75,		221.2,		474.34
480.02,		219.51,		599.3
477.68,		348.0,		351.31
480.03,		346.17,		476.18
482.46,		344.45,		601.17
597.91,		95.76,		344.98
600.51,		94.18,		469.78
602.82,		92.18,		594.94
600.2,		221.05,		346.57
602.71,		218.88,		471.84
605.07,		217.22,		596.65
602.77,		345.89,		348.65
605.08,		343.82,		473.54
607.34,		342.02,		598.64
351.76,		97.86,		475.56
353.45,		98.27,		600.26
354.49,		98.47,		725.52
353.06,		222.81,		475.02
354.27,		223.14,		600.1
355.56,		223.51,		725.12
354.14,		348.03,		474.69
355.39,		348.45,		599.59
356.83,		348.81,		724.65
476.83,		96.95,		474.31
478.34,		97.4,		599.05
479.56,		97.75,		724.14
478.1,		221.89,		473.66
479.15,		222.27,		598.91
480.84,		222.7,		723.64
479.18,		346.77,		473.56
480.18,		347.27,		598.36
481.65,		347.44,		723.38
601.9,		96.0,		472.69
603.08,		96.09,		597.69
604.59,		96.61,		722.95
602.94,		220.73,		472.28
604.16,		221.05,		597.49
605.42,		221.82,		722.33
604.02,		346.07,		472.14
605.22,		346.36,		597.16
606.79,		346.51,		721.93
350.5,		98.11,		600.3
348.43,		99.23,		725.36
346.16,		100.29,		850.44
350.31,		222.95,		599.23
348.32,		224.35,		724.36
346.32,		225.19,		849.07
350.41,		348.2,		597.94
348.43,		349.07,		722.97
346.37,		350.08,		848.23
475.4,		98.14,		602.42
473.19,		99.24,		727.41
471.38,		100.19,		852.48
475.32,		222.97,		601.37
473.35,		224.26,		726.49
471.45,		225.31,		851.28
475.58,		347.91,		600.0
473.24,		349.2,		725.27
471.35,		350.03,		850.22
600.34,		97.79,		604.41
598.43,		99.09,		729.36
596.04,		100.09,		854.73
600.44,		222.96,		603.54
598.21,		224.01,		728.36
596.14,		225.37,		853.25
600.46,		348.04,		602.33
598.56,		349.24,		727.4
596.08,		350.03,		852.21
351.31,		225.1,		101.34
351.96,		223.98,		226.16
353.03,		222.74,		351.28
348.9,		349.96,		102.37
349.69,		348.99,		227.1
350.52,		347.75,		352.23
346.53,		475.03,		103.22
347.2,		473.96,		228.21
348.36,		472.7,		353.51
476.29,		227.58,		100.29
477.21,		226.43,		225.4
478.17,		225.35,		350.21
473.63,		352.15,		101.22
474.65,		351.36,		226.21
475.81,		350.04,		351.18
471.52,		477.53,		102.67
472.11,		476.41,		227.3
473.23,		475.14,		352.48
601.31,		229.85,		99.43
602.24,		228.85,		224.25
602.86,		227.68,		349.44
598.61,		354.67,		100.26
599.61,		353.61,		225.54
600.48,		352.48,		350.38
596.44,		479.89,		101.43
597.33,		478.56,		226.5
598.29,		477.54,		351.57
348.31,		225.05,		224.54
347.09,		227.12,		349.62
345.93,		229.01,		474.51
352.02,		349.96,		222.68
350.9,		352.31,		347.75
349.35,		354.02,		472.83
355.43,		474.86,		220.7
354.28,		477.18,		345.56
352.96,		478.94,		470.92
473.42,		221.61,		225.75
472.11,		223.59,		351.06
470.72,		225.63,		476.06
476.88,		346.58,		224.14
475.89,		348.57,		349.06
474.32,		350.36,		473.76
480.32,		471.66,		221.9
479.47,		473.51,		346.83
477.99,		475.45,		472.23
598.33,		217.88,		227.03
597.17,		219.86,		352.13
595.63,		222.07,		477.32
601.69,		342.99,		225.51
600.8,		344.81,		350.47
599.26,		346.98,		475.39
605.8,		467.7,		223.16
604.3,		469.73,		348.43
603.22,		471.87,		473.39
348.72,		223.67,		350.14
348.36,		221.98,		475.45
348.58,		220.44,		600.15
347.4,		348.65,		352.05
347.29,		347.17,		476.94
347.36,		345.42,		601.7
346.1,		473.46,		353.3
346.24,		471.85,		478.68
345.88,		470.47,		603.46
473.64,		225.0,		350.5
473.38,		223.32,		475.5
473.51,		221.79,		600.38
472.32,		349.7,		352.0
472.16,		348.02,		476.96
472.33,		346.73,		601.89
471.03,		474.93,		353.74
470.87,		473.39,		478.78
471.16,		471.56,		603.36
598.66,		226.17,		350.34
598.61,		224.23,		475.43
598.39,		222.9,		600.47
597.45,		351.04,		352.09
597.38,		349.5,		476.94
597.21,		347.89,		602.06
596.33,		475.91,		353.55
595.95,		474.36,		478.47
596.16,		472.83,		603.52
351.3,		226.04,		474.2
354.54,		222.54,		598.88
357.68,		219.07,		723.78
350.32,		351.16,		477.9
353.41,		347.65,		602.55
356.58,		343.73,		727.64
349.15,		475.98,		481.35
352.17,		472.6,		606.35
355.51,		468.79,		731.19
476.56,		227.36,		471.02
479.39,		223.67,		596.05
482.7,		220.27,		720.69
475.17,		352.19,		474.8
478.42,		348.84,		599.78
481.47,		345.08,		724.55
473.99,		477.51,		478.52
477.18,		473.66,		603.41
480.17,		470.11,		727.92
601.47,		228.47,		467.93
604.57,		225.07,		592.94
607.25,		221.37,		717.66
600.21,		353.77,		471.62
603.22,		350.1,		596.71
606.19,		346.23,		721.63
599.16,		478.48,		475.25
602.27,		474.99,		600.24
605.16,		471.37,		725.32
348.35,		225.07,		600.72
347.24,		224.58,		725.85
346.49,		224.29,		850.78
350.6,		350.32,		601.35
349.74,		349.88,		726.37
348.85,		349.29,		851.39
352.63,		475.17,		601.99
352.03,		474.64,		726.78
350.89,		474.21,		851.64
473.18,		222.95,		601.49
472.38,		222.33,		726.6
471.37,		222.01,		851.46
475.52,		348.05,		602.12
474.7,		347.36,		727.27
473.8,		346.88,		851.9
477.74,		472.75,		602.55
476.9,		472.48,		727.41
476.28,		472.02,		852.61
598.23,		220.69,		602.36
597.28,		220.14,		727.33
596.44,		219.62,		852.52
600.54,		345.57,		602.95
599.69,		345.1,		727.86
598.79,		344.74,		852.91
602.52,		470.73,		603.45
601.93,		470.22,		728.69
600.96,		469.53,		853.35
350.0,		350.29,		98.36
348.24,		349.7,		223.17
346.37,		349.29,		348.23
352.05,		475.43,		98.92
350.63,		474.68,		223.87
348.89,		474.35,		348.77
354.63,		600.22,		99.54
352.89,		599.88,		224.22
351.02,		599.3,		349.14
474.95,		348.06,		100.04
473.4,		347.62,		225.06
471.48,		347.14,		349.84
477.29,		473.23,		100.5
475.55,		472.6,		225.75
473.47,		471.99,		350.47
479.41,		598.11,		101.3
477.67,		597.48,		226.13
475.88,		597.01,		351.32
600.11,		345.99,		101.88
598.25,		345.33,		226.81
596.33,		344.82,		352.02
602.28,		470.89,		102.52
600.47,		470.29,		227.5
598.69,		469.81,		352.17
604.29,		595.71,		102.88
602.5,		595.42,		228.21
600.92,		595.01,		353.01
348.51,		350.69,		226.62
350.07,		351.68,		351.56
351.96,		352.07,		476.51
351.17,		475.81,		226.0
352.91,		476.43,		350.9
354.71,		477.09,		475.76
354.02,		600.7,		225.4
355.53,		601.52,		350.02
357.27,		601.99,		475.19
473.65,		348.04,		224.95
475.16,		348.8,		349.94
476.92,		349.44,		474.86
476.18,		473.02,		224.39
477.99,		473.57,		349.07
479.45,		474.31,		474.17
478.86,		598.23,		223.67
480.65,		598.9,		348.79
482.15,		599.48,		473.8
598.66,		345.34,		223.31
600.01,		346.13,		348.52
601.58,		346.7,		473.5
601.27,		470.24,		222.86
602.96,		470.92,		347.64
604.53,		471.76,		472.82
603.87,		595.46,		222.21
605.7,		595.92,		346.92
607.18,		596.73,		472.07
350.41,		350.98,		348.79
353.04,		352.42,		473.99
355.7,		353.65,		598.69
348.27,		476.0,		347.54
350.45,		477.03,		472.72
353.15,		478.62,		597.51
345.46,		600.97,		346.52
348.06,		602.12,		471.54
350.55,		603.43,		596.56
475.38,		353.34,		346.51
477.99,		354.84,		471.53
480.54,		355.86,		596.45
472.77,		478.27,		344.93
475.4,		479.5,		470.25
478.1,		481.1,		595.04
470.37,		603.28,		344.03
472.85,		604.54,		469.01
475.69,		605.99,		593.73
600.59,		355.8,		343.9
602.9,		357.07,		468.94
605.52,		358.6,		593.72
597.86,		480.74,		342.44
600.59,		482.32,		467.46
603.07,		483.59,		592.47
595.2,		606.04,		341.28
597.83,		607.15,		466.1
600.65,		608.28,		591.47
350.87,		347.99,		477.04
352.92,		345.03,		601.81
354.72,		342.07,		726.83
351.34,		473.2,		480.17
352.92,		470.05,		604.93
355.04,		466.87,		729.79
351.26,		597.97,		482.94
353.11,		594.94,		607.86
355.14,		592.09,		733.08
475.97,		347.92,		474.92
477.85,		344.68,		599.92
479.69,		341.62,		724.75
476.04,		473.09,		478.04
478.07,		469.62,		603.11
480.0,		466.76,		727.78
476.28,		597.67,		481.21
478.07,		594.76,		606.11
479.86,		591.47,		731.18
600.83,		347.72,		473.21
602.7,		344.64,		598.16
604.55,		341.52,		723.17
601.36,		472.75,		476.09
602.89,		469.5,		601.29
605.01,		466.56,		726.25
601.2,		597.77,		479.35
603.27,		594.79,		604.16
605.18,		591.68,		729.05
348.68,		350.15,		600.35
347.82,		351.77,		725.45
347.23,		353.15,		850.18
347.39,		475.12,		599.06
346.83,		476.86,		724.05
345.69,		478.16,		849.01
346.08,		600.28,		597.32
345.54,		601.72,		722.48
344.86,		603.06,		847.43
473.53,		351.24,		600.98
472.92,		352.72,		725.92
472.23,		354.16,		850.88
472.59,		476.45,		599.61
471.58,		477.67,		724.3
471.14,		479.61,		849.33
471.27,		601.53,		597.98
470.36,		602.51,		723.15
470.13,		604.29,		847.89
598.76,		352.76,		601.67
597.96,		354.01,		726.77
597.35,		355.21,		851.73
597.35,		477.43,		600.1
596.59,		478.98,		725.22
596.02,		480.28,		850.2
596.12,		602.78,		598.97
595.84,		603.84,		723.9
594.74,		605.39,		848.83
350.43,		474.76,		100.11
351.52,		476.05,		225.1
352.21,		477.51,		350.14
350.42,		599.85,		98.94
351.37,		600.97,		224.03
352.12,		602.28,		348.87
350.61,		724.99,		97.73
351.36,		726.06,		222.95
352.44,		727.35,		347.75
475.77,		474.8,		99.55
476.3,		475.92,		224.48
477.19,		477.29,		349.31
475.61,		599.96,		98.25
476.44,		601.13,		223.18
477.18,		602.44,		348.02
475.52,		725.05,		97.13
476.28,		725.92,		221.92
477.19,		727.5,		347.22
600.55,		474.75,		98.42
601.4,		476.04,		223.52
602.32,		477.41,		348.4
600.34,		599.74,		97.05
601.26,		601.28,		222.57
602.22,		602.28,		347.27
600.44,		725.0,		96.23
601.48,		725.89,		221.02
602.26,		727.47,		345.9
351.01,		473.21,		224.14
349.72,		476.97,		349.02
347.98,		480.06,		474.04
349.92,		598.35,		220.67
348.57,		601.62,		345.74
346.91,		605.11,		470.76
348.48,		723.19,		217.46
347.34,		726.54,		342.43
345.66,		729.78,		467.5
475.98,		474.8,		225.72
474.74,		477.86,		350.84
472.88,		481.55,		475.76
474.77,		599.9,		222.42
473.2,		602.89,		347.54
471.63,		606.49,		472.38
473.5,		724.61,		218.94
471.88,		728.16,		344.07
470.36,		731.5,		468.76
601.36,		476.06,		227.03
599.56,		479.5,		351.92
598.17,		482.77,		477.11
599.84,		600.89,		223.71
598.27,		604.34,		348.77
596.82,		607.86,		473.58
598.56,		725.86,		220.35
596.96,		729.39,		345.31
595.56,		732.5,		470.29
351.87,		474.87,		349.4
352.56,		478.49,		474.17
353.92,		482.28,		599.12
354.23,		599.95,		345.7
355.28,		603.27,		470.59
356.33,		607.29,		595.39
356.84,		724.88,		341.8
357.96,		728.25,		466.85
359.08,		732.25,		592.03
476.49,		472.21,		348.22
477.78,		476.02,		473.42
478.92,		479.63,		598.43
479.29,		597.21,		344.6
480.18,		600.7,		469.58
481.25,		604.56,		594.45
481.5,		722.35,		341.27
482.57,		725.76,		465.96
483.75,		729.55,		590.8
601.75,		469.75,		347.35
602.58,		473.49,		472.55
603.57,		476.98,		597.26
604.33,		594.53,		343.8
605.35,		598.42,		468.85
606.37,		602.04,		593.75
606.89,		719.61,		339.95
607.91,		723.23,		465.08
608.96,		726.9,		590.03
348.94,		474.12,		476.25
346.82,		472.45,		601.38
344.19,		470.82,		726.26
349.09,		598.87,		478.05
346.75,		597.16,		602.88
344.68,		595.61,		727.99
349.65,		723.94,		479.67
347.12,		722.27,		604.72
344.64,		720.58,		729.62
473.92,		473.76,		478.67
471.68,		471.89,		603.56
469.04,		470.29,		728.58
473.99,		598.61,		480.27
471.99,		597.19,		605.35
469.42,		595.13,		730.39
474.61,		723.82,		481.89
472.24,		721.95,		607.03
469.66,		720.03,		732.09
598.96,		473.71,		481.12
596.74,		471.57,		606.15
594.29,		469.97,		731.09
599.39,		598.47,		482.81
596.63,		596.81,		607.76
594.39,		594.93,		732.52
599.53,		723.48,		484.45
597.18,		721.7,		609.53
594.9,		720.13,		734.16
350.02,		475.82,		600.78
346.41,		479.27,		725.98
343.15,		482.54,		850.9
348.07,		600.51,		597.34
344.99,		604.2,		722.23
341.31,		607.41,		847.24
346.47,		725.74,		594.09
343.1,		729.22,		718.6
339.99,		732.85,		843.46
474.84,		477.49,		604.28
471.37,		481.04,		729.11
468.09,		484.86,		853.97
473.09,		602.59,		600.9
469.69,		605.88,		725.47
466.48,		609.44,		850.68
471.51,		727.56,		597.06
468.16,		730.87,		721.98
464.82,		734.67,		847.07
599.72,		479.23,		607.48
596.2,		482.95,		732.5
593.08,		486.05,		857.42
598.06,		604.14,		604.07
595.01,		607.88,		729.03
591.54,		610.95,		853.7
596.54,		729.2,		600.44
592.99,		732.51,		725.11
589.59,		735.99,		850.4
351.62,		598.39,		101.81
351.79,		600.34,		227.05
351.64,		602.8,		351.79
350.79,		723.53,		99.92
350.88,		725.49,		224.97
351.36,		727.45,		349.86
350.27,		848.42,		97.49
350.5,		850.45,		222.57
350.65,		852.82,		347.71
476.44,		598.87,		101.89
476.85,		601.31,		226.74
476.5,		603.33,		351.98
476.1,		724.05,		99.62
476.05,		725.97,		224.63
475.84,		728.37,		349.99
475.21,		848.89,		97.81
475.23,		851.26,		222.7
475.08,		853.28,		347.76
601.33,		599.46,		101.51
601.58,		601.81,		226.9
601.88,		604.19,		351.58
600.8,		724.6,		99.63
600.98,		726.62,		224.58
601.11,		728.85,		349.44
600.44,		849.86,		97.4
600.64,		851.72,		222.41
600.5,		853.76,		347.47
350.67,		599.32,		225.73
351.14,		596.27,		350.72
351.78,		593.26,		475.62
349.03,		723.93,		228.77
349.43,		721.12,		353.54
350.26,		718.23,		478.63
347.24,		849.05,		231.78
347.77,		846.09,		356.66
348.28,		843.21,		481.66
475.79,		600.8,		225.2
476.05,		598.09,		350.42
476.61,		595.05,		475.26
473.83,		725.81,		228.24
474.52,		722.8,		353.48
474.83,		719.67,		478.03
471.87,		850.67,		231.35
472.64,		847.77,		356.33
473.38,		844.93,		481.26
600.54,		602.72,		224.89
600.99,		599.53,		349.68
601.78,		596.73,		474.73
599.01,		727.73,		227.69
599.46,		724.81,		352.73
600.07,		721.35,		477.57
597.33,		852.65,		230.58
597.96,		849.77,		355.62
598.25,		846.55,		480.8
351.24,		598.33,		351.83
348.87,		597.39,		476.79
346.26,		596.92,		601.78
349.98,		723.39,		352.4
347.64,		722.34,		477.4
345.19,		721.81,		602.33
348.71,		848.21,		353.2
346.13,		847.63,		478.02
343.88,		846.98,		603.33
476.07,		599.61,		354.33
473.5,		598.81,		479.1
471.46,		598.16,		604.14
474.76,		724.47,		355.15
472.46,		723.84,		479.74
470.15,		723.32,		605.03
473.13,		849.18,		355.69
471.02,		848.53,		480.54
468.91,		848.01,		605.6
600.89,		600.71,		356.32
598.74,		600.08,		481.3
596.45,		599.25,		606.53
599.98,		725.58,		357.08
597.53,		725.01,		482.09
595.05,		724.19,		607.17
598.47,		850.66,		357.76
596.19,		849.98,		482.92
593.6,		849.25,		608.02
350.81,		600.78,		473.82
349.92,		601.79,		598.69
348.56,		603.13,		723.74
349.85,		725.66,		472.71
348.56,		727.13,		597.6
347.81,		728.05,		722.52
348.66,		850.83,		471.56
347.55,		851.96,		596.51
346.35,		853.14,		721.52
475.93,		601.96,		475.09
474.64,		603.08,		600.0
473.4,		603.86,		724.82
474.86,		726.85,		473.85
473.86,		728.27,		598.64
472.7,		728.98,		723.82
473.68,		851.94,		472.64
472.72,		852.93,		597.66
471.58,		854.11,		722.59
600.99,		603.02,		476.23
599.92,		604.2,		601.28
598.57,		605.51,		726.04
599.69,		727.96,		474.82
598.76,		729.09,		599.8
597.62,		730.25,		724.67
598.84,		852.91,		473.79
597.35,		854.21,		598.7
596.45,		855.33,		723.79
351.15,		599.01,		598.27
352.33,		596.92,		723.07
353.29,		594.61,		847.99
347.88,		723.74,		600.35
349.23,		721.89,		725.17
350.31,		719.67,		850.23
344.5,		848.57,		602.31
345.74,		846.92,		727.26
347.03,		844.95,		852.16
475.96,		602.13,		596.88
477.15,		599.89,		722.1
478.67,		598.34,		846.8
472.66,		727.27,		599.19
473.88,		725.13,		724.0
475.01,		723.34,		849.17
469.57,		852.02,		601.15
470.71,		849.98,		726.09
471.7,		848.01,		851.05
601.12,		605.45,		595.96
602.39,		603.36,		720.89
603.31,		601.34,		845.89
597.7,		730.3,		597.86
598.92,		728.44,		722.87
600.24,		726.43,		847.66
594.22,		855.23,		599.87
595.73,		853.4,		724.74
596.86,		851.29,		849.86
473.77,		99.26,		99.48
475.64,		99.64,		224.89
477.15,		100.05,		349.67
471.22,		224.42,		99.26
472.53,		224.57,		224.3
474.25,		224.94,		349.23
468.0,		349.32,		98.77
469.68,		349.66,		224.0
471.59,		350.13,		348.96
599.06,		102.08,		97.91
600.48,		102.48,		222.85
601.99,		103.05,		348.13
595.91,		227.08,		97.57
597.64,		227.35,		222.65
599.38,		227.83,		347.73
593.24,		352.03,		97.42
594.92,		352.56,		222.24
596.54,		352.95,		347.47
723.81,		105.09,		96.4
725.67,		105.28,		221.24
727.07,		105.68,		346.44
720.98,		230.01,		96.09
722.47,		230.26,		220.86
724.1,		230.57,		345.89
718.0,		355.13,		95.54
719.59,		355.45,		220.77
721.21,		355.97,		345.79
476.49,		99.42,		223.49
477.49,		96.01,		348.14
478.33,		93.16,		473.38
475.69,		224.21,		226.23
476.51,		221.14,		351.44
477.7,		217.95,		476.28
474.95,		349.3,		229.55
476.07,		345.99,		354.45
477.06,		343.07,		479.42
601.53,		100.18,		222.14
602.44,		96.72,		347.23
603.31,		93.98,		472.25
600.54,		225.05,		225.25
601.85,		221.74,		350.4
602.77,		218.73,		475.15
599.83,		350.13,		228.77
600.86,		346.91,		353.62
602.25,		343.67,		478.66
726.23,		100.99,		221.19
727.39,		97.74,		346.12
728.48,		94.39,		471.1
725.74,		225.62,		224.3
726.92,		222.45,		349.45
727.71,		219.35,		474.11
725.02,		350.94,		227.49
726.06,		347.61,		352.62
727.25,		344.28,		477.46
476.45,		100.55,		350.08
474.26,		100.56,		475.31
471.52,		100.79,		599.97
476.35,		225.86,		350.05
473.94,		225.76,		474.91
471.61,		225.83,		599.9
476.07,		350.68,		350.0
473.75,		350.65,		475.02
471.52,		350.56,		600.05
601.55,		100.77,		352.39
599.14,		100.94,		477.75
596.55,		100.65,		602.66
601.56,		225.86,		352.47
599.12,		225.66,		477.4
596.41,		225.8,		602.33
601.08,		350.7,		352.4
598.71,		350.88,		477.28
596.43,		350.86,		602.5
726.42,		101.04,		355.15
724.09,		100.96,		480.0
721.52,		101.14,		604.97
726.47,		226.02,		355.12
724.11,		226.0,		479.76
721.41,		226.01,		605.14
726.34,		351.16,		355.06
723.7,		351.07,		480.02
721.27,		350.99,		604.88
476.26,		100.48,		475.51
478.61,		101.49,		600.56
480.82,		102.57,		725.47
477.92,		225.33,		474.78
480.22,		226.58,		599.62
482.68,		227.3,		724.46
479.92,		350.28,		473.68
482.38,		351.35,		598.34
484.28,		352.47,		723.52
601.38,		98.79,		473.46
603.23,		99.57,		598.27
605.68,		100.59,		723.19
603.21,		223.71,		472.46
605.49,		224.51,		597.2
607.72,		225.57,		722.44
604.88,		348.58,		471.27
607.26,		349.46,		596.34
609.51,		350.54,		721.2
726.26,		96.83,		470.81
728.42,		97.79,		596.01
730.9,		98.53,		721.06
728.21,		221.78,		469.96
730.22,		222.59,		594.97
732.59,		223.58,		719.9
729.76,		346.68,		469.03
732.31,		347.68,		593.92
734.51,		348.59,		718.77
476.08,		101.41,		601.96
475.84,		100.07,		726.8
475.61,		98.8,		851.68
477.23,		226.58,		603.27
477.17,		225.19,		728.08
476.9,		223.62,		853.23
478.27,		351.5,		604.63
478.24,		350.03,		729.79
478.44,		348.46,		854.54
600.89,		100.17,		601.97
600.82,		98.99,		726.91
600.78,		97.4,		851.7
602.22,		225.28,		603.14
601.88,		224.1,		728.29
601.75,		222.31,		853.34
603.37,		350.45,		604.9
603.22,		349.03,		729.86
603.26,		347.6,		854.67
726.0,		99.31,		601.9
725.95,		97.81,		726.88
725.77,		96.32,		851.99
727.11,		224.36,		603.58
726.92,		222.57,		728.55
726.97,		221.16,		853.3
728.51,		349.17,		604.9
728.26,		347.48,		729.78
728.17,		346.41,		854.81
475.67,		226.12,		101.28
477.21,		229.38,		226.51
478.74,		232.93,		351.22
476.34,		351.22,		98.16
477.66,		354.55,		223.16
479.17,		357.78,		347.87
477.0,		476.33,		94.91
478.34,		479.51,		219.6
479.8,		482.51,		344.64
600.68,		225.57,		99.97
602.13,		228.93,		224.89
603.79,		232.05,		349.67
601.17,		350.29,		96.51
603.06,		353.84,		221.73
604.19,		356.99,		346.39
602.22,		475.46,		93.39
603.6,		478.63,		218.25
604.88,		482.15,		342.97
725.87,		224.76,		98.51
727.39,		228.11,		223.42
728.69,		231.47,		348.51
726.34,		349.9,		95.24
727.7,		353.01,		220.29
729.33,		356.62,		344.93
726.99,		474.97,		91.95
728.36,		478.16,		216.69
729.89,		481.3,		341.5
473.23,		224.87,		223.38
474.67,		222.6,		348.26
476.09,		219.63,		473.13
469.69,		350.19,		225.97
471.16,		347.14,		350.98
472.48,		344.71,		475.84
466.12,		475.01,		228.65
467.58,		472.19,		353.42
469.03,		469.52,		478.66
598.21,		228.63,		222.03
599.47,		225.98,		346.86
601.26,		223.17,		471.64
594.78,		353.55,		224.66
595.9,		350.9,		349.5
597.41,		348.2,		474.69
591.37,		478.41,		227.09
592.51,		475.74,		352.29
594.22,		473.18,		477.31
723.13,		232.13,		220.68
724.54,		229.41,		345.57
725.88,		226.83,		470.26
719.63,		357.23,		223.08
720.94,		354.45,		348.31
722.38,		351.92,		473.03
715.92,		482.02,		225.79
717.33,		479.33,		351.0
718.86,		476.64,		475.98
475.71,		226.61,		349.08
474.96,		224.05,		473.85
473.76,		221.11,		599.03
477.9,		351.45,		351.47
476.73,		348.91,		476.44
475.61,		346.15,		601.39
479.72,		476.38,		354.39
478.54,		473.83,		479.06
477.73,		470.9,		603.97
601.03,		224.53,		349.95
599.78,		221.95,		474.83
598.72,		219.36,		600.0
602.69,		349.49,		352.5
601.87,		346.91,		477.74
600.64,		344.34,		602.46
604.59,		474.61,		355.29
603.68,		471.74,		480.3
602.79,		469.21,		605.3
725.81,		222.66,		350.75
724.66,		219.79,		475.88
723.73,		217.42,		600.86
727.65,		347.68,		353.59
726.57,		344.77,		478.3
725.52,		342.38,		603.6
729.6,		472.36,		356.32
728.58,		469.84,		481.09
727.58,		467.19,		606.28
476.08,		225.95,		476.29
474.29,		226.25,		601.17
472.51,		226.55,		726.21
472.82,		350.61,		476.02
471.45,		350.98,		600.73
469.5,		351.51,		726.02
470.05,		475.81,		475.49
468.46,		476.04,		600.27
466.83,		476.24,		725.18
600.76,		228.67,		478.03
599.18,		229.1,		602.78
597.78,		229.41,		728.06
597.82,		353.77,		477.53
596.34,		353.91,		602.29
594.45,		354.3,		727.59
595.09,		478.81,		477.03
593.35,		479.13,		602.03
591.7,		479.42,		727.02
725.87,		231.93,		479.56
724.34,		232.22,		604.71
722.59,		232.57,		729.5
722.87,		356.8,		479.08
721.09,		357.09,		604.19
719.64,		357.48,		728.89
720.06,		481.87,		478.65
718.05,		482.27,		603.64
716.52,		482.28,		728.83
475.91,		223.76,		599.31
473.66,		223.77,		724.47
471.4,		223.91,		849.36
479.04,		348.64,		599.42
476.74,		348.45,		724.2
474.8,		348.64,		849.29
482.52,		473.43,		599.16
479.94,		473.66,		723.93
477.98,		473.77,		849.23
600.79,		220.35,		601.67
598.51,		220.3,		726.76
596.11,		220.66,		851.61
604.02,		345.18,		601.57
601.7,		345.46,		726.47
599.29,		345.44,		851.31
607.46,		470.25,		601.47
605.14,		470.47,		726.4
602.53,		470.45,		851.4
725.62,		216.91,		603.84
723.32,		216.97,		729.01
720.95,		217.13,		853.96
728.95,		342.05,		603.84
726.65,		341.95,		728.66
724.33,		342.38,		853.51
732.1,		467.05,		603.7
729.92,		467.07,		728.6
727.78,		466.98,		853.66
475.93,		348.61,		98.69
477.39,		345.1,		223.47
478.78,		341.09,		348.76
473.49,		473.52,		102.54
475.12,		469.91,		227.28
476.4,		465.94,		352.3
471.51,		598.37,		106.13
472.76,		594.91,		231.28
474.45,		591.23,		356.13
600.55,		350.99,		97.39
602.24,		347.27,		222.06
603.66,		343.68,		347.08
598.71,		475.77,		101.06
600.34,		472.2,		225.65
601.62,		468.4,		350.65
596.52,		600.46,		104.61
598.02,		596.94,		229.58
599.34,		593.54,		354.34
725.88,		353.0,		95.83
727.12,		349.54,		220.81
728.76,		345.8,		345.82
723.7,		477.98,		99.51
725.12,		474.11,		224.37
726.7,		470.71,		349.39
721.52,		602.93,		103.13
722.75,		599.33,		228.4
724.24,		595.73,		353.06
473.51,		350.19,		226.48
470.89,		348.89,		351.44
468.3,		348.17,		476.27
472.92,		475.19,		227.43
470.33,		474.04,		352.67
467.83,		473.22,		477.56
472.17,		600.05,		228.53
469.57,		599.03,		353.76
467.16,		597.92,		478.55
598.65,		350.74,		229.0
595.97,		349.8,		354.16
593.28,		348.66,		478.98
597.86,		475.85,		230.13
595.49,		474.67,		354.87
592.68,		473.9,		480.1
597.07,		600.79,		231.17
594.54,		599.86,		356.21
592.25,		598.86,		480.83
723.61,		351.72,		231.53
721.01,		350.47,		356.51
718.35,		349.55,		481.42
722.66,		476.45,		232.41
720.39,		475.38,		357.57
717.82,		474.46,		482.48
722.07,		601.52,		233.52
719.43,		600.35,		358.42
716.99,		599.37,		483.51
473.79,		348.76,		351.5
470.24,		347.43,		476.4
466.98,		346.26,		601.65
474.38,		473.66,		352.99
470.96,		472.5,		477.99
467.42,		470.97,		602.82
475.08,		598.83,		354.35
471.56,		597.49,		479.51
468.32,		596.22,		604.23
598.39,		348.23,		355.11
595.31,		346.89,		480.12
591.55,		345.49,		605.08
599.42,		473.07,		356.55
596.0,		471.98,		481.39
592.42,		470.47,		606.16
600.18,		598.1,		357.74
596.61,		596.58,		482.63
592.99,		595.47,		607.72
723.46,		347.39,		358.63
720.19,		345.98,		483.3
716.79,		344.66,		608.21
724.13,		472.17,		359.58
720.92,		470.76,		484.75
717.45,		469.41,		609.89
725.13,		597.13,		361.21
721.45,		596.23,		486.44
718.33,		594.36,		610.87
475.79,		350.59,		474.3
473.06,		347.35,		599.35
470.41,		343.71,		724.2
473.0,		475.69,		477.75
470.42,		472.26,		602.73
467.67,		468.57,		727.42
469.86,		600.67,		481.07
467.47,		597.06,		605.84
464.78,		593.56,		730.89
600.52,		353.65,		477.23
598.04,		349.84,		601.79
595.5,		346.65,		726.93
597.71,		478.27,		480.35
595.31,		474.84,		605.14
592.66,		471.82,		730.21
594.79,		603.39,		483.62
592.48,		599.74,		608.48
589.89,		596.57,		733.56
725.39,		356.05,		479.83
722.8,		352.75,		604.48
720.41,		349.23,		729.46
722.7,		480.97,		482.88
720.02,		477.77,		608.13
717.5,		474.34,		732.84
720.0,		606.21,		486.34
717.26,		602.8,		611.37
714.75,		599.36,		736.17
476.22,		350.93,		598.91
475.14,		348.61,		723.76
474.23,		346.35,		848.81
479.14,		475.86,		601.1
477.88,		473.63,		726.06
476.85,		471.73,		851.18
481.94,		600.68,		603.53
480.57,		598.4,		728.65
479.98,		596.55,		853.45
601.09,		348.2,		599.86
600.08,		345.74,		724.81
599.02,		343.64,		850.0
603.74,		473.08,		602.2
602.81,		470.78,		727.3
601.85,		468.52,		852.16
606.85,		597.75,		604.43
605.72,		595.67,		729.51
604.81,		593.43,		854.21
726.19,		345.14,		600.91
725.17,		343.06,		725.91
724.01,		340.64,		850.67
728.99,		470.16,		603.26
727.92,		467.79,		728.17
726.99,		465.57,		853.22
731.87,		594.99,		605.31
730.6,		592.85,		730.47
729.63,		590.55,		855.31
475.72,		476.86,		98.18
479.07,		477.76,		223.25
482.93,		478.27,		347.86
478.19,		601.69,		97.49
481.66,		602.42,		222.27
485.04,		603.28,		347.12
480.51,		726.75,		96.63
483.82,		727.42,		221.4
487.62,		728.53,		346.43
600.59,		474.35,		94.7
604.24,		475.1,		219.56
607.93,		475.91,		344.3
602.92,		599.6,		93.56
606.47,		600.34,		218.59
610.37,		601.04,		343.41
605.3,		724.27,		92.6
608.88,		724.99,		217.77
612.5,		725.75,		342.6
725.45,		472.27,		90.97
729.29,		472.73,		215.95
732.82,		473.57,		340.98
727.63,		597.47,		90.47
731.52,		598.0,		215.25
735.01,		598.5,		340.18
730.28,		721.85,		89.14
734.12,		722.86,		214.04
737.45,		723.65,		339.22
475.1,		473.46,		223.03
475.36,		473.43,		348.22
475.57,		473.07,		473.17
474.35,		598.52,		223.32
474.53,		598.43,		348.32
474.59,		597.92,		473.2
473.48,		723.41,		223.49
473.92,		723.2,		348.59
474.18,		722.99,		473.61
600.35,		474.2,		222.6
600.28,		474.16,		347.68
600.51,		473.72,		472.92
599.32,		599.24,		223.04
599.43,		598.89,		347.89
599.9,		598.96,		473.1
598.89,		723.95,		222.95
599.05,		724.21,		348.08
599.19,		723.61,		473.04
725.13,		475.02,		222.66
725.16,		474.84,		347.43
725.51,		474.33,		472.63
724.29,		600.01,		222.96
724.57,		599.66,		347.63
724.79,		599.69,		472.88
723.69,		724.87,		223.05
723.88,		724.96,		348.02
724.21,		724.33,		473.01
475.98,		475.18,		349.47
472.96,		475.39,		474.1
470.46,		475.98,		599.22
476.23,		600.08,		349.17
473.65,		600.5,		473.99
470.8,		600.79,		598.98
477.01,		725.13,		348.77
474.16,		725.36,		473.69
471.53,		725.7,		598.49
600.89,		474.39,		351.84
598.02,		474.71,		477.15
595.15,		475.06,		601.84
601.29,		599.27,		351.83
598.93,		599.63,		476.67
595.89,		600.34,		601.67
602.38,		724.37,		351.23
599.43,		724.58,		476.38
596.53,		725.44,		601.51
725.65,		473.82,		354.79
722.98,		473.94,		479.91
720.11,		474.48,		604.89
726.56,		598.62,		354.62
723.59,		599.2,		479.71
720.83,		599.59,		604.31
726.94,		723.63,		354.21
724.42,		724.05,		479.07
721.52,		724.52,		604.24
474.07,		474.72,		473.35
475.95,		473.56,		598.14
477.84,		472.83,		723.12
473.14,		599.8,		474.24
475.24,		598.64,		599.01
476.85,		597.49,		724.19
472.13,		724.65,		474.96
474.23,		723.79,		600.26
476.24,		722.63,		725.33
599.03,		475.57,		471.09
601.07,		474.49,		596.09
602.99,		474.04,		721.3
598.04,		600.56,		472.08
600.28,		599.61,		597.27
602.3,		598.61,		722.24
597.12,		725.53,		473.33
599.01,		724.65,		598.32
601.23,		723.62,		722.86
724.12,		476.4,		469.41
725.9,		475.71,		594.36
727.91,		474.52,		719.0
722.92,		601.68,		470.44
724.95,		600.44,		595.22
727.05,		599.6,		720.31
721.97,		726.39,		471.36
724.02,		725.74,		596.29
726.16,		724.46,		721.18
475.52,		473.45,		600.86
474.34,		473.92,		725.8
473.16,		474.42,		850.67
472.31,		598.2,		600.19
470.84,		598.48,		725.34
470.09,		599.34,		850.22
468.77,		723.51,		599.98
467.44,		723.84,		724.89
466.09,		724.1,		849.63
600.71,		476.77,		602.15
599.2,		477.28,		727.14
598.19,		477.84,		851.9
597.01,		601.81,		601.57
595.95,		602.09,		726.47
594.69,		602.57,		851.61
593.68,		726.63,		600.9
592.47,		727.12,		725.95
591.22,		727.81,		850.87
725.75,		480.41,		603.11
724.49,		480.49,		728.31
722.88,		481.36,		853.44
722.19,		605.08,		602.49
721.11,		605.83,		727.75
719.62,		606.4,		852.68
718.47,		730.38,		602.27
717.57,		730.77,		727.2
716.03,		731.17,		852.07
473.23,		601.68,		100.37
475.16,		601.75,		225.58
477.27,		601.94,		350.43
473.44,		726.56,		100.26
475.32,		727.05,		225.02
477.42,		727.21,		350.13
473.33,		851.39,		100.15
475.35,		852.06,		224.96
477.22,		852.04,		350.04
598.04,		601.3,		98.46
600.33,		601.87,		223.52
602.46,		602.05,		348.27
598.33,		726.35,		98.21
600.39,		726.53,		222.77
602.48,		726.91,		348.22
598.59,		851.47,		97.61
600.95,		851.72,		222.67
602.74,		851.81,		347.91
723.23,		601.46,		96.36
725.15,		601.72,		221.24
727.33,		601.99,		346.36
723.36,		726.46,		96.15
725.51,		726.37,		220.95
727.2,		726.79,		346.3
723.42,		851.5,		96.04
725.42,		851.63,		220.99
727.54,		851.89,		345.75
474.12,		600.16,		224.93
477.26,		597.8,		349.96
480.33,		595.19,		474.83
473.3,		725.08,		227.42
476.26,		722.54,		352.29
479.87,		720.14,		477.32
472.47,		849.99,		229.82
475.83,		847.54,		354.72
479.19,		845.45,		479.78
598.76,		600.97,		222.02
602.34,		598.35,		346.51
605.46,		595.92,		471.58
598.2,		725.9,		224.0
601.47,		723.59,		348.93
604.9,		720.98,		474.06
597.87,		850.8,		226.56
600.89,		848.55,		351.26
604.16,		846.36,		476.38
723.7,		601.64,		218.57
726.99,		599.12,		343.51
730.21,		596.79,		468.62
723.12,		726.39,		220.92
726.57,		724.13,		345.86
729.77,		721.9,		470.65
722.38,		851.64,		223.3
725.53,		849.19,		348.21
728.92,		846.61,		473.1
475.52,		599.21,		350.61
477.94,		600.76,		475.2
480.39,		602.51,		600.3
478.56,		724.25,		348.74
480.78,		725.81,		473.5
483.24,		727.56,		598.63
481.01,		849.19,		346.92
483.37,		850.93,		471.73
485.54,		852.46,		596.86
600.78,		596.63,		348.32
603.14,		598.21,		473.03
605.46,		600.02,		598.03
603.5,		721.43,		346.51
605.74,		722.88,		471.4
608.05,		724.83,		596.47
606.23,		846.53,		344.77
608.34,		848.23,		469.48
610.68,		849.81,		594.49
725.82,		593.93,		345.79
728.08,		595.41,		470.84
730.11,		597.27,		595.91
728.23,		718.56,		344.13
730.57,		720.53,		469.23
733.08,		722.34,		594.04
731.07,		843.81,		342.42
733.41,		845.32,		467.33
735.8,		847.22,		592.48
476.79,		600.51,		475.81
478.38,		601.69,		600.51
480.06,		602.21,		725.86
478.79,		725.81,		474.87
480.67,		726.49,		600.08
482.08,		727.16,		724.94
481.34,		850.71,		473.93
483.09,		851.22,		599.22
484.69,		852.11,		724.21
602.06,		598.42,		473.97
603.42,		599.25,		598.85
605.0,		600.32,		724.02
604.23,		723.16,		473.01
605.69,		724.37,		598.07
607.4,		724.9,		723.14
606.47,		848.43,		472.52
608.0,		849.26,		597.27
609.36,		849.94,		722.45
726.79,		596.36,		472.69
728.52,		596.96,		597.16
729.93,		597.67,		722.33
728.77,		721.36,		471.56
730.6,		721.93,		596.53
732.14,		722.83,		721.54
731.12,		846.08,		471.01
732.88,		847.18,		595.71
734.44,		847.59,		720.65
475.5,		599.66,		599.61
474.75,		596.71,		724.53
474.22,		594.06,		849.53
476.82,		724.81,		602.5
475.94,		721.9,		727.51
475.06,		718.8,		852.41
477.89,		849.88,		605.47
476.95,		846.78,		730.32
476.06,		843.84,		855.51
600.65,		598.83,		600.19
599.73,		595.94,		725.34
598.98,		592.69,		849.98
601.63,		723.86,		603.27
600.92,		720.58,		728.2
600.12,		717.64,		853.18
602.77,		848.79,		606.16
602.07,		845.89,		731.04
601.18,		842.71,		856.09
725.67,		597.56,		601.11
724.8,		594.52,		726.01
723.92,		591.93,		850.81
726.81,		722.68,		604.13
725.86,		719.5,		729.07
724.9,		716.46,		853.99
727.58,		847.53,		607.0
726.83,		844.46,		731.97
726.02,		841.7,		857.0
598.92,		99.15,		98.13
600.3,		97.48,		222.9
601.81,		95.67,		348.09
596.62,		224.33,		99.98
597.93,		222.28,		224.72
599.58,		220.74,		349.57
593.97,		349.08,		101.59
595.8,		347.7,		226.63
597.11,		345.75,		351.63
723.85,		101.68,		96.5
725.31,		99.99,		221.43
726.98,		98.38,		346.7
721.56,		226.56,		98.35
722.99,		224.98,		223.3
724.69,		223.22,		348.29
719.11,		351.43,		100.24
720.73,		349.91,		225.13
721.99,		348.03,		350.02
848.86,		104.07,		95.08
850.45,		102.24,		219.99
851.8,		100.71,		345.15
846.44,		229.12,		97.02
847.98,		227.22,		221.88
849.38,		225.41,		346.82
844.23,		354.23,		98.57
845.74,		352.08,		223.4
847.29,		350.76,		348.67
600.88,		99.92,		226.51
602.63,		102.71,		351.45
604.41,		105.9,		476.38
597.51,		224.61,		223.51
598.91,		227.92,		348.45
600.85,		230.54,		473.39
594.05,		349.64,		220.86
595.6,		352.75,		345.69
597.19,		355.64,		470.44
726.09,		103.37,		225.0
727.39,		106.4,		349.89
729.4,		109.08,		474.65
722.44,		228.22,		221.77
724.14,		231.29,		346.98
725.68,		234.33,		471.82
718.94,		353.08,		219.01
720.46,		356.43,		344.05
722.01,		359.16,		468.79
850.87,		106.93,		223.06
852.39,		109.56,		348.08
854.11,		113.03,		473.08
847.22,		231.83,		220.07
848.91,		234.9,		345.24
850.43,		237.77,		469.83
844.03,		356.63,		217.09
845.62,		360.02,		342.37
847.01,		362.58,		466.91
598.08,		100.74,		349.02
596.48,		97.88,		473.95
594.71,		94.78,		598.84
595.9,		225.48,		352.05
594.09,		222.48,		476.93
592.18,		219.85,		601.81
593.71,		350.41,		354.84
591.73,		347.83,		479.6
589.88,		344.81,		604.58
723.09,		102.72,		350.85
721.51,		100.05,		475.66
719.47,		97.17,		601.06
720.74,		227.71,		353.72
718.92,		224.97,		478.59
717.36,		222.23,		603.74
718.44,		352.96,		356.49
716.73,		349.81,		481.43
715.01,		347.06,		606.36
848.05,		105.12,		352.71
846.51,		102.27,		477.47
844.45,		99.39,		602.64
845.7,		230.29,		355.51
844.14,		227.06,		480.56
842.34,		224.33,		605.61
843.73,		355.05,		358.6
841.87,		352.12,		483.12
840.11,		349.49,		608.47
600.07,		101.17,		475.79
597.7,		102.4,		600.9
595.75,		103.47,		725.69
603.24,		225.97,		474.6
601.43,		227.09,		599.95
599.1,		228.54,		724.77
606.92,		351.26,		473.67
604.62,		352.26,		598.69
602.37,		353.35,		723.8
724.86,		97.57,		478.07
722.61,		98.66,		603.3
720.53,		99.92,		727.91
728.42,		222.53,		476.89
726.19,		223.68,		601.89
724.2,		224.92,		726.93
731.62,		347.67,		475.63
729.55,		348.79,		600.94
727.49,		349.83,		725.65
849.95,		94.3,		480.12
847.54,		95.47,		605.32
845.67,		96.56,		730.16
853.1,		219.12,		478.88
851.0,		220.27,		604.02
849.02,		221.54,		728.88
856.57,		344.16,		477.92
854.46,		345.39,		602.84
852.24,		346.34,		728.06
599.48,		100.39,		600.99
599.13,		99.81,		726.26
598.72,		99.23,		850.99
597.82,		225.66,		601.72
597.13,		224.98,		726.69
596.84,		224.26,		851.65
595.67,		350.48,		602.43
595.14,		349.98,		727.24
594.74,		349.01,		852.57
724.6,		102.56,		601.58
724.13,		101.86,		726.45
723.67,		101.17,		851.49
722.67,		227.66,		602.4
722.19,		226.87,		727.1
721.89,		225.96,		852.31
720.63,		352.41,		602.71
720.31,		351.83,		727.88
719.84,		350.98,		852.94
849.5,		104.19,		601.89
849.07,		103.78,		726.9
848.63,		102.97,		851.96
847.61,		229.15,		602.56
847.14,		228.45,		727.71
846.64,		228.11,		852.52
845.58,		354.41,		603.47
845.35,		353.6,		728.39
844.96,		353.13,		853.36
601.29,		223.08,		100.37
601.35,		225.61,		225.27
601.9,		228.37,		350.23
598.1,		348.25,		97.92
598.45,		350.72,		222.96
598.8,		353.12,		347.78
595.55,		473.17,		95.28
595.62,		475.51,		220.06
596.1,		478.34,		345.25
726.02,		226.27,		99.78
726.47,		228.68,		224.88
726.59,		231.34,		349.94
723.31,		351.23,		97.56
723.35,		353.63,		222.51
723.84,		356.19,		347.57
720.27,		475.85,		94.99
720.64,		478.26,		219.89
720.88,		480.99,		344.86
851.1,		229.01,		99.64
851.42,		231.61,		224.52
851.49,		233.95,		349.73
848.11,		353.88,		97.23
848.4,		356.45,		222.18
848.68,		359.0,		347.3
845.38,		479.18,		94.92
845.65,		481.42,		219.56
845.9,		483.97,		344.42
600.53,		226.56,		226.38
599.12,		226.35,		351.2
597.65,		226.11,		476.09
602.3,		351.44,		226.63
601.25,		351.25,		351.73
599.59,		351.07,		476.61
604.65,		476.35,		226.7
603.12,		476.37,		351.79
601.77,		475.83,		476.66
725.39,		224.62,		227.52
724.09,		224.32,		352.76
722.71,		223.89,		477.67
727.32,		349.39,		228.02
726.18,		349.3,		353.01
724.85,		349.14,		477.8
729.49,		474.32,		228.3
728.01,		474.12,		353.05
726.79,		473.93,		478.32
850.33,		222.57,		228.94
849.22,		222.33,		354.08
847.62,		221.93,		479.13
852.36,		347.26,		229.36
851.03,		347.32,		354.28
849.52,		347.02,		479.31
854.03,		472.43,		229.71
853.1,		472.28,		354.72
851.36,		472.06,		479.72
601.08,		226.53,		349.63
597.71,		227.84,		474.51
594.51,		229.05,		599.47
600.87,		351.18,		348.02
597.66,		352.62,		473.19
594.14,		354.01,		598.11
600.87,		476.42,		346.86
597.57,		477.68,		471.78
593.94,		479.26,		596.84
726.08,		226.44,		352.95
722.73,		227.95,		478.08
719.27,		229.35,		602.77
725.88,		351.51,		351.79
722.67,		352.94,		476.62
719.36,		354.4,		601.47
725.88,		476.26,		350.23
722.44,		477.68,		475.01
718.98,		479.48,		600.1
851.24,		226.82,		356.47
847.88,		227.99,		481.2
844.47,		229.75,		606.52
851.18,		351.75,		355.23
847.46,		352.91,		479.93
844.07,		354.83,		604.85
850.73,		476.83,		353.47
847.29,		477.82,		478.39
844.12,		479.57,		603.39
600.0,		223.63,		474.48
602.89,		222.91,		599.41
606.08,		222.4,		724.24
602.39,		348.76,		474.96
605.64,		348.12,		599.87
608.58,		347.34,		724.74
605.0,		473.65,		475.47
607.98,		472.82,		600.26
610.96,		472.47,		725.48
724.85,		221.22,		471.27
727.99,		220.6,		596.38
731.01,		220.19,		721.29
727.54,		345.89,		471.81
730.34,		345.58,		596.82
733.48,		345.11,		721.71
729.86,		470.81,		472.18
732.84,		470.42,		597.34
735.81,		469.84,		722.43
850.1,		218.58,		468.38
852.75,		218.19,		593.53
855.81,		217.34,		718.15
852.29,		343.7,		468.69
855.2,		343.23,		593.92
858.35,		342.84,		718.73
854.77,		468.39,		469.45
857.88,		468.14,		594.55
860.76,		467.56,		719.11
599.95,		225.96,		599.2
597.27,		228.56,		724.08
594.81,		231.44,		849.17
601.59,		350.76,		596.65
599.1,		353.71,		721.59
596.4,		356.24,		846.34
603.23,		475.91,		593.9
600.68,		478.83,		718.81
598.08,		481.19,		843.76
724.57,		224.22,		601.97
722.01,		226.92,		726.59
719.7,		229.9,		851.67
726.36,		349.12,		599.33
723.86,		351.9,		724.04
721.56,		354.65,		848.94
728.3,		474.12,		596.51
725.9,		476.87,		721.29
723.26,		479.58,		846.57
849.81,		222.7,		604.58
847.23,		225.1,		729.3
844.72,		227.76,		854.52
851.43,		347.58,		601.73
848.84,		350.26,		726.87
846.12,		352.76,		851.48
853.38,		472.36,		598.97
850.78,		474.91,		724.13
848.14,		477.75,		848.92
601.86,		349.82,		98.36
598.83,		346.5,		223.37
596.32,		342.78,		348.6
603.62,		475.08,		102.25
600.75,		471.17,		227.22
598.08,		467.52,		351.93
605.1,		599.82,		105.78
602.19,		596.3,		230.73
599.6,		592.54,		355.89
726.87,		348.41,		101.36
723.86,		344.81,		226.05
721.24,		341.04,		351.23
728.61,		472.96,		104.73
725.69,		469.4,		229.67
723.0,		465.91,		354.51
730.29,		597.87,		108.72
727.44,		594.75,		233.69
724.61,		590.87,		358.42
851.87,		346.33,		103.89
848.99,		342.58,		228.84
846.18,		339.37,		354.12
853.36,		471.27,		107.77
850.6,		467.87,		232.56
847.89,		464.24,		357.58
854.79,		595.99,		111.15
852.5,		592.59,		236.25
849.5,		588.99,		361.18
601.26,		351.56,		226.95
600.72,		353.9,		351.84
599.71,		356.17,		476.77
600.62,		476.37,		224.79
599.76,		478.75,		349.76
598.92,		481.17,		474.79
599.9,		601.55,		222.34
599.01,		603.59,		347.29
598.03,		605.92,		472.51
726.42,		352.28,		227.85
725.54,		354.52,		352.64
724.7,		356.6,		477.78
725.55,		477.14,		225.44
724.57,		479.48,		350.36
723.9,		481.52,		475.67
725.07,		602.26,		223.54
723.85,		604.65,		348.28
723.11,		606.98,		473.31
851.6,		352.88,		228.86
850.44,		355.72,		353.67
849.76,		357.56,		478.57
850.4,		478.06,		226.35
849.95,		480.4,		351.44
848.61,		482.23,		476.49
849.88,		602.94,		224.29
849.13,		605.21,		349.28
848.03,		607.78,		474.32
601.86,		348.81,		348.49
598.19,		351.57,		473.58
594.93,		353.76,		598.19
604.88,		473.79,		346.0
601.42,		476.32,		470.97
598.06,		478.93,		596.04
608.21,		598.69,		343.78
604.57,		601.35,		468.65
600.99,		603.86,		593.42
726.88,		345.77,		352.15
723.44,		348.41,		477.01
719.73,		350.93,		602.08
729.8,		470.66,		349.63
726.39,		473.41,		474.53
722.86,		475.99,		599.36
733.07,		595.72,		347.19
729.29,		598.19,		472.08
726.18,		600.76,		596.84
851.54,		342.82,		355.67
848.24,		345.14,		480.39
844.91,		348.0,		605.59
854.71,		467.66,		352.97
851.19,		470.14,		478.1
847.94,		472.94,		602.95
857.82,		592.75,		350.46
854.14,		595.27,		475.8
851.15,		597.74,		600.25
601.32,		350.35,		473.85
599.46,		350.13,		598.58
597.5,		349.93,		723.91
602.31,		475.18,		473.91
600.28,		475.09,		598.99
598.55,		475.35,		724.08
603.47,		600.21,		474.02
601.13,		600.08,		599.23
599.33,		599.97,		723.99
726.54,		349.26,		475.53
724.67,		349.23,		600.67
722.39,		349.02,		725.76
727.24,		474.3,		475.98
725.45,		474.45,		600.73
723.28,		474.25,		725.86
728.04,		599.46,		476.24
726.12,		599.17,		601.0
724.36,		599.12,		726.03
851.59,		348.28,		477.61
849.51,		348.36,		602.75
847.64,		348.19,		727.85
852.29,		473.17,		478.04
850.49,		473.31,		602.74
848.46,		472.77,		727.79
853.19,		598.35,		478.1
851.37,		598.34,		602.91
849.31,		598.41,		728.02
600.04,		350.4,		601.43
602.87,		347.06,		726.56
605.76,		343.6,		851.31
599.55,		475.44,		604.72
602.63,		472.27,		729.85
605.23,		468.61,		854.84
599.17,		600.38,		608.07
602.41,		596.99,		733.24
605.14,		593.12,		858.12
724.7,		350.56,		598.64
728.01,		347.44,		723.49
730.84,		343.95,		848.64
724.76,		475.62,		602.08
727.24,		472.41,		726.95
730.37,		468.91,		851.81
724.11,		600.37,		605.4
727.06,		597.28,		730.25
730.24,		594.04,		855.1
849.83,		351.2,		595.95
852.6,		347.98,		720.56
855.63,		344.52,		845.62
849.66,		476.19,		599.19
852.47,		472.46,		724.03
855.52,		469.47,		849.18
849.17,		600.96,		602.29
851.92,		597.94,		727.53
854.94,		594.26,		852.18
599.08,		477.0,		98.6
597.85,		476.43,		223.52
596.36,		475.76,		348.54
598.9,		601.93,		99.41
597.5,		601.39,		224.37
596.16,		600.47,		349.18
599.15,		727.01,		100.12
597.71,		726.19,		224.96
596.38,		725.46,		349.86
724.03,		476.63,		99.93
722.47,		476.18,		225.14
721.26,		475.59,		349.96
723.92,		601.9,		100.74
722.38,		601.4,		225.73
721.09,		600.81,		350.87
723.83,		726.87,		101.5
722.43,		726.39,		226.3
720.95,		725.76,		351.58
848.82,		476.98,		101.33
847.53,		476.55,		226.58
846.22,		475.63,		351.18
849.11,		601.96,		102.15
847.82,		601.45,		227.39
846.36,		600.61,		351.88
848.95,		726.96,		102.99
847.36,		726.58,		227.76
846.2,		725.59,		352.74
602.0,		474.19,		224.36
599.55,		476.23,		349.32
596.75,		478.1,		474.2
599.32,		599.08,		222.2
597.02,		601.16,		347.34
594.32,		603.0,		472.29
596.84,		723.91,		220.17
594.44,		725.97,		345.17
591.98,		728.04,		469.99
726.77,		476.77,		226.82
724.44,		478.75,		351.64
721.66,		480.63,		476.9
724.31,		601.88,		224.8
721.73,		603.83,		349.92
719.09,		605.87,		474.61
721.74,		726.63,		222.69
719.12,		728.6,		347.85
716.75,		730.52,		472.61
851.52,		479.46,		229.43
849.36,		481.18,		354.12
846.55,		483.22,		479.44
849.3,		604.11,		227.39
846.89,		606.01,		351.98
844.17,		608.4,		477.16
846.89,		729.08,		225.05
843.99,		731.14,		350.27
841.74,		733.27,		474.92
598.56,		474.18,		348.09
596.52,		472.08,		473.32
594.82,		470.05,		598.2
600.71,		599.17,		350.36
599.19,		597.0,		475.29
597.3,		594.89,		600.24
603.38,		724.44,		352.8
601.68,		721.8,		477.41
599.72,		719.95,		602.56
723.49,		471.74,		350.11
721.48,		469.6,		474.98
719.7,		467.49,		599.8
726.0,		596.9,		352.27
724.0,		594.72,		477.22
722.14,		592.57,		601.97
728.11,		721.76,		354.32
726.38,		719.65,		479.31
724.45,		717.63,		604.51
848.55,		469.53,		351.8
846.31,		467.09,		476.62
844.83,		465.11,		601.68
850.77,		594.47,		354.11
849.01,		592.37,		479.04
847.21,		589.94,		603.82
853.27,		719.31,		356.18
851.43,		717.25,		481.23
849.49,		715.08,		606.24
599.82,		475.27,		475.51
603.15,		472.54,		600.38
606.42,		470.05,		725.54
601.37,		599.98,		478.33
604.56,		597.48,		602.92
607.6,		595.24,		727.83
602.97,		724.98,		480.39
606.02,		722.7,		605.51
609.39,		720.24,		730.36
724.83,		473.77,		472.35
728.16,		471.39,		597.57
731.05,		468.75,		722.47
726.4,		598.77,		474.91
729.61,		595.99,		599.73
732.74,		593.8,		724.75
727.8,		723.68,		477.53
730.83,		721.28,		602.25
733.93,		718.64,		727.53
849.77,		472.43,		469.25
853.18,		469.94,		594.36
856.0,		467.35,		718.84
851.11,		597.5,		471.68
854.36,		595.0,		596.49
857.53,		592.36,		721.65
852.78,		722.29,		474.25
855.88,		719.78,		599.12
858.9,		717.2,		723.92
600.45,		476.18,		601.28
599.97,		477.16,		726.47
599.52,		477.57,		851.7
600.87,		601.26,		600.63
600.97,		602.12,		725.68
600.41,		602.39,		850.62
601.52,		726.33,		600.07
601.21,		727.08,		724.76
600.91,		727.79,		849.88
725.62,		475.67,		601.89
725.13,		476.44,		726.74
724.95,		477.35,		851.62
726.12,		600.75,		600.95
725.6,		601.24,		725.83
725.53,		602.16,		850.84
726.64,		725.53,		600.32
726.07,		726.41,		725.39
725.98,		727.15,		850.43
850.62,		475.15,		602.13
850.16,		475.62,		727.11
849.84,		476.61,		852.11
850.95,		599.97,		601.15
850.54,		601.16,		726.48
850.43,		601.77,		851.13
851.62,		725.13,		600.55
851.26,		725.91,		725.33
850.83,		726.75,		850.6
600.6,		599.99,		98.54
602.6,		601.57,		223.92
604.54,		603.02,		348.73
601.14,		724.85,		97.28
603.2,		726.39,		222.27
605.23,		727.96,		347.21
601.81,		849.84,		95.34
603.72,		851.57,		220.62
605.72,		852.97,		345.67
725.63,		599.09,		96.98
727.63,		600.7,		222.18
729.16,		602.34,		346.85
726.31,		724.3,		95.29
728.16,		725.75,		220.26
729.76,		727.13,		345.3
726.76,		848.91,		93.82
728.52,		850.52,		218.83
730.46,		852.49,		343.82
850.79,		598.74,		94.95
852.34,		600.23,		220.12
854.64,		601.56,		344.77
851.07,		723.61,		93.43
852.84,		725.06,		218.42
855.15,		726.74,		343.29
851.82,		848.58,		91.87
853.79,		849.81,		216.89
855.63,		851.87,		341.98
598.54,		598.3,		225.74
594.67,		598.68,		350.9
591.23,		598.87,		475.78
600.92,		723.38,		225.64
597.27,		723.75,		350.48
593.54,		723.96,		475.32
603.0,		848.74,		225.35
599.64,		848.8,		350.42
595.9,		849.19,		475.36
723.22,		596.44,		229.71
719.82,		596.39,		354.45
716.06,		596.81,		479.52
725.55,		721.05,		229.34
722.18,		721.61,		354.47
718.47,		721.59,		479.04
727.62,		845.97,		229.33
724.09,		846.3,		354.17
720.63,		846.81,		479.13
848.39,		593.89,		232.99
844.9,		594.03,		358.13
840.95,		594.57,		483.13
850.55,		718.98,		233.07
846.96,		719.05,		357.81
843.01,		719.41,		482.91
852.78,		844.09,		232.58
849.25,		844.29,		357.85
845.58,		844.21,		482.53
600.18,		601.57,		351.63
598.28,		598.71,		476.36
596.47,		595.57,		601.47
600.96,		726.78,		354.33
599.04,		723.47,		479.4
597.13,		720.56,		604.42
601.48,		851.46,		357.48
599.42,		848.71,		482.44
597.35,		845.4,		607.49
725.15,		600.87,		353.27
723.36,		598.0,		478.3
721.48,		594.99,		603.15
725.8,		726.14,		356.31
723.97,		722.79,		481.28
722.15,		719.88,		606.24
726.15,		850.91,		359.56
724.32,		847.78,		484.35
722.64,		844.8,		609.54
850.08,		600.53,		355.13
848.48,		597.66,		480.26
846.64,		594.25,		605.1
850.92,		725.5,		358.26
848.88,		722.45,		483.03
847.14,		719.19,		608.23
851.42,		850.58,		361.21
849.25,		847.03,		486.19
847.51,		844.56,		611.33
599.13,		599.07,		475.7
597.69,		595.28,		600.34
596.03,		591.55,		725.4
597.14,		723.9,		479.02
595.5,		720.2,		604.04
594.13,		716.73,		729.1
595.3,		848.78,		482.89
593.92,		845.13,		607.87
592.54,		841.6,		732.53
724.03,		600.72,		477.32
722.31,		596.98,		601.92
721.08,		593.54,		727.01
722.06,		725.64,		480.74
720.53,		722.02,		605.79
719.23,		718.43,		730.48
720.17,		850.51,		484.35
718.83,		846.86,		609.38
717.35,		843.28,		734.27
848.84,		602.8,		478.75
847.65,		599.03,		603.56
846.06,		595.26,		728.58
846.85,		727.3,		482.23
845.73,		723.8,		607.27
844.19,		720.29,		732.3
845.08,		852.38,		485.75
843.96,		849.01,		610.79
842.29,		844.91,		735.82
600.44,		598.95,		601.61
601.42,		596.88,		726.55
602.13,		594.68,		851.53
600.95,		724.27,		603.57
601.76,		722.0,		728.69
602.61,		719.73,		853.63
601.21,		849.09,		606.02
602.05,		847.03,		730.87
603.21,		844.78,		855.75
725.69,		598.83,		600.54
726.46,		596.53,		725.62
727.35,		594.44,		850.68
725.86,		723.69,		602.95
726.66,		721.34,		727.85
727.74,		719.47,		853.0
726.45,		848.95,		604.89
727.2,		846.59,		730.14
727.87,		844.35,		854.97
850.66,		598.52,		599.74
851.55,		596.52,		724.96
852.28,		594.07,		849.88
851.1,		723.44,		601.89
851.95,		721.06,		726.91
852.76,		718.9,		851.98
851.35,		848.55,		604.27
852.05,		846.25,		729.08
853.03,		844.11,		854.14
