27, 125, pa2-debug-b-output1.txt
191.35,		209.74,		190.47
397.38,		391.78,		199.98
100.84,		100.37,		100.99
104.51,		103.64,		225.64
108.05,		106.71,		350.77
102.9,		225.03,		98.11
106.3,		228.44,		223.09
110.61,		231.61,		347.43
105.03,		350.74,		94.6
108.88,		352.87,		219.73
112.18,		356.48,		344.86
225.88,		98.18,		96.96
229.61,		101.05,		222.4
232.93,		103.98,		347.04
227.76,		223.23,		93.97
231.27,		226.5,		218.77
235.3,		229.49,		344.49
229.76,		347.93,		90.8
233.2,		350.7,		215.67
237.31,		353.76,		341.19
350.48,		96.29,		93.35
354.06,		99.01,		218.95
358.11,		101.81,		343.64
353.03,		221.36,		90.35
356.62,		223.92,		214.98
360.5,		226.69,		340.6
354.6,		346.01,		87.53
358.55,		349.15,		212.03
362.54,		351.7,		337.73
100.69,		100.86,		226.58
103.26,		99.75,		351.27
105.93,		97.88,		476.15
102.32,		226.21,		228.61
104.92,		224.86,		353.31
107.51,		222.91,		478.21
104.02,		351.7,		229.94
106.17,		349.8,		355.2
108.34,		347.2,		479.61
225.49,		99.44,		224.1
228.11,		97.71,		348.64
230.86,		96.18,		473.5
227.6,		224.5,		225.7
229.18,		222.92,		350.54
231.75,		220.92,		476.07
228.79,		349.97,		227.22
231.42,		348.29,		352.01
233.55,		345.71,		477.08
351.18,		98.26,		221.17
353.25,		96.76,		346.7
355.26,		95.02,		471.9
351.97,		222.73,		223.56
354.69,		221.38,		348.53
356.6,		219.87,		473.72
353.77,		347.95,		225.16
355.75,		346.18,		350.18
358.63,		344.56,		474.92
98.57,		99.17,		351.12
96.24,		95.26,		475.57
94.49,		92.1,		600.55
95.64,		223.92,		354.56
93.03,		220.41,		479.17
91.97,		216.4,		604.01
92.14,		348.95,		358.2
90.2,		345.63,		483.18
88.85,		341.84,		608.06
223.42,		102.19,		353.29
221.21,		98.51,		477.32
219.19,		94.59,		602.94
219.76,		227.2,		356.12
218.82,		223.75,		481.0
217.19,		219.81,		606.46
217.28,		352.15,		359.71
215.01,		348.13,		484.71
213.55,		345.17,		609.73
348.72,		105.02,		354.47
346.96,		101.61,		479.63
344.28,		98.0,		604.78
345.54,		230.69,		358.45
343.77,		226.54,		483.06
341.49,		223.12,		608.12
341.77,		354.62,		361.7
340.03,		351.73,		487.19
338.45,		347.3,		611.38
98.33,		101.27,		476.79
95.96,		103.4,		601.6
93.03,		105.17,		726.75
99.23,		226.17,		474.52
96.16,		228.17,		600.3
93.7,		230.39,		724.92
100.54,		351.86,		472.82
97.79,		352.96,		597.97
95.08,		355.46,		723.12
223.21,		100.64,		479.32
220.35,		102.78,		603.99
217.98,		104.67,		729.28
224.73,		225.2,		477.28
221.53,		227.31,		602.94
218.91,		229.06,		727.79
225.54,		350.66,		475.31
222.72,		352.52,		600.54
219.33,		354.74,		725.41
347.94,		99.66,		482.23
345.76,		101.34,		606.95
343.08,		103.54,		732.19
348.77,		225.22,		479.82
346.19,		226.8,		604.82
343.48,		228.33,		730.57
349.96,		350.03,		478.69
347.66,		351.9,		603.45
345.22,		353.52,		728.19
101.37,		99.91,		598.48
103.17,		96.48,		722.84
105.35,		93.27,		848.02
97.58,		224.98,		601.49
99.87,		221.28,		725.97
101.95,		217.97,		851.4
94.52,		349.47,		605.05
96.42,		346.49,		729.77
98.39,		342.77,		854.33
226.48,		103.51,		595.68
227.98,		99.94,		721.01
229.75,		96.47,		845.94
222.28,		227.92,		599.65
224.76,		224.94,		724.38
226.96,		221.88,		848.99
218.91,		352.73,		602.91
221.62,		350.39,		727.45
223.12,		346.49,		852.91
351.2,		106.43,		594.35
353.47,		103.72,		718.48
355.03,		100.13,		844.11
347.96,		232.14,		597.06
349.31,		228.45,		722.13
351.48,		225.66,		846.99
343.68,		356.72,		600.72
346.04,		352.88,		725.48
347.86,		350.0,		851.15
101.05,		226.33,		98.07
99.67,		224.2,		222.95
98.32,		221.97,		348.64
102.33,		351.04,		100.13
100.47,		349.75,		224.76
98.63,		347.61,		349.77
102.7,		476.24,		101.55
101.32,		474.61,		226.52
99.79,		472.42,		351.84
226.18,		225.12,		100.04
224.24,		223.49,		224.52
223.3,		221.96,		349.45
227.3,		350.44,		101.72
225.51,		348.17,		226.35
223.65,		346.86,		351.94
228.18,		475.5,		103.11
226.36,		473.65,		228.27
224.7,		471.29,		353.68
351.07,		224.11,		100.89
349.96,		223.09,		226.59
348.28,		220.93,		351.55
351.61,		349.41,		103.34
350.08,		347.92,		227.91
348.84,		345.78,		353.07
353.05,		474.99,		104.77
350.93,		472.48,		229.85
349.42,		470.94,		355.27
100.51,		226.67,		224.23
102.48,		223.14,		348.89
104.65,		219.8,		474.32
101.82,		351.25,		227.89
104.17,		347.86,		352.72
106.36,		345.59,		477.15
103.27,		476.56,		231.04
105.63,		472.97,		355.24
108.12,		469.71,		481.01
225.61,		225.1,		221.57
227.7,		222.28,		347.15
229.96,		219.34,		471.89
227.24,		350.26,		225.44
228.84,		346.72,		350.66
231.81,		343.7,		474.99
228.12,		475.68,		228.45
230.72,		471.79,		353.39
232.3,		468.79,		477.99
350.07,		224.14,		219.81
352.62,		221.2,		344.83
355.25,		217.87,		469.85
352.09,		348.64,		223.31
354.25,		346.32,		348.21
356.22,		342.31,		473.25
353.03,		474.21,		226.05
355.06,		470.85,		350.95
357.69,		467.3,		476.06
100.62,		224.75,		348.81
103.36,		221.66,		473.42
106.48,		217.51,		598.3
103.52,		350.09,		352.26
106.99,		346.05,		476.56
110.24,		342.72,		601.49
106.51,		474.29,		355.13
109.67,		471.02,		479.88
112.68,		467.65,		605.29
224.79,		221.14,		345.59
229.08,		218.06,		470.41
231.87,		214.96,		595.23
228.16,		346.49,		348.67
231.88,		342.99,		473.86
234.45,		339.84,		598.26
231.62,		471.79,		352.14
234.72,		467.59,		477.14
238.44,		464.3,		601.82
350.15,		218.34,		341.87
353.15,		215.6,		466.69
356.27,		212.12,		591.94
352.97,		343.8,		344.96
356.49,		339.7,		469.79
359.69,		336.26,		594.76
356.68,		468.45,		348.86
360.06,		465.0,		473.66
362.86,		461.95,		598.89
101.8,		223.94,		473.84
98.84,		222.56,		598.69
94.97,		220.82,		723.59
104.47,		348.37,		475.39
101.78,		346.94,		600.15
97.54,		346.21,		725.22
108.1,		473.74,		476.82
104.54,		471.72,		602.1
101.24,		470.65,		726.72
226.51,		220.94,		476.99
222.91,		219.08,		601.58
219.93,		217.43,		726.72
229.85,		345.99,		478.82
226.26,		344.27,		603.5
222.67,		342.29,		728.8
233.18,		470.65,		479.99
228.88,		469.51,		605.74
226.03,		467.94,		730.4
352.0,		217.85,		480.35
348.09,		215.96,		605.98
345.0,		215.0,		730.6
354.29,		342.53,		482.35
351.35,		341.45,		606.69
348.07,		339.63,		732.09
357.33,		467.34,		483.81
354.1,		466.38,		608.5
350.32,		464.96,		734.05
98.88,		224.1,		601.01
102.35,		223.36,		726.04
105.86,		223.89,		850.56
100.59,		349.02,		600.94
104.04,		348.48,		725.48
107.8,		349.0,		851.13
102.63,		473.84,		600.82
106.61,		473.39,		725.35
109.77,		473.52,		850.22
224.23,		221.47,		596.84
227.05,		222.09,		722.6
230.63,		221.45,		846.97
225.68,		346.32,		597.25
228.92,		346.49,		722.51
233.05,		346.36,		846.82
227.97,		471.69,		597.77
231.1,		471.84,		721.94
234.62,		471.93,		847.23
349.41,		219.37,		594.18
351.99,		219.62,		719.28
356.21,		219.92,		844.1
350.51,		344.31,		593.4
354.65,		344.89,		719.07
357.61,		344.12,		843.92
352.78,		469.13,		594.42
356.69,		469.48,		719.18
360.18,		469.08,		843.72
100.73,		350.72,		99.52
99.9,		354.32,		223.79
100.18,		357.51,		348.67
103.07,		475.9,		95.96
102.58,		479.16,		221.42
101.76,		482.13,		345.98
105.58,		601.0,		92.82
105.18,		604.1,		217.6
104.53,		606.87,		342.8
225.76,		349.34,		99.89
225.62,		351.77,		224.53
224.57,		354.93,		349.48
227.53,		473.39,		96.93
227.32,		477.24,		221.74
226.74,		480.1,		346.14
229.93,		598.64,		93.62
229.47,		601.82,		219.17
229.43,		604.67,		343.25
351.27,		347.11,		99.95
350.58,		349.79,		225.66
350.14,		353.11,		349.75
352.84,		471.55,		96.98
352.79,		474.69,		222.08
352.41,		477.46,		347.11
355.02,		596.34,		94.06
354.44,		599.84,		219.2
353.97,		602.26,		343.89
101.35,		348.06,		226.01
102.85,		349.91,		351.15
104.42,		351.55,		476.1
100.0,		473.11,		225.15
101.93,		474.68,		349.47
103.47,		476.28,		475.29
98.95,		598.54,		223.69
101.02,		600.39,		348.17
102.24,		601.84,		473.12
226.49,		349.95,		224.86
228.04,		350.55,		349.83
229.46,		352.42,		474.4
224.99,		474.56,		223.33
226.48,		475.9,		347.98
228.3,		477.39,		473.14
223.66,		599.63,		221.51
225.64,		601.13,		346.08
227.1,		602.43,		471.7
351.1,		350.7,		222.62
352.61,		352.33,		348.5
354.57,		353.53,		473.23
349.79,		475.43,		221.12
351.68,		476.88,		346.67
353.41,		478.41,		471.33
349.18,		600.85,		219.53
350.7,		602.3,		345.13
352.46,		603.51,		469.86
98.83,		350.63,		351.23
101.75,		347.31,		476.62
104.4,		343.36,		601.24
102.13,		475.38,		355.45
104.4,		472.31,		480.24
107.51,		468.67,		604.76
104.36,		600.51,		358.31
107.98,		596.5,		483.5
110.43,		593.14,		608.05
223.19,		347.56,		348.46
226.26,		344.42,		473.92
229.03,		340.69,		598.4
226.09,		472.24,		351.92
229.67,		468.71,		476.72
232.45,		465.63,		602.26
229.8,		597.03,		355.71
232.17,		593.51,		479.89
235.76,		590.73,		605.36
348.6,		344.79,		345.33
350.97,		341.14,		470.34
354.38,		337.77,		595.81
351.77,		469.68,		349.52
354.94,		466.36,		473.74
357.66,		462.4,		598.91
354.25,		593.87,		352.59
357.58,		590.82,		477.35
360.65,		586.87,		602.03
100.17,		350.17,		473.54
100.7,		347.05,		598.69
100.59,		343.22,		723.34
98.72,		475.6,		477.23
99.28,		472.22,		601.93
99.55,		468.02,		727.16
98.05,		600.55,		480.9
98.94,		596.27,		605.2
99.22,		593.61,		730.49
225.26,		351.09,		473.39
224.98,		347.41,		598.8
225.58,		344.83,		723.64
223.79,		476.2,		477.32
224.72,		472.93,		602.16
224.78,		469.56,		727.25
223.14,		601.13,		480.18
224.03,		597.2,		605.26
224.05,		594.1,		729.76
350.37,		352.1,		473.65
350.46,		348.02,		598.51
350.74,		345.17,		722.85
348.74,		476.52,		476.59
349.54,		473.36,		601.32
350.0,		470.14,		726.6
348.33,		601.66,		479.7
348.35,		598.18,		604.83
349.44,		594.93,		729.92
101.75,		350.39,		598.99
100.47,		352.35,		724.26
99.84,		354.07,		849.42
98.62,		475.17,		596.98
97.88,		476.68,		722.39
96.91,		479.5,		846.84
96.03,		600.27,		595.47
94.84,		602.26,		719.96
94.13,		604.19,		845.13
226.41,		353.25,		600.59
225.67,		354.6,		725.01
224.7,		356.84,		850.25
224.08,		477.35,		598.06
223.03,		479.72,		723.51
222.48,		481.85,		848.23
220.9,		602.39,		595.62
219.71,		605.19,		720.63
218.93,		606.57,		846.17
351.37,		356.15,		601.4
350.35,		357.8,		726.44
349.69,		359.83,		851.23
348.32,		481.03,		599.35
348.16,		482.87,		723.9
346.74,		484.52,		849.21
346.5,		605.47,		596.33
344.66,		607.26,		721.45
344.54,		609.39,		846.77
99.28,		474.0,		99.68
97.44,		470.47,		224.4
95.11,		467.54,		349.65
97.47,		599.16,		102.88
96.1,		596.09,		227.65
93.14,		592.35,		352.46
95.56,		723.98,		105.81
93.88,		720.83,		231.57
91.49,		717.32,		356.43
224.72,		475.85,		101.73
222.37,		472.28,		226.51
220.21,		469.13,		351.62
222.82,		601.22,		105.15
220.83,		597.74,		229.83
218.8,		594.03,		354.88
220.9,		726.02,		108.36
218.54,		721.71,		233.17
216.86,		718.62,		358.67
349.47,		478.03,		103.57
347.72,		474.04,		228.56
345.64,		470.43,		354.21
347.48,		602.82,		107.4
345.53,		599.33,		232.17
343.53,		595.49,		357.11
345.97,		727.68,		110.79
343.13,		723.62,		235.46
341.45,		720.77,		360.33
98.25,		476.88,		223.49
100.36,		478.94,		348.07
101.68,		480.81,		473.67
98.76,		601.61,		220.38
100.71,		604.52,		345.91
102.25,		606.38,		471.02
99.43,		726.67,		218.61
101.67,		729.05,		343.55
103.39,		731.07,		468.94
223.87,		476.1,		221.6
225.57,		478.87,		346.75
227.1,		480.57,		471.05
224.12,		601.49,		219.1
225.94,		603.46,		344.36
227.38,		605.87,		468.79
224.46,		726.6,		217.02
225.89,		728.46,		342.18
228.36,		730.41,		466.54
348.51,		476.18,		219.09
349.94,		478.68,		344.6
352.0,		480.58,		469.47
349.49,		600.44,		217.02
350.89,		603.07,		342.4
352.47,		604.91,		467.58
349.46,		726.0,		214.98
351.0,		728.44,		340.24
352.98,		730.14,		465.37
100.15,		475.12,		349.59
100.42,		471.79,		474.54
100.71,		468.49,		599.12
97.18,		600.87,		353.3
97.23,		597.08,		477.88
98.2,		593.51,		602.94
94.09,		725.6,		356.38
94.23,		721.95,		481.9
95.32,		717.98,		606.51
225.15,		478.79,		349.54
225.29,		474.96,		474.41
226.32,		471.2,		598.63
221.7,		603.33,		353.03
222.33,		599.53,		477.78
222.91,		596.24,		602.02
218.82,		728.59,		356.6
219.27,		725.13,		481.27
220.18,		721.32,		606.59
349.92,		481.43,		349.04
350.62,		478.2,		473.39
350.73,		474.64,		598.3
346.58,		606.22,		352.75
347.76,		603.08,		477.7
347.74,		599.61,		602.28
344.01,		731.26,		356.07
344.5,		727.91,		480.96
344.85,		723.83,		605.69
100.19,		476.16,		474.66
96.02,		475.36,		599.94
93.2,		474.09,		724.77
103.48,		601.22,		475.58
99.94,		600.07,		600.64
96.69,		598.46,		725.54
106.84,		726.15,		476.9
103.38,		724.59,		602.33
99.97,		723.64,		727.09
225.02,		472.66,		477.87
221.52,		471.9,		602.74
218.27,		470.18,		727.45
228.52,		597.7,		479.62
224.78,		596.84,		603.95
221.76,		595.03,		729.56
232.14,		722.45,		480.11
228.16,		721.29,		605.48
224.7,		719.82,		730.41
349.8,		469.1,		481.76
346.26,		468.04,		605.76
342.7,		466.47,		731.27
352.79,		594.24,		482.87
349.93,		593.06,		607.42
345.91,		591.56,		732.42
356.38,		718.86,		484.45
353.6,		717.49,		608.56
349.63,		716.81,		734.32
100.02,		475.19,		599.37
100.43,		478.88,		724.71
100.6,		482.66,		849.76
97.7,		600.23,		596.51
97.72,		604.44,		720.95
97.65,		607.32,		845.57
94.67,		725.58,		592.21
94.77,		728.78,		717.25
95.23,		732.23,		842.59
224.85,		478.34,		598.74
224.86,		481.39,		724.36
225.17,		485.2,		848.39
221.74,		603.52,		596.07
222.38,		606.84,		720.95
222.34,		610.35,		845.54
219.9,		728.07,		591.95
220.27,		731.86,		717.45
220.62,		734.76,		841.71
349.88,		480.95,		598.71
349.73,		484.19,		723.41
349.82,		487.76,		848.42
347.56,		605.38,		594.81
347.59,		609.21,		720.43
347.65,		612.29,		845.26
344.65,		731.13,		591.64
345.09,		733.8,		716.83
345.27,		737.39,		841.33
99.09,		599.78,		99.45
96.81,		601.97,		223.97
95.07,		603.6,		349.11
98.33,		724.79,		97.36
96.25,		726.86,		222.19
93.98,		728.42,		346.58
97.36,		849.69,		94.73
95.51,		851.92,		219.59
93.71,		854.36,		344.2
223.88,		600.43,		100.84
221.93,		602.55,		226.12
219.94,		605.17,		350.91
223.14,		725.41,		98.56
221.26,		727.54,		223.73
219.47,		730.06,		348.83
222.19,		850.34,		96.42
220.53,		852.72,		221.93
218.98,		854.82,		346.41
348.75,		601.16,		102.63
346.94,		603.31,		227.9
344.74,		605.82,		353.06
348.35,		726.24,		100.82
346.38,		728.57,		225.85
344.54,		730.97,		350.1
347.13,		851.29,		98.13
345.66,		853.23,		223.11
343.62,		855.43,		348.67
100.43,		600.36,		225.89
102.33,		601.04,		350.45
103.86,		602.26,		475.18
101.78,		726.0,		224.72
103.31,		726.15,		349.55
104.87,		727.01,		474.95
102.73,		850.72,		224.19
104.72,		851.45,		349.56
105.3,		852.08,		474.49
225.38,		600.1,		224.38
227.25,		600.66,		348.78
227.97,		601.09,		473.83
226.81,		724.84,		223.81
228.42,		725.4,		348.8
229.6,		726.52,		473.87
228.28,		849.66,		222.63
229.06,		849.96,		347.57
230.9,		851.04,		472.81
351.21,		598.47,		222.91
352.49,		599.78,		347.48
353.82,		599.75,		473.23
351.25,		723.57,		222.48
352.73,		724.53,		346.89
354.8,		724.65,		472.06
353.05,		848.47,		221.43
354.15,		849.73,		346.58
355.89,		850.2,		471.47
98.05,		601.09,		351.04
97.19,		603.69,		475.54
95.86,		605.55,		600.46
97.36,		726.23,		349.16
96.28,		728.45,		473.55
94.74,		730.3,		598.77
97.05,		850.79,		346.58
96.12,		853.8,		471.17
95.17,		855.11,		596.39
223.12,		601.75,		352.27
222.25,		603.65,		476.51
220.32,		606.29,		601.92
222.52,		726.57,		349.54
221.5,		729.25,		474.73
220.07,		730.77,		599.95
222.54,		851.69,		347.62
221.33,		853.82,		472.67
219.9,		856.04,		596.83
347.88,		602.5,		353.43
347.09,		604.68,		478.77
346.03,		606.12,		603.52
347.47,		727.07,		351.21
346.89,		729.56,		476.43
345.23,		731.82,		600.98
347.67,		852.09,		348.88
345.93,		854.07,		474.08
345.26,		856.3,		598.39
101.64,		600.3,		474.62
99.52,		604.04,		599.45
96.09,		607.35,		724.79
99.12,		725.65,		471.3
96.6,		729.15,		596.22
94.27,		732.15,		721.24
96.11,		850.09,		467.34
93.79,		854.18,		592.29
91.31,		857.23,		717.33
226.79,		603.54,		476.88
223.95,		606.65,		601.52
221.29,		609.82,		726.52
223.66,		727.89,		473.73
221.96,		731.91,		598.73
218.91,		734.5,		723.22
221.1,		853.11,		470.38
218.56,		856.54,		595.24
216.12,		860.3,		719.92
351.8,		606.19,		479.54
348.75,		609.01,		604.42
346.91,		612.36,		729.73
348.93,		730.38,		475.64
346.32,		733.76,		600.82
343.79,		737.97,		726.1
345.93,		856.09,		472.48
343.35,		859.65,		597.51
341.11,		862.26,		722.77
99.57,		600.55,		598.59
100.71,		599.41,		723.74
103.15,		597.76,		849.22
99.1,		725.74,		600.51
101.58,		724.25,		725.4
103.14,		723.02,		850.04
99.73,		850.51,		601.94
101.24,		849.05,		726.79
103.27,		847.74,		851.58
224.24,		599.91,		597.38
226.37,		599.0,		722.37
228.38,		597.21,		846.99
224.42,		725.17,		598.08
226.5,		724.39,		723.64
228.25,		722.76,		848.55
224.93,		850.03,		599.88
226.66,		848.6,		724.62
228.66,		847.46,		849.83
349.32,		600.19,		595.33
351.19,		598.34,		720.12
352.82,		597.21,		845.36
349.78,		725.39,		596.66
351.36,		724.02,		722.0
353.36,		722.34,		846.42
349.18,		849.73,		598.33
351.34,		849.04,		722.74
353.06,		847.35,		847.77
224.62,		98.76,		100.83
228.38,		101.66,		225.24
232.19,		105.42,		349.85
224.25,		223.49,		97.22
228.0,		226.62,		221.96
231.37,		230.06,		347.27
223.28,		348.39,		93.62
226.95,		351.84,		218.78
230.9,		355.18,		343.17
349.78,		98.67,		96.66
353.56,		102.19,		221.54
357.31,		105.9,		346.69
349.44,		223.89,		93.51
353.24,		227.07,		218.53
356.87,		230.95,		343.83
348.11,		349.05,		90.24
351.99,		352.19,		215.28
355.7,		355.12,		339.63
475.03,		99.78,		93.04
478.53,		102.93,		217.5
481.75,		106.52,		343.3
474.16,		224.86,		89.75
478.12,		228.24,		214.58
481.16,		230.67,		339.36
473.32,		349.21,		86.05
477.31,		352.56,		211.46
480.26,		356.15,		336.09
226.49,		99.11,		224.51
226.45,		100.49,		349.81
226.76,		101.17,		474.83
224.65,		223.96,		223.55
225.3,		225.31,		347.91
225.18,		226.48,		472.91
222.7,		348.33,		222.2
223.28,		350.24,		346.93
223.53,		350.99,		472.05
351.39,		100.27,		224.07
352.05,		101.35,		348.94
352.19,		103.02,		474.06
349.45,		225.3,		223.21
350.05,		226.53,		347.84
350.56,		227.79,		472.72
347.97,		350.03,		221.48
348.23,		351.26,		346.37
348.82,		352.96,		471.45
475.89,		101.61,		223.53
476.71,		103.25,		348.33
476.7,		104.65,		474.03
474.72,		227.26,		222.61
475.39,		227.91,		347.2
475.64,		229.33,		472.21
473.32,		351.6,		220.7
473.21,		353.07,		345.82
473.59,		354.22,		470.6
225.39,		101.03,		350.47
222.67,		98.87,		475.89
219.35,		96.23,		600.59
227.16,		226.34,		353.22
223.75,		223.8,		478.64
220.28,		220.86,		603.46
228.68,		350.71,		355.42
225.07,		348.58,		480.35
221.68,		346.15,		605.43
350.41,		99.88,		353.48
347.6,		97.61,		478.47
344.71,		94.8,		603.35
351.78,		224.57,		356.01
348.63,		222.05,		481.43
345.63,		219.61,		606.43
353.27,		349.27,		359.12
349.76,		347.33,		483.56
347.0,		344.34,		609.04
475.71,		98.16,		356.48
471.95,		95.68,		481.5
469.48,		92.92,		606.98
476.63,		223.38,		359.63
473.75,		220.35,		484.65
470.5,		218.19,		609.66
478.67,		347.66,		361.57
474.56,		345.62,		486.48
471.61,		342.93,		611.92
224.18,		99.83,		473.67
222.32,		98.39,		598.17
220.47,		97.25,		723.38
220.39,		225.51,		475.07
218.61,		223.25,		599.98
217.14,		221.83,		724.45
217.56,		350.07,		476.7
215.54,		348.24,		601.13
214.0,		346.79,		726.23
348.97,		103.7,		475.18
347.32,		102.32,		599.85
345.31,		100.45,		724.91
345.37,		228.19,		476.8
343.44,		227.42,		601.47
342.44,		225.15,		726.3
342.49,		353.36,		478.03
340.54,		351.83,		603.11
338.57,		350.72,		727.7
473.85,		107.29,		476.99
471.88,		105.16,		602.06
469.98,		103.72,		726.24
470.86,		231.81,		478.31
468.18,		230.65,		602.94
467.4,		228.76,		728.25
467.49,		356.56,		479.82
465.34,		355.43,		604.62
463.99,		354.11,		730.2
225.82,		101.59,		600.26
229.32,		98.38,		725.03
232.31,		95.8,		850.01
225.72,		226.46,		603.71
228.72,		223.59,		728.46
231.54,		220.23,		853.37
224.45,		351.14,		606.0
227.74,		348.76,		731.1
230.26,		345.59,		856.09
350.8,		102.69,		597.52
354.38,		99.28,		722.24
357.32,		96.45,		847.39
350.48,		227.49,		600.25
353.51,		224.32,		725.13
356.07,		221.14,		850.45
349.18,		352.72,		603.2
352.45,		349.06,		728.53
355.85,		346.38,		853.76
476.3,		103.3,		594.48
479.51,		99.97,		719.25
481.64,		97.5,		843.61
475.61,		227.83,		597.59
478.31,		225.25,		722.27
480.9,		221.88,		847.53
474.82,		353.27,		600.75
477.9,		350.43,		725.45
480.67,		347.62,		850.6
225.14,		226.83,		100.84
226.3,		229.05,		226.3
226.94,		230.33,		350.44
226.89,		351.32,		99.45
228.74,		353.26,		224.1
229.66,		354.91,		348.73
228.84,		477.06,		97.35
230.41,		478.62,		222.06
230.96,		479.87,		347.72
349.75,		224.75,		100.23
351.48,		226.38,		225.07
352.67,		227.79,		349.53
352.02,		349.42,		98.4
353.39,		351.38,		223.09
354.16,		353.08,		347.83
354.44,		474.2,		96.73
355.73,		476.43,		221.22
356.63,		478.48,		346.59
475.25,		222.25,		98.99
475.78,		224.62,		224.13
477.43,		225.86,		348.57
477.04,		347.47,		97.48
477.92,		349.71,		222.52
479.4,		351.2,		346.62
479.46,		472.08,		95.33
479.96,		474.2,		220.37
481.65,		476.08,		344.82
226.9,		223.24,		225.82
229.93,		221.56,		350.6
232.03,		220.08,		475.52
230.51,		348.81,		227.14
233.23,		347.18,		352.4
235.68,		345.73,		477.09
233.97,		472.85,		228.72
237.01,		472.1,		353.54
239.67,		470.14,		479.01
351.59,		220.28,		223.4
354.13,		218.46,		347.68
356.87,		216.74,		472.91
355.65,		344.54,		224.33
357.77,		343.58,		349.72
360.65,		341.31,		474.17
359.56,		470.09,		226.04
361.28,		468.09,		350.46
364.17,		466.42,		475.8
477.19,		216.72,		220.02
479.02,		214.36,		345.85
482.35,		213.16,		470.36
480.3,		340.88,		221.76
482.87,		339.99,		346.8
485.89,		338.19,		471.61
483.65,		466.11,		222.83
486.69,		465.01,		348.12
489.4,		462.92,		473.29
223.81,		223.81,		348.76
224.41,		223.79,		473.07
226.3,		223.21,		598.22
219.69,		349.47,		349.46
220.95,		348.16,		474.3
222.63,		348.06,		598.79
215.93,		474.6,		349.42
217.39,		473.23,		475.26
218.79,		472.93,		599.45
348.39,		227.6,		346.77
349.72,		227.46,		471.95
350.65,		226.33,		596.55
344.9,		352.28,		347.43
346.37,		352.11,		472.91
346.82,		351.11,		598.32
340.84,		477.92,		348.42
342.39,		476.69,		473.29
343.26,		476.67,		598.99
473.12,		231.27,		346.31
474.19,		230.39,		471.23
475.84,		229.55,		595.75
469.43,		356.49,		347.09
470.6,		355.41,		471.94
472.48,		354.45,		596.55
466.11,		481.16,		347.39
467.11,		480.41,		472.07
468.74,		479.46,		597.16
226.0,		225.89,		473.12
221.78,		230.16,		597.79
218.72,		233.29,		722.88
226.6,		351.14,		469.58
222.95,		354.25,		595.07
220.36,		358.13,		719.34
228.16,		476.77,		466.41
224.8,		479.77,		591.78
220.87,		482.72,		716.33
350.75,		225.41,		476.28
347.39,		228.9,		601.39
343.53,		231.8,		726.59
351.35,		350.64,		472.72
348.67,		353.82,		597.91
344.76,		357.36,		723.02
353.16,		475.33,		469.78
349.53,		478.78,		594.51
346.51,		482.24,		719.69
475.52,		224.46,		480.3
472.1,		227.14,		604.58
468.5,		231.09,		729.84
476.35,		349.5,		476.12
473.31,		352.31,		601.77
469.48,		356.22,		726.43
477.6,		474.07,		472.92
474.65,		477.62,		597.89
471.06,		480.84,		723.12
226.78,		225.09,		601.88
228.94,		224.37,		726.8
231.52,		223.51,		852.12
225.76,		349.9,		602.26
228.01,		349.21,		728.09
230.09,		347.93,		852.95
224.24,		475.15,		603.56
226.69,		474.05,		728.14
229.99,		473.53,		853.62
351.26,		225.48,		599.29
353.29,		225.0,		724.77
356.55,		224.17,		849.0
349.95,		350.58,		599.97
353.16,		349.75,		724.97
355.7,		349.73,		849.85
349.64,		476.35,		601.1
351.87,		475.41,		725.62
354.67,		474.05,		850.78
476.5,		226.97,		596.25
478.83,		225.74,		722.26
481.39,		225.17,		847.22
475.68,		351.84,		597.28
477.86,		351.26,		722.22
480.04,		350.06,		847.16
474.12,		476.82,		598.67
476.79,		476.22,		723.58
479.18,		474.89,		847.78
225.95,		351.91,		100.43
226.72,		354.38,		225.89
228.43,		358.02,		350.4
222.73,		476.4,		97.75
224.02,		479.91,		222.74
224.77,		483.24,		347.06
218.91,		601.47,		94.97
219.83,		604.67,		219.08
220.59,		608.07,		344.57
351.47,		355.03,		99.7
352.46,		358.25,		224.65
353.59,		361.77,		349.81
347.25,		479.87,		96.29
348.16,		483.48,		221.76
349.13,		486.21,		345.91
343.43,		604.74,		92.87
344.75,		608.04,		218.02
345.49,		611.48,		342.85
475.56,		359.38,		98.04
477.43,		361.79,		222.96
477.78,		365.32,		348.16
472.04,		483.62,		95.14
473.63,		487.12,		220.56
474.34,		490.47,		344.9
468.46,		609.04,		92.17
469.87,		611.79,		217.31
470.85,		614.99,		341.62
223.93,		347.82,		224.6
225.99,		345.61,		350.23
228.41,		342.7,		475.25
227.67,		472.77,		227.4
229.18,		470.67,		351.99
231.64,		467.98,		477.4
231.37,		597.77,		229.95
233.48,		594.89,		354.55
235.54,		592.78,		480.09
348.93,		344.94,		222.78
350.65,		342.33,		348.3
353.33,		339.75,		473.15
352.72,		469.59,		225.69
354.07,		466.89,		350.59
356.48,		464.77,		475.36
355.66,		594.18,		227.77
357.61,		592.11,		352.25
359.7,		589.33,		477.77
473.73,		340.95,		220.71
476.17,		338.72,		345.28
478.28,		335.63,		470.39
477.86,		466.26,		223.05
479.18,		463.43,		347.9
481.05,		461.22,		473.61
481.34,		590.77,		225.61
482.75,		587.99,		351.05
485.06,		585.48,		475.7
225.91,		350.02,		352.21
227.28,		347.35,		476.5
229.1,		344.06,		602.05
228.82,		475.43,		354.78
230.96,		472.46,		479.52
233.31,		469.07,		604.48
232.88,		600.19,		357.72
234.62,		597.19,		482.33
236.32,		594.56,		607.78
350.58,		346.4,		349.41
352.11,		344.1,		474.45
354.28,		340.54,		599.95
354.63,		471.44,		352.7
355.93,		468.27,		478.22
358.22,		465.52,		602.89
357.71,		596.95,		355.15
360.02,		593.75,		480.55
361.59,		590.88,		605.67
475.06,		342.96,		348.1
477.64,		340.26,		473.4
478.84,		336.98,		598.02
479.11,		467.61,		350.77
480.82,		465.19,		475.93
482.91,		462.12,		600.86
483.26,		592.94,		354.28
484.99,		589.66,		478.87
486.57,		587.36,		603.74
225.12,		349.15,		475.13
221.37,		346.41,		600.2
218.42,		343.42,		724.94
221.79,		473.93,		477.65
218.34,		470.88,		602.51
214.63,		468.55,		727.85
218.32,		598.43,		480.31
215.0,		596.15,		605.73
211.68,		593.67,		730.35
349.71,		352.96,		478.69
346.74,		349.8,		603.98
342.9,		347.21,		728.16
346.97,		477.22,		481.32
342.88,		474.46,		605.99
339.79,		472.49,		731.38
343.16,		601.97,		483.93
339.33,		599.77,		609.13
336.54,		596.68,		733.87
474.72,		356.26,		481.93
472.02,		353.63,		606.73
467.81,		350.43,		732.48
471.23,		480.56,		485.08
468.28,		477.89,		609.53
464.27,		475.54,		734.75
467.92,		605.59,		487.32
464.91,		602.86,		612.4
461.4,		601.09,		737.22
227.22,		351.0,		598.7
227.78,		350.22,		723.54
229.09,		350.54,		848.64
224.82,		475.43,		598.78
225.56,		475.03,		723.76
226.54,		475.3,		848.78
221.99,		600.92,		598.55
223.58,		600.23,		723.31
224.2,		600.09,		848.58
352.09,		352.83,		597.63
353.31,		352.39,		722.99
353.38,		352.41,		847.27
348.98,		478.38,		597.5
350.39,		477.55,		722.91
351.61,		477.91,		847.15
346.76,		603.18,		597.71
347.61,		602.61,		722.58
349.12,		602.78,		848.22
477.24,		355.97,		596.86
477.97,		355.44,		721.41
478.83,		354.88,		846.26
474.4,		480.48,		596.42
475.47,		480.64,		721.94
476.37,		480.18,		846.77
471.71,		604.9,		597.12
472.63,		604.88,		721.51
474.54,		605.56,		847.05
224.93,		477.22,		99.03
221.77,		475.92,		223.71
219.75,		474.27,		349.38
224.71,		602.22,		100.63
222.49,		600.73,		225.51
220.44,		599.58,		350.74
225.29,		727.26,		102.02
222.74,		725.71,		226.67
220.0,		724.71,		352.13
350.09,		476.83,		102.11
347.06,		474.81,		227.06
344.25,		473.74,		352.01
350.19,		601.11,		102.7
347.21,		599.86,		228.33
344.85,		598.58,		352.54
350.27,		726.59,		104.62
347.84,		725.26,		228.91
345.58,		723.41,		354.37
474.78,		476.53,		104.05
472.23,		475.12,		229.01
469.39,		473.41,		353.97
475.24,		600.85,		105.92
472.74,		599.77,		230.79
470.31,		598.07,		355.28
475.67,		725.99,		107.09
472.64,		724.87,		232.21
470.71,		723.77,		356.8
225.77,		475.63,		225.01
223.32,		479.81,		349.29
220.26,		482.31,		474.34
224.71,		600.86,		221.24
221.85,		603.86,		346.01
218.01,		607.63,		471.12
223.17,		725.71,		218.16
220.31,		729.64,		342.73
217.0,		732.41,		467.86
350.83,		477.88,		227.68
347.91,		480.67,		352.4
345.11,		484.3,		477.59
349.76,		602.51,		224.79
346.36,		606.01,		349.41
343.14,		608.97,		474.57
348.23,		727.7,		220.82
344.98,		731.13,		345.51
342.3,		734.03,		471.08
476.28,		479.56,		230.87
473.06,		482.84,		356.29
469.39,		486.2,		480.61
474.15,		604.43,		227.76
471.93,		607.8,		352.46
468.53,		610.78,		477.68
472.68,		729.3,		224.16
469.79,		731.94,		348.78
466.68,		735.73,		474.17
225.87,		474.54,		350.59
224.62,		477.4,		475.85
222.59,		480.57,		600.65
224.76,		598.5,		347.81
222.98,		601.93,		472.48
220.95,		604.68,		597.64
223.34,		723.76,		344.53
221.51,		727.12,		469.72
220.51,		730.46,		594.69
351.14,		475.73,		352.41
349.18,		478.6,		476.7
347.44,		481.85,		601.95
349.69,		600.82,		349.28
347.82,		602.98,		473.76
346.87,		606.2,		599.14
348.88,		725.2,		345.65
346.64,		727.89,		470.98
345.29,		730.86,		596.18
475.59,		476.41,		353.96
474.67,		479.61,		478.39
472.19,		482.72,		603.53
474.85,		601.96,		350.78
472.8,		604.62,		475.36
471.27,		607.67,		600.82
473.84,		726.01,		347.9
472.02,		729.24,		472.46
469.81,		732.6,		598.05
224.47,		473.37,		475.1
225.71,		472.69,		599.73
228.41,		471.27,		724.53
223.88,		598.74,		475.79
225.58,		597.82,		601.04
227.2,		596.5,		725.46
223.25,		723.14,		476.54
225.32,		722.63,		601.37
226.86,		721.32,		726.25
349.25,		473.25,		472.63
351.14,		472.4,		598.08
353.34,		471.32,		723.05
348.82,		599.05,		473.47
350.45,		597.35,		599.06
352.75,		596.91,		723.64
348.81,		723.89,		475.17
350.84,		723.04,		599.66
352.16,		721.42,		724.67
473.91,		473.58,		471.05
476.22,		472.52,		595.85
477.44,		471.62,		721.48
474.35,		599.0,		471.74
475.92,		598.17,		597.4
477.24,		596.96,		721.91
473.31,		723.34,		472.87
474.96,		722.48,		597.73
477.28,		721.84,		722.98
225.22,		475.87,		600.69
224.42,		475.19,		725.79
223.32,		475.02,		849.98
222.18,		600.53,		600.61
220.81,		600.27,		726.29
219.67,		600.04,		851.38
219.18,		725.65,		601.44
218.35,		724.81,		726.92
216.9,		724.94,		851.62
350.24,		478.11,		601.14
349.13,		477.7,		726.61
348.2,		477.78,		851.54
346.59,		603.61,		602.2
345.89,		603.22,		726.85
344.71,		602.52,		851.95
343.67,		728.14,		602.89
343.05,		727.42,		727.74
342.59,		727.01,		852.67
474.24,		481.42,		602.06
473.34,		480.47,		727.23
472.61,		480.69,		852.22
471.55,		606.4,		603.02
471.09,		605.29,		728.36
469.91,		605.2,		852.68
469.12,		730.79,		603.8
468.46,		730.29,		728.52
467.02,		730.71,		853.02
226.42,		600.83,		101.05
227.26,		603.5,		226.63
227.2,		606.57,		351.38
226.56,		725.59,		98.6
227.19,		728.91,		223.71
227.96,		731.3,		348.19
227.14,		851.12,		95.8
226.66,		853.77,		220.38
227.49,		856.88,		345.21
351.94,		601.37,		100.52
351.72,		603.49,		225.83
352.27,		606.45,		350.3
351.65,		725.91,		97.61
352.18,		728.99,		223.03
352.73,		731.16,		347.54
351.8,		851.04,		95.34
352.01,		853.85,		220.75
352.5,		856.58,		344.78
476.34,		600.76,		100.36
476.85,		604.14,		225.05
477.57,		606.14,		350.16
476.43,		725.88,		97.38
477.09,		728.68,		221.91
477.58,		731.08,		347.78
477.06,		850.6,		94.52
477.46,		853.65,		219.55
477.48,		856.36,		344.59
224.12,		600.15,		224.01
224.5,		602.5,		349.38
224.55,		604.19,		474.54
225.85,		725.7,		222.42
225.39,		727.5,		347.17
226.19,		728.97,		472.86
226.58,		850.64,		220.8
226.95,		852.47,		345.59
226.57,		853.61,		470.87
349.07,		599.38,		223.68
349.79,		600.79,		349.33
349.4,		602.82,		474.39
350.78,		724.43,		222.58
350.97,		726.47,		347.32
350.88,		727.48,		472.33
351.54,		849.56,		220.59
351.47,		850.67,		345.44
352.36,		852.81,		470.3
474.19,		597.96,		224.17
474.14,		600.0,		349.54
474.39,		602.2,		474.1
475.5,		723.29,		222.55
475.64,		724.89,		347.55
476.19,		726.99,		472.63
476.97,		848.46,		220.24
477.24,		850.43,		345.27
476.76,		851.61,		470.44
223.71,		598.17,		351.52
222.96,		596.67,		477.3
222.71,		595.52,		602.02
224.84,		723.78,		352.89
224.51,		721.62,		478.38
224.49,		720.63,		603.47
226.4,		847.77,		354.67
226.24,		847.46,		479.5
226.55,		845.52,		604.28
348.83,		596.48,		352.51
348.14,		595.81,		476.65
348.19,		594.37,		602.38
349.49,		721.48,		353.71
349.29,		720.84,		478.79
349.86,		719.27,		603.19
351.51,		846.39,		354.37
351.24,		845.53,		479.86
351.55,		844.14,		604.53
473.8,		595.37,		352.39
473.27,		594.12,		477.4
473.21,		592.49,		602.2
474.58,		719.96,		353.83
474.69,		718.57,		478.77
474.68,		717.19,		603.63
476.31,		845.08,		354.72
476.1,		844.29,		480.03
476.16,		842.86,		604.73
223.55,		602.18,		474.53
223.26,		602.64,		599.18
221.91,		603.48,		724.44
220.64,		726.92,		473.57
220.44,		727.76,		598.29
219.67,		728.65,		723.66
218.07,		852.08,		472.19
217.85,		852.69,		597.58
217.18,		853.47,		722.77
348.18,		604.67,		474.92
347.73,		605.09,		600.02
347.79,		606.36,		724.61
346.11,		729.56,		473.78
345.62,		730.59,		598.99
344.98,		731.75,		723.94
343.29,		854.19,		473.33
343.41,		854.94,		597.49
342.67,		856.17,		722.89
473.57,		606.43,		475.72
472.57,		607.81,		600.67
472.12,		609.04,		725.79
470.47,		732.16,		474.09
470.42,		732.83,		598.95
469.41,		733.71,		723.86
468.0,		857.02,		473.35
467.48,		857.99,		598.5
466.85,		859.2,		723.37
226.34,		599.56,		598.93
226.3,		597.89,		723.86
226.61,		595.75,		848.92
226.64,		724.94,		600.3
227.24,		723.06,		725.56
227.8,		721.02,		850.7
227.65,		849.7,		602.78
227.86,		848.01,		727.51
228.08,		845.92,		852.54
350.6,		598.71,		597.94
351.53,		596.69,		723.28
351.84,		595.2,		848.22
351.75,		724.28,		600.27
352.66,		722.07,		725.4
352.48,		720.43,		849.73
352.47,		848.77,		602.4
352.5,		846.9,		726.99
353.29,		845.11,		852.07
475.82,		597.77,		597.88
476.4,		595.84,		722.6
476.68,		594.38,		848.02
476.6,		723.18,		599.66
476.59,		721.24,		725.1
477.96,		719.64,		849.68
477.75,		848.29,		601.52
478.41,		846.25,		726.72
478.27,		843.78,		851.9
350.57,		101.39,		98.78
347.92,		98.97,		223.61
345.77,		96.42,		348.53
348.83,		226.82,		101.44
346.72,		224.6,		225.97
344.08,		221.11,		351.17
347.57,		351.31,		103.96
345.14,		348.9,		228.82
342.91,		346.49,		353.8
475.25,		103.47,		101.22
472.93,		100.99,		226.06
470.66,		98.24,		351.36
473.64,		228.81,		103.46
471.22,		225.98,		228.05
469.08,		223.04,		353.9
472.12,		353.16,		106.49
469.62,		350.43,		230.82
467.34,		347.63,		356.05
600.42,		105.27,		102.94
597.82,		102.33,		228.03
595.48,		99.23,		353.2
599.09,		230.06,		106.32
596.96,		227.19,		231.07
594.3,		224.46,		356.04
597.61,		354.69,		108.05
595.32,		352.12,		233.91
592.81,		349.05,		358.81
349.75,		99.99,		225.43
346.94,		99.31,		350.45
344.52,		98.1,		475.36
353.0,		224.37,		226.05
350.3,		223.82,		351.21
347.37,		222.86,		475.64
355.81,		349.92,		227.04
353.42,		348.43,		351.46
350.35,		347.85,		477.04
475.26,		96.91,		227.79
472.07,		95.93,		352.83
469.19,		94.78,		477.97
478.18,		221.34,		229.41
474.94,		220.7,		353.8
472.52,		220.13,		479.09
481.02,		346.2,		229.83
478.48,		346.04,		355.1
475.68,		345.34,		479.77
599.61,		93.63,		230.67
597.04,		92.69,		356.38
593.77,		92.0,		480.47
602.76,		218.49,		232.27
599.49,		217.72,		356.78
597.43,		217.09,		481.31
605.43,		343.67,		232.59
602.87,		342.55,		357.23
599.83,		342.27,		482.74
348.45,		98.07,		351.79
351.12,		94.56,		476.57
354.42,		91.22,		601.28
351.96,		223.5,		354.87
354.11,		219.42,		480.21
357.52,		216.08,		605.37
355.24,		348.13,		358.31
358.34,		344.18,		483.87
360.75,		340.52,		608.22
473.32,		94.98,		348.83
475.92,		91.17,		473.8
478.81,		87.9,		598.78
476.99,		219.82,		352.09
479.15,		216.17,		477.23
482.04,		212.53,		601.8
480.78,		344.69,		355.68
482.97,		340.94,		481.03
485.63,		337.99,		605.73
598.31,		91.63,		346.63
601.22,		88.18,		471.48
604.22,		84.93,		596.15
602.31,		217.0,		349.93
604.66,		212.57,		474.92
606.88,		209.13,		599.76
605.54,		341.4,		353.25
607.71,		337.47,		478.58
610.48,		334.66,		603.04
349.86,		101.71,		475.44
352.01,		99.1,		600.95
354.43,		95.75,		725.83
349.14,		226.53,		478.59
351.41,		224.53,		603.85
353.66,		221.4,		728.85
348.46,		352.12,		481.62
350.81,		348.67,		606.52
353.1,		345.64,		731.18
474.66,		102.27,		473.15
476.87,		99.41,		598.9
478.75,		97.02,		723.3
474.21,		227.4,		476.26
476.8,		224.38,		601.68
478.67,		221.38,		725.87
473.5,		352.91,		479.68
475.7,		349.9,		604.25
477.89,		347.09,		728.73
600.21,		103.3,		471.02
602.14,		100.06,		595.9
603.87,		97.48,		721.55
599.18,		228.45,		474.13
601.53,		225.47,		599.08
604.07,		222.18,		724.04
598.56,		353.15,		477.52
600.7,		349.95,		602.0
602.97,		347.54,		727.31
350.16,		100.9,		601.37
350.22,		102.09,		726.9
350.09,		103.15,		851.65
347.42,		225.44,		600.06
346.81,		227.13,		725.07
346.72,		227.94,		850.81
344.95,		350.7,		599.46
344.15,		351.67,		724.49
343.48,		353.15,		849.5
475.45,		103.6,		601.69
475.47,		105.42,		727.16
474.94,		105.77,		852.03
472.64,		228.28,		600.97
472.36,		229.9,		725.55
472.12,		231.13,		850.55
469.52,		353.44,		599.37
469.69,		354.82,		724.84
468.78,		355.61,		849.78
600.48,		106.72,		602.72
600.42,		107.94,		727.4
599.69,		109.23,		852.7
597.33,		231.79,		600.83
597.14,		232.28,		726.6
597.13,		234.12,		851.58
594.31,		356.63,		600.02
594.68,		357.78,		724.81
593.34,		358.87,		849.98
351.41,		224.2,		99.12
353.7,		224.57,		223.47
356.7,		225.82,		348.84
348.59,		349.08,		98.25
349.87,		350.15,		223.65
352.86,		350.59,		347.96
343.98,		474.21,		97.54
346.34,		474.36,		222.79
349.34,		475.73,		348.09
476.36,		227.94,		96.76
479.31,		228.55,		221.35
481.15,		229.44,		346.82
472.51,		352.93,		95.76
475.36,		353.08,		220.94
477.23,		354.01,		346.23
469.06,		478.19,		95.56
471.48,		478.22,		220.21
474.17,		478.8,		345.66
601.51,		231.48,		94.28
604.26,		232.08,		219.58
606.36,		232.71,		344.68
597.86,		355.92,		93.46
600.49,		356.92,		218.75
602.27,		357.87,		343.26
594.75,		481.46,		93.09
596.57,		481.71,		217.98
599.32,		482.54,		343.01
351.01,		224.28,		225.96
347.04,		220.59,		350.57
344.77,		217.12,		475.47
348.08,		348.53,		228.81
345.1,		345.2,		353.42
342.13,		342.05,		478.78
345.28,		473.59,		232.19
343.05,		470.35,		356.62
339.43,		467.15,		481.55
475.47,		226.13,		228.5
471.96,		223.08,		353.65
469.63,		219.75,		478.63
473.43,		351.52,		232.44
469.56,		347.8,		357.27
466.72,		344.8,		482.21
470.33,		476.32,		234.94
467.38,		472.84,		360.44
464.3,		469.45,		484.67
600.27,		228.96,		231.97
597.63,		225.24,		357.4
593.93,		222.59,		481.69
597.97,		353.78,		235.32
594.75,		350.91,		360.05
591.99,		347.38,		484.98
595.44,		478.85,		238.81
592.6,		474.99,		362.95
589.25,		472.21,		488.23
351.41,		223.74,		350.7
351.0,		220.76,		475.93
349.86,		218.02,		600.23
351.73,		348.49,		352.53
350.57,		345.8,		478.08
350.45,		343.3,		602.52
351.82,		473.14,		355.15
351.32,		470.5,		480.31
350.11,		468.64,		605.1
476.41,		223.26,		350.82
475.05,		220.5,		476.38
475.03,		218.08,		601.56
476.48,		347.89,		353.73
476.35,		345.66,		479.06
475.17,		342.95,		603.55
477.09,		473.27,		356.58
475.91,		470.3,		481.54
475.47,		467.9,		605.83
601.23,		222.29,		352.16
600.83,		220.31,		477.02
600.11,		217.79,		601.81
601.51,		347.84,		354.46
601.27,		345.0,		479.12
600.24,		342.57,		604.07
602.12,		472.14,		356.8
601.6,		469.82,		482.25
600.31,		467.22,		606.62
351.9,		225.28,		474.94
350.44,		221.66,		600.05
349.29,		218.7,		724.45
352.34,		350.25,		478.25
350.67,		346.45,		602.95
350.12,		343.45,		727.75
352.63,		474.97,		481.29
351.26,		471.42,		606.04
350.05,		468.93,		730.71
477.31,		225.19,		475.38
475.28,		221.44,		601.07
474.73,		218.77,		725.72
477.08,		349.72,		478.69
476.28,		346.23,		604.39
475.0,		343.14,		728.9
477.0,		474.82,		481.99
476.39,		472.0,		607.3
475.53,		468.56,		732.62
602.37,		224.92,		476.53
600.39,		221.72,		602.07
599.58,		218.58,		726.63
602.07,		349.41,		479.98
601.04,		346.76,		605.32
600.28,		342.66,		729.82
602.75,		474.77,		483.53
601.06,		471.19,		608.24
600.19,		468.55,		733.76
350.57,		227.42,		598.66
347.34,		225.46,		723.96
343.48,		224.51,		848.33
347.38,		351.98,		600.45
344.13,		350.84,		725.21
340.61,		349.81,		850.07
344.12,		477.06,		601.82
340.62,		475.13,		726.75
337.63,		474.52,		851.64
474.64,		229.95,		602.17
471.92,		228.46,		726.94
468.37,		227.19,		851.85
472.41,		355.16,		603.95
469.36,		353.78,		728.58
465.8,		352.18,		853.73
469.71,		479.93,		604.82
466.11,		478.65,		729.63
462.6,		477.09,		854.5
599.9,		232.93,		606.19
596.31,		231.32,		730.83
593.6,		229.91,		855.78
597.2,		357.93,		606.65
593.69,		356.57,		731.77
590.76,		354.86,		857.15
594.32,		482.31,		608.26
591.03,		481.36,		733.25
587.36,		479.66,		858.45
350.54,		349.44,		98.56
348.45,		351.34,		223.87
345.4,		352.24,		348.8
353.14,		474.84,		97.39
350.33,		476.33,		222.86
346.89,		477.26,		347.47
354.79,		600.28,		97.21
352.28,		600.79,		221.45
349.02,		601.6,		346.13
476.2,		347.95,		101.53
472.55,		348.35,		226.46
470.36,		350.26,		351.53
478.37,		472.59,		101.09
474.66,		473.46,		225.38
472.01,		474.51,		350.09
479.79,		598.07,		100.07
477.55,		598.6,		224.21
474.4,		600.28,		349.25
601.25,		345.29,		104.72
598.41,		346.95,		229.48
594.94,		347.31,		354.24
602.82,		471.1,		103.75
599.78,		471.99,		228.57
597.09,		472.34,		353.83
605.19,		596.08,		102.64
602.49,		596.67,		227.69
599.3,		597.71,		352.48
349.24,		348.64,		223.93
347.94,		349.21,		348.93
347.0,		350.5,		473.46
348.1,		474.11,		223.32
347.1,		474.87,		347.57
345.52,		475.36,		472.86
347.27,		598.64,		222.67
345.39,		599.68,		346.98
343.83,		600.21,		471.94
474.58,		349.74,		225.31
473.43,		351.09,		350.5
471.21,		351.31,		475.32
473.25,		475.49,		224.34
472.21,		475.52,		349.05
470.42,		475.82,		474.08
471.97,		599.69,		223.67
470.62,		600.96,		348.87
469.05,		600.91,		473.36
599.12,		351.58,		226.6
598.0,		352.4,		351.32
596.42,		352.58,		476.33
598.09,		475.87,		225.84
596.35,		476.62,		351.01
595.3,		477.67,		475.77
597.34,		601.55,		225.38
595.15,		601.63,		350.4
594.36,		602.94,		475.68
351.21,		351.25,		350.21
354.41,		353.13,		475.51
357.52,		354.62,		600.32
348.54,		476.13,		348.91
351.96,		477.9,		473.37
354.14,		480.03,		598.72
345.78,		601.24,		347.42
348.78,		602.56,		471.93
351.53,		604.5,		596.75
476.11,		353.54,		347.97
479.69,		355.74,		472.41
482.66,		357.16,		597.34
473.07,		479.3,		346.29
476.34,		481.01,		470.88
479.3,		482.29,		595.39
470.17,		603.38,		344.15
472.93,		605.52,		469.14
476.53,		607.25,		593.79
600.95,		357.0,		344.23
604.25,		358.35,		469.94
607.1,		360.3,		593.98
598.44,		481.76,		343.15
601.49,		483.52,		467.4
604.28,		485.09,		592.5
595.52,		606.74,		340.91
597.78,		608.61,		465.56
601.09,		609.92,		590.4
349.27,		351.13,		474.57
348.78,		352.72,		598.83
347.21,		354.38,		724.65
350.82,		475.87,		472.76
349.17,		477.61,		597.19
348.05,		479.45,		722.17
351.77,		601.39,		470.66
350.14,		602.79,		595.92
349.56,		604.38,		720.56
474.33,		350.45,		475.75
473.65,		351.31,		599.84
472.55,		353.75,		725.46
475.88,		474.95,		473.3
474.47,		476.41,		599.18
473.29,		478.05,		723.3
476.26,		600.59,		471.88
475.07,		602.05,		596.89
474.98,		603.65,		721.86
599.52,		349.3,		475.83
598.25,		350.55,		601.37
597.46,		352.04,		726.05
600.72,		474.61,		474.56
599.84,		475.68,		599.33
598.31,		477.35,		724.21
602.0,		599.08,		472.86
600.73,		600.66,		598.38
599.81,		602.29,		722.54
348.27,		348.78,		600.6
350.43,		351.66,		725.36
351.83,		353.65,		850.2
347.67,		474.14,		597.32
349.18,		476.5,		722.54
350.65,		478.87,		847.88
346.95,		598.82,		595.18
348.16,		601.24,		719.59
349.29,		604.09,		844.91
473.56,		349.33,		598.68
474.76,		352.05,		723.71
476.78,		355.06,		848.5
472.75,		474.68,		596.17
474.0,		477.08,		721.12
475.41,		479.78,		845.5
472.02,		600.05,		593.64
473.2,		602.3,		718.6
474.31,		604.55,		843.78
598.77,		350.76,		597.39
600.11,		353.28,		721.81
601.26,		356.09,		847.09
597.97,		475.93,		594.88
599.11,		478.07,		719.73
600.99,		480.9,		844.29
596.15,		600.74,		592.24
597.72,		603.16,		717.39
600.02,		606.06,		841.93
349.62,		473.7,		101.16
348.52,		475.96,		225.5
347.33,		477.71,		351.13
351.99,		599.09,		98.67
350.95,		600.35,		223.44
350.03,		602.72,		348.49
354.38,		723.6,		97.22
353.55,		725.56,		222.29
352.07,		727.47,		346.95
474.47,		471.61,		101.32
473.38,		473.66,		226.51
472.84,		474.66,		352.11
476.43,		596.03,		99.62
475.51,		597.75,		224.83
474.89,		600.19,		349.6
478.8,		720.8,		97.47
478.29,		723.33,		222.89
477.63,		724.81,		348.21
599.04,		468.92,		102.84
598.48,		470.69,		227.51
597.9,		472.34,		352.63
601.76,		593.85,		100.53
600.4,		596.03,		225.71
599.43,		597.93,		350.39
603.9,		719.0,		99.15
603.63,		721.1,		224.1
602.62,		722.4,		349.38
351.31,		474.86,		223.52
352.65,		472.39,		349.12
353.75,		469.71,		474.07
353.67,		599.73,		227.12
354.57,		596.85,		351.92
355.54,		594.8,		476.99
355.28,		725.28,		229.78
356.33,		721.91,		354.69
356.7,		719.79,		479.52
476.17,		473.86,		223.28
477.98,		470.57,		348.05
478.63,		467.64,		473.11
478.38,		598.83,		225.96
479.34,		595.58,		350.72
479.88,		592.26,		475.28
479.91,		723.17,		228.54
480.64,		720.71,		353.8
482.01,		717.46,		478.65
600.92,		471.88,		221.83
602.1,		469.19,		346.6
603.82,		466.12,		472.0
603.28,		596.32,		224.74
604.38,		593.33,		349.5
604.87,		590.66,		475.01
605.04,		721.65,		227.48
605.81,		718.92,		353.06
606.82,		716.07,		477.33
350.32,		476.47,		348.59
349.71,		476.6,		473.62
350.09,		475.62,		598.31
352.76,		602.16,		349.34
352.45,		600.84,		473.75
352.6,		600.06,		599.2
355.63,		726.73,		349.24
355.54,		726.53,		475.14
355.02,		725.86,		600.21
475.21,		474.27,		349.12
475.11,		473.14,		474.04
474.12,		472.92,		598.34
477.49,		598.79,		349.09
477.03,		598.72,		474.12
477.7,		598.21,		599.68
480.7,		723.89,		349.85
479.85,		723.77,		475.2
480.32,		722.97,		600.25
599.81,		471.21,		348.67
599.48,		470.77,		473.4
599.85,		469.77,		598.45
602.14,		596.81,		349.94
602.19,		595.29,		474.71
602.06,		594.72,		599.47
605.55,		721.56,		350.21
604.75,		720.82,		475.55
605.39,		719.44,		600.59
349.75,		476.88,		475.22
351.96,		477.55,		600.39
354.2,		477.25,		725.27
350.91,		602.08,		475.27
353.08,		602.25,		599.32
355.26,		602.45,		724.92
350.55,		727.31,		474.24
353.39,		727.02,		599.48
355.22,		727.45,		724.33
475.36,		476.42,		473.29
476.96,		476.83,		597.98
479.59,		477.38,		723.27
475.4,		601.12,		472.3
477.65,		601.83,		597.11
479.81,		601.74,		722.19
475.6,		726.88,		472.57
477.71,		726.97,		596.8
480.57,		727.44,		722.34
600.3,		476.29,		470.3
602.15,		476.76,		595.42
604.76,		476.62,		720.55
600.92,		600.82,		470.74
603.08,		601.58,		595.63
605.11,		601.5,		720.63
600.52,		725.78,		469.99
603.27,		726.67,		595.05
604.79,		726.59,		720.34
348.04,		476.23,		601.97
348.32,		475.83,		726.88
348.34,		475.29,		851.11
346.47,		601.08,		601.8
346.1,		600.57,		726.82
345.39,		599.89,		852.29
343.98,		725.92,		602.78
343.43,		725.61,		727.77
343.45,		724.88,		853.03
473.36,		478.31,		601.61
472.79,		477.35,		726.95
473.5,		477.63,		851.32
471.47,		603.85,		602.82
471.33,		603.11,		727.07
471.23,		602.44,		852.62
468.54,		728.69,		603.02
468.94,		728.1,		728.28
468.18,		727.32,		853.26
598.54,		480.95,		601.65
598.32,		479.6,		726.99
597.76,		479.02,		851.85
596.17,		605.32,		602.72
595.89,		605.45,		727.26
595.55,		604.45,		852.42
594.38,		730.9,		603.59
593.95,		729.93,		727.66
593.76,		729.11,		852.98
348.15,		600.68,		101.66
344.6,		603.38,		226.91
342.05,		606.66,		351.97
345.22,		726.35,		98.74
341.41,		728.98,		223.64
338.97,		731.13,		348.9
341.71,		850.78,		96.1
339.07,		853.59,		220.88
336.16,		856.27,		346.5
473.31,		604.09,		104.93
469.45,		607.05,		229.49
466.21,		609.31,		354.58
470.43,		729.09,		101.98
467.35,		731.9,		226.56
463.7,		734.88,		352.16
467.17,		854.24,		99.52
464.21,		856.62,		224.02
460.4,		859.89,		348.94
598.47,		607.0,		107.84
594.96,		609.38,		233.4
591.61,		612.68,		357.98
595.41,		731.76,		105.51
591.67,		734.54,		230.06
589.03,		737.88,		355.0
591.88,		856.7,		102.61
588.24,		860.04,		227.15
586.02,		862.31,		352.08
351.43,		600.5,		227.32
348.15,		603.13,		352.21
345.47,		606.15,		476.67
350.34,		725.2,		223.78
347.95,		728.81,		348.85
345.03,		731.59,		473.53
349.99,		850.54,		221.0
346.96,		853.28,		345.56
344.27,		856.8,		470.44
475.81,		601.35,		229.55
472.82,		603.84,		353.99
470.77,		607.51,		479.05
475.26,		726.04,		226.78
472.65,		729.23,		351.36
470.03,		732.28,		476.5
474.38,		851.16,		223.55
471.98,		854.14,		348.09
470.24,		857.17,		473.21
600.41,		601.8,		232.25
598.2,		604.25,		356.61
596.0,		607.98,		482.05
600.25,		726.28,		229.55
597.73,		729.34,		354.17
594.94,		732.94,		478.7
600.3,		851.28,		226.45
597.38,		854.26,		350.87
594.75,		857.14,		475.51
349.87,		600.85,		348.47
350.75,		601.35,		474.19
351.08,		601.04,		598.9
352.07,		726.27,		348.88
353.39,		725.71,		473.65
352.94,		725.86,		599.2
354.94,		851.37,		348.97
355.85,		850.78,		473.8
356.36,		851.47,		598.88
474.64,		598.71,		348.74
475.17,		598.79,		473.68
475.82,		598.84,		597.8
477.0,		723.14,		348.59
478.11,		723.54,		472.83
478.76,		723.11,		597.94
479.78,		848.37,		348.47
480.82,		848.77,		473.31
481.27,		848.17,		597.85
600.15,		595.67,		347.5
600.29,		595.75,		472.39
600.92,		596.28,		597.27
602.71,		721.1,		347.22
602.54,		720.95,		472.32
603.14,		720.88,		597.29
604.74,		846.23,		347.9
605.61,		846.05,		473.05
606.19,		845.4,		597.38
347.89,		599.2,		475.05
348.22,		597.06,		600.08
348.79,		596.05,		724.58
347.81,		724.25,		476.33
347.97,		722.65,		601.17
348.48,		720.79,		726.73
347.1,		849.62,		478.2
347.56,		847.7,		603.56
348.17,		845.59,		727.96
473.35,		599.57,		474.9
473.49,		598.19,		599.43
473.73,		596.61,		724.38
472.7,		725.01,		476.15
472.88,		722.8,		600.94
472.98,		721.51,		725.73
472.66,		849.28,		478.52
472.8,		847.62,		603.33
473.36,		846.01,		728.08
598.03,		600.22,		474.55
598.68,		598.1,		599.73
598.59,		596.42,		723.73
597.66,		724.69,		475.71
598.15,		723.6,		601.51
598.37,		721.99,		725.7
597.21,		850.35,		477.51
597.78,		848.68,		602.94
598.33,		846.55,		728.04
348.3,		601.24,		601.6
351.13,		604.72,		727.06
354.87,		607.31,		851.1
344.75,		726.69,		598.47
348.25,		729.03,		723.55
351.07,		731.77,		848.73
341.01,		851.21,		595.98
344.45,		854.65,		721.44
347.39,		856.93,		846.16
473.25,		605.5,		598.84
476.94,		607.47,		723.44
479.44,		610.28,		848.31
470.31,		730.36,		595.48
472.37,		733.1,		721.21
475.87,		735.74,		845.84
466.09,		855.0,		593.76
469.3,		857.31,		718.32
472.17,		860.93,		843.24
598.73,		609.07,		595.5
601.59,		611.7,		720.07
604.29,		614.05,		845.7
594.82,		733.84,		592.7
597.79,		736.69,		717.74
600.43,		739.07,		842.49
590.66,		858.86,		590.51
593.96,		861.5,		714.82
597.36,		864.42,		840.01
473.4,		101.73,		101.6
471.03,		103.9,		226.57
469.31,		107.04,		351.57
474.31,		226.05,		98.75
471.47,		229.18,		223.52
469.92,		231.97,		348.67
474.24,		351.02,		95.53
471.76,		354.36,		220.65
469.42,		356.94,		345.49
599.04,		100.69,		104.04
596.33,		103.66,		228.3
594.55,		107.35,		353.35
599.11,		225.85,		100.59
596.9,		229.1,		225.98
594.01,		231.86,		350.33
598.84,		350.71,		98.01
596.94,		354.34,		222.42
594.94,		356.55,		348.02
723.61,		100.76,		106.01
721.02,		103.61,		231.12
718.85,		106.45,		356.14
724.19,		225.93,		103.03
722.14,		229.08,		227.35
720.03,		231.35,		353.02
724.75,		351.02,		100.08
722.27,		353.23,		224.55
719.39,		357.08,		349.96
474.4,		98.93,		227.32
472.74,		100.65,		351.72
471.96,		102.73,		476.64
477.2,		224.48,		225.6
475.94,		225.58,		350.06
475.41,		227.58,		475.63
480.44,		348.7,		223.82
479.83,		351.02,		348.67
478.21,		352.12,		474.05
599.27,		96.29,		228.45
598.31,		97.2,		353.24
597.03,		99.0,		477.78
602.63,		220.42,		226.35
601.43,		222.75,		352.02
600.42,		223.58,		476.7
605.99,		345.87,		224.89
604.28,		346.98,		349.82
603.29,		349.27,		475.68
724.22,		92.56,		229.78
722.4,		93.63,		354.04
721.75,		95.75,		479.88
727.33,		217.55,		228.09
726.05,		219.1,		353.09
725.11,		221.01,		477.59
730.25,		342.67,		226.7
729.24,		344.22,		351.64
728.34,		345.99,		476.47
476.42,		101.45,		349.97
478.36,		105.06,		474.72
480.97,		108.84,		599.27
476.22,		226.33,		346.07
478.71,		230.58,		471.15
480.07,		234.31,		596.49
476.42,		351.08,		342.49
477.99,		355.07,		467.26
480.01,		358.68,		592.6
601.41,		101.32,		348.02
603.3,		105.37,		472.41
606.12,		108.63,		598.17
600.99,		226.65,		344.05
602.95,		230.63,		469.39
605.56,		234.28,		593.73
601.41,		352.1,		340.52
603.64,		354.86,		465.12
604.89,		358.78,		590.57
726.4,		102.23,		345.55
728.66,		105.53,		470.36
730.57,		109.51,		595.86
726.52,		226.77,		341.72
728.15,		230.55,		467.41
730.27,		234.48,		591.57
726.15,		351.6,		338.13
728.46,		355.52,		463.3
730.49,		359.0,		588.01
474.16,		98.59,		475.05
475.95,		97.89,		600.36
477.66,		96.29,		725.13
476.66,		224.18,		476.82
479.09,		222.56,		601.72
481.57,		221.64,		726.27
479.99,		348.43,		477.71
482.31,		347.45,		602.48
484.39,		345.98,		727.6
598.84,		95.94,		473.25
600.6,		94.86,		597.87
602.77,		93.01,		723.07
601.66,		220.41,		474.57
603.68,		219.2,		599.64
605.89,		218.1,		724.07
604.77,		346.19,		476.14
606.77,		344.46,		601.26
609.1,		343.37,		726.01
723.89,		92.6,		471.54
726.03,		91.22,		596.36
728.0,		90.11,		721.41
727.04,		217.88,		472.03
728.99,		216.56,		597.82
730.92,		215.16,		721.9
729.87,		342.97,		473.58
732.52,		341.25,		599.07
734.51,		340.28,		723.55
474.96,		100.05,		599.78
476.45,		97.5,		725.26
477.74,		94.79,		850.1
475.14,		225.04,		602.14
475.62,		222.43,		728.15
477.11,		219.87,		852.21
474.04,		349.74,		604.82
475.48,		346.98,		730.41
476.49,		345.27,		855.54
600.25,		100.56,		599.23
602.19,		98.39,		723.93
603.32,		95.47,		848.86
600.15,		224.97,		601.64
600.81,		222.66,		725.87
602.55,		220.32,		851.12
598.64,		350.1,		603.64
600.05,		348.14,		728.93
601.68,		345.6,		853.49
725.18,		101.76,		597.01
726.47,		99.05,		722.75
728.05,		96.22,		847.58
724.35,		225.9,		599.78
726.56,		223.61,		724.7
727.63,		221.52,		849.7
723.47,		351.04,		602.18
725.05,		348.63,		727.0
726.9,		345.87,		852.29
473.37,		224.96,		100.13
470.43,		222.06,		225.2
467.67,		219.59,		350.23
476.33,		350.42,		103.56
473.26,		347.54,		228.46
469.87,		344.06,		353.02
478.85,		475.33,		106.22
475.71,		471.86,		231.76
472.35,		469.43,		356.9
598.17,		222.34,		104.14
595.12,		219.28,		228.15
591.96,		216.81,		352.98
601.25,		347.51,		106.5
597.91,		344.43,		231.14
595.21,		341.22,		356.12
604.11,		472.59,		109.48
600.9,		469.13,		234.46
597.43,		466.13,		359.42
723.32,		219.24,		106.77
719.75,		216.58,		231.51
717.57,		213.74,		356.8
725.68,		344.78,		109.32
723.15,		342.12,		234.9
720.32,		339.23,		359.24
728.88,		469.07,		112.7
725.87,		466.53,		237.87
722.67,		464.11,		361.92
474.77,		225.98,		224.62
477.46,		223.73,		350.07
479.42,		222.16,		474.58
476.13,		350.86,		226.49
478.23,		349.38,		351.41
480.56,		346.83,		477.13
477.57,		475.92,		228.78
479.33,		474.11,		353.34
481.91,		472.19,		478.75
600.55,		224.96,		222.54
602.63,		223.14,		348.07
604.29,		220.96,		472.35
600.65,		350.56,		224.29
603.22,		348.26,		349.38
605.23,		346.22,		474.23
601.94,		475.37,		226.27
603.86,		473.57,		351.63
606.07,		471.61,		476.55
724.8,		224.3,		220.62
727.49,		222.67,		344.98
729.49,		220.43,		470.72
726.48,		349.32,		222.46
728.13,		346.86,		347.88
730.55,		345.63,		472.41
727.47,		474.55,		224.55
729.31,		471.92,		349.45
731.36,		470.01,		474.53
474.11,		227.19,		348.04
475.41,		226.36,		473.1
476.96,		226.86,		598.15
477.18,		351.63,		348.8
478.39,		351.32,		473.42
480.06,		351.4,		598.4
480.32,		477.01,		347.85
481.38,		477.13,		473.33
482.69,		477.17,		598.47
599.95,		223.65,		347.07
600.49,		224.48,		472.35
601.7,		224.41,		597.31
602.58,		348.65,		347.4
603.59,		349.0,		471.7
604.31,		349.16,		596.88
604.95,		474.43,		346.8
606.05,		473.77,		471.64
607.75,		474.23,		596.67
724.34,		221.11,		346.15
726.13,		221.84,		470.87
727.19,		221.44,		595.37
727.29,		346.57,		346.04
728.73,		346.59,		470.69
729.69,		346.71,		595.85
730.01,		471.16,		345.96
730.61,		471.67,		470.47
732.43,		471.23,		595.47
475.37,		227.35,		474.08
476.56,		224.16,		599.56
478.25,		222.27,		724.11
477.96,		351.4,		477.08
479.27,		349.03,		601.89
480.67,		346.35,		726.88
480.78,		477.35,		480.01
481.6,		474.45,		604.38
483.49,		471.78,		729.45
600.13,		224.81,		473.03
601.47,		222.0,		597.88
602.46,		218.74,		722.9
602.67,		349.64,		476.2
603.85,		346.77,		600.84
605.23,		343.92,		725.7
604.81,		473.87,		477.73
606.99,		471.58,		603.28
607.78,		469.1,		728.15
725.03,		221.69,		471.55
726.48,		219.17,		596.94
727.93,		216.53,		721.43
728.14,		346.6,		474.44
729.22,		343.93,		599.42
730.17,		341.28,		724.04
730.63,		471.67,		476.81
731.11,		469.03,		601.59
732.52,		466.42,		726.61
473.39,		226.82,		599.18
476.73,		224.91,		724.42
480.61,		223.86,		849.35
473.26,		351.06,		601.07
477.18,		350.47,		725.13
480.37,		349.4,		850.67
473.61,		476.55,		601.62
476.74,		475.6,		726.23
480.35,		474.61,		851.48
598.95,		226.48,		596.44
602.48,		225.37,		720.99
605.18,		224.63,		846.01
598.2,		351.73,		597.22
601.96,		350.16,		722.49
604.96,		349.02,		847.04
598.39,		476.77,		598.51
601.71,		475.25,		723.11
605.26,		474.67,		848.47
723.14,		226.56,		592.11
727.1,		225.59,		717.97
730.19,		224.02,		842.97
723.71,		352.05,		594.06
726.97,		350.13,		718.17
730.2,		349.42,		843.59
723.4,		476.73,		595.05
726.84,		476.11,		719.19
730.63,		475.09,		844.81
473.54,		348.57,		100.21
470.51,		351.24,		225.49
467.82,		355.21,		350.0
472.21,		473.68,		97.55
469.09,		477.06,		221.85
465.66,		479.61,		346.78
471.36,		597.97,		94.33
467.52,		601.52,		219.36
464.29,		604.86,		343.65
598.75,		349.49,		104.08
595.4,		352.68,		228.62
592.41,		356.07,		353.32
596.89,		474.69,		100.73
594.1,		477.99,		225.07
590.86,		481.5,		350.27
595.61,		599.88,		96.96
592.78,		603.03,		221.89
589.7,		606.67,		346.56
724.07,		351.0,		106.54
720.24,		354.65,		231.34
717.53,		357.34,		356.85
722.45,		476.46,		103.99
718.78,		479.22,		229.0
716.3,		482.82,		353.36
720.88,		601.53,		100.01
717.77,		604.78,		225.16
714.47,		607.64,		350.33
473.42,		348.69,		223.64
472.66,		351.89,		349.32
471.99,		354.4,		473.99
473.68,		473.57,		221.65
473.36,		475.95,		346.0
472.34,		479.11,		471.16
474.91,		598.42,		218.74
474.12,		601.66,		343.53
473.86,		603.84,		468.57
598.42,		347.36,		225.19
597.66,		350.18,		349.42
596.22,		353.13,		475.06
599.13,		472.34,		222.0
598.75,		475.9,		347.45
597.44,		478.25,		472.36
599.74,		597.37,		219.29
599.35,		600.49,		344.12
598.58,		603.67,		469.5
722.72,		347.03,		225.66
722.51,		349.68,		351.01
721.08,		352.21,		475.54
724.19,		472.04,		222.44
722.88,		474.82,		348.22
722.71,		477.12,		472.62
724.83,		596.87,		219.64
724.01,		599.65,		344.99
723.73,		602.55,		469.98
477.07,		348.39,		349.15
480.06,		347.05,		474.44
483.97,		344.54,		599.46
474.94,		473.54,		351.52
478.33,		471.69,		476.38
481.7,		469.83,		601.23
472.55,		598.57,		352.85
476.64,		597.09,		478.18
480.2,		594.61,		603.09
602.2,		350.28,		346.3
605.09,		348.57,		471.05
609.16,		346.62,		595.85
600.06,		475.42,		348.1
603.09,		473.51,		473.17
607.15,		472.11,		597.42
597.73,		600.8,		349.22
601.32,		598.76,		474.08
604.67,		596.88,		599.38
726.44,		352.01,		342.31
730.49,		350.45,		467.74
734.06,		349.5,		592.71
724.79,		477.09,		344.01
728.4,		475.64,		469.41
731.31,		473.68,		593.83
722.66,		602.38,		345.73
726.57,		600.6,		470.95
729.74,		599.15,		596.34
476.76,		350.1,		473.78
476.19,		347.5,		598.85
476.32,		345.18,		723.56
478.93,		474.73,		476.48
479.28,		472.27,		601.66
478.96,		469.67,		726.66
481.89,		599.79,		479.57
482.05,		596.96,		604.8
481.15,		594.75,		729.41
601.7,		347.08,		473.84
601.83,		345.05,		599.2
601.77,		341.9,		723.67
603.48,		472.02,		476.26
603.77,		469.83,		601.33
603.86,		466.79,		726.87
606.26,		597.72,		479.7
606.45,		594.17,		604.62
606.52,		592.44,		729.1
726.26,		345.0,		474.12
726.45,		342.39,		599.31
726.04,		339.0,		723.9
728.64,		469.61,		476.52
728.64,		466.94,		601.18
728.61,		464.25,		726.02
731.48,		594.19,		479.06
731.32,		591.76,		604.79
732.08,		589.9,		728.85
476.53,		349.96,		599.84
474.93,		351.21,		724.18
474.55,		352.68,		849.1
473.58,		474.85,		597.54
472.23,		476.79,		722.46
470.7,		478.08,		847.18
470.01,		599.75,		596.38
468.67,		600.99,		721.15
467.35,		602.48,		846.32
601.12,		353.71,		600.97
600.79,		354.7,		726.04
598.93,		356.49,		850.75
598.49,		478.29,		599.04
596.72,		480.29,		723.69
595.73,		481.27,		849.13
594.53,		603.16,		597.05
593.68,		604.77,		721.73
592.6,		606.31,		847.39
726.5,		356.48,		601.9
725.12,		358.0,		727.01
724.09,		360.21,		851.54
723.36,		481.7,		600.06
722.12,		483.63,		724.84
720.89,		484.52,		849.68
719.69,		606.28,		598.29
718.23,		608.07,		723.38
717.44,		609.77,		847.75
474.44,		476.11,		98.65
473.02,		476.43,		223.8
471.99,		476.65,		348.59
475.4,		601.22,		97.97
474.87,		601.26,		223.45
473.71,		601.45,		348.33
476.18,		726.44,		98.5
475.85,		725.67,		223.31
474.15,		725.85,		348.45
599.51,		475.19,		99.94
598.5,		474.58,		224.59
596.69,		475.45,		349.22
600.49,		599.72,		99.13
599.33,		599.58,		224.24
598.36,		600.18,		349.57
601.91,		724.76,		99.02
600.58,		725.17,		223.83
599.72,		724.81,		349.44
724.21,		473.63,		100.33
723.4,		473.77,		225.3
721.64,		473.82,		350.17
725.45,		598.82,		100.49
724.24,		598.36,		225.43
723.01,		599.13,		350.76
726.74,		723.92,		100.55
725.87,		723.79,		225.65
724.31,		724.19,		349.98
475.33,		476.25,		226.94
473.58,		475.12,		351.56
472.49,		473.0,		476.5
477.74,		601.84,		228.59
476.18,		600.03,		353.64
475.02,		598.01,		477.84
480.05,		726.62,		230.11
478.42,		725.14,		354.79
477.5,		723.48,		479.38
599.56,		473.72,		227.72
599.08,		471.8,		352.9
597.39,		470.53,		478.48
602.28,		599.17,		229.28
601.53,		596.83,		354.64
599.76,		595.5,		479.67
605.04,		723.67,		231.32
603.34,		722.41,		355.99
602.83,		720.38,		480.99
724.62,		470.82,		228.95
723.24,		469.58,		354.65
722.0,		468.24,		479.63
727.4,		595.73,		230.83
726.17,		594.87,		356.24
724.53,		593.5,		480.89
730.14,		720.83,		232.66
728.53,		719.76,		357.43
727.39,		718.47,		482.16
476.59,		475.29,		348.79
477.68,		474.1,		474.45
478.32,		471.98,		599.14
474.73,		599.98,		350.49
475.31,		598.51,		476.35
476.76,		596.91,		601.3
472.33,		725.37,		352.42
473.78,		723.54,		477.81
474.8,		721.93,		602.82
601.01,		477.13,		347.62
602.85,		475.69,		473.23
603.34,		474.03,		598.31
599.55,		602.03,		349.64
600.88,		600.46,		474.39
602.02,		598.82,		599.16
597.59,		727.26,		351.24
598.58,		725.71,		476.24
600.16,		724.05,		601.32
726.05,		478.61,		346.41
727.16,		477.74,		471.87
728.41,		476.0,		596.87
724.01,		604.24,		348.83
725.95,		602.13,		473.21
726.53,		600.56,		598.55
722.95,		728.66,		350.5
724.09,		727.7,		475.24
724.68,		725.6,		600.46
474.26,		473.19,		475.64
470.34,		475.18,		600.11
467.28,		475.82,		724.93
475.53,		598.28,		474.68
472.2,		599.72,		599.52
468.7,		600.81,		724.7
478.31,		723.89,		473.58
474.05,		724.4,		597.84
471.15,		726.02,		723.55
598.66,		471.96,		479.01
595.2,		473.39,		603.77
592.09,		474.33,		728.38
601.18,		596.72,		477.73
596.98,		598.18,		602.67
593.88,		599.3,		727.87
602.57,		721.82,		476.78
599.75,		723.17,		601.53
596.16,		723.53,		726.52
723.72,		469.58,		481.92
720.62,		470.73,		607.28
717.2,		472.52,		732.31
725.99,		594.93,		481.42
722.6,		596.13,		606.76
718.89,		596.89,		731.31
727.33,		719.62,		479.89
723.95,		721.25,		604.83
721.06,		721.81,		730.15
475.42,		474.57,		600.39
477.6,		473.03,		724.59
479.54,		472.67,		850.35
471.03,		599.08,		600.98
474.0,		598.52,		725.57
475.93,		597.85,		850.91
468.25,		724.29,		601.85
470.41,		723.31,		726.21
472.44,		722.66,		851.94
600.16,		477.31,		597.78
602.08,		476.8,		723.31
604.71,		476.9,		847.91
596.25,		602.66,		598.29
598.98,		601.42,		723.09
600.61,		601.04,		848.01
593.16,		727.64,		599.13
594.9,		726.56,		724.5
597.47,		726.35,		849.36
724.62,		481.18,		596.0
726.79,		480.29,		720.93
729.7,		479.83,		845.89
721.63,		605.69,		596.91
723.16,		605.28,		721.62
726.17,		604.47,		846.04
717.51,		731.23,		597.54
719.97,		730.55,		721.85
722.05,		729.82,		847.08
473.82,		598.56,		100.96
474.3,		597.47,		225.29
474.73,		596.53,		350.31
473.69,		723.65,		102.06
474.16,		722.77,		226.88
474.72,		721.4,		351.97
473.69,		848.61,		103.19
473.16,		847.3,		227.91
474.13,		845.71,		353.67
599.2,		598.85,		99.9
599.54,		597.87,		225.17
599.15,		596.86,		350.46
598.82,		724.69,		101.8
598.83,		722.44,		226.47
599.21,		721.15,		351.37
598.18,		849.25,		102.66
598.96,		848.15,		227.93
598.93,		846.87,		353.51
723.85,		599.28,		100.61
724.45,		598.11,		225.65
724.45,		596.3,		349.74
723.79,		724.39,		101.16
724.28,		723.5,		226.43
724.01,		721.76,		351.11
723.57,		849.1,		102.49
723.39,		847.78,		227.38
724.23,		846.28,		352.97
473.59,		598.61,		222.93
470.6,		601.81,		347.96
467.59,		604.81,		473.47
475.72,		723.68,		220.43
472.76,		726.76,		345.56
469.14,		730.03,		469.73
477.24,		848.62,		217.83
473.93,		851.13,		341.81
471.06,		854.45,		467.09
598.93,		596.92,		227.07
596.07,		600.45,		351.31
592.02,		603.01,		476.34
600.5,		721.85,		223.81
596.95,		725.48,		348.48
593.75,		728.37,		473.42
601.72,		846.82,		220.93
599.12,		849.89,		345.31
595.48,		853.23,		470.35
723.26,		595.7,		229.94
721.04,		598.22,		354.18
717.84,		601.82,		479.52
725.56,		720.75,		226.86
722.62,		723.39,		352.11
718.71,		726.41,		476.63
727.14,		845.65,		224.16
723.51,		848.93,		348.62
720.73,		851.9,		473.44
474.04,		599.63,		349.47
472.74,		604.05,		473.75
470.74,		607.18,		599.34
476.24,		725.12,		345.24
475.01,		729.02,		470.54
472.6,		732.61,		595.19
479.13,		849.8,		342.43
476.47,		853.26,		466.55
474.48,		856.71,		591.92
599.54,		598.08,		351.18
597.79,		601.59,		476.28
595.39,		605.2,		601.12
601.16,		723.2,		348.15
599.7,		725.93,		472.64
597.38,		730.56,		597.89
603.47,		847.92,		343.9
601.44,		851.35,		468.71
600.16,		855.19,		594.36
724.37,		596.08,		353.93
722.76,		599.55,		478.43
720.64,		603.43,		603.09
726.28,		720.57,		349.95
724.88,		724.33,		474.69
722.82,		727.95,		600.04
728.9,		845.93,		346.56
726.62,		849.2,		471.36
724.58,		853.01,		595.97
476.07,		599.45,		473.95
475.15,		601.2,		599.0
474.42,		603.14,		724.52
473.82,		724.27,		472.93
473.45,		726.37,		597.63
471.94,		727.75,		722.51
472.56,		849.79,		470.78
470.77,		851.11,		595.5
469.73,		852.48,		720.67
601.33,		602.36,		475.68
600.6,		603.13,		600.3
598.83,		604.73,		725.44
599.67,		726.56,		473.17
597.73,		728.6,		598.92
596.96,		730.23,		723.68
596.96,		851.77,		472.41
596.09,		853.44,		597.23
594.38,		854.76,		721.92
726.01,		604.16,		476.27
725.12,		605.91,		601.02
724.02,		607.2,		726.59
723.73,		728.72,		475.3
722.97,		731.01,		600.32
721.67,		732.31,		724.99
722.01,		854.13,		473.26
720.67,		855.39,		598.32
719.85,		857.31,		723.57
476.33,		598.42,		598.91
473.15,		595.67,		724.34
469.27,		593.0,		849.61
479.46,		723.47,		601.83
476.3,		720.02,		727.19
472.86,		717.65,		851.85
482.91,		848.07,		605.24
479.44,		845.59,		730.18
476.45,		842.34,		854.93
601.14,		594.89,		602.44
597.65,		591.6,		727.34
594.45,		589.21,		852.24
604.6,		720.06,		605.18
601.21,		716.98,		730.7
597.5,		713.94,		855.54
607.56,		844.79,		608.5
604.37,		842.11,		733.75
600.87,		839.11,		857.82
725.94,		591.97,		605.77
722.35,		588.36,		730.75
718.8,		585.9,		856.0
729.74,		715.87,		608.64
725.8,		713.89,		733.98
722.71,		711.32,		858.62
732.92,		841.28,		611.37
729.33,		838.53,		736.98
725.63,		835.87,		861.43
600.34,		98.39,		100.51
602.5,		101.96,		225.93
604.2,		105.29,		350.28
599.68,		224.12,		97.49
601.05,		227.31,		222.1
603.63,		230.65,		347.74
598.88,		349.16,		94.48
601.15,		352.28,		219.58
602.68,		355.88,		343.88
725.71,		99.94,		99.2
727.37,		102.88,		223.55
729.2,		106.53,		348.61
724.85,		224.88,		95.68
726.62,		228.05,		220.23
727.81,		231.24,		346.0
723.73,		349.18,		92.34
725.7,		352.55,		217.19
727.38,		356.06,		342.48
850.7,		100.43,		97.57
852.87,		103.46,		222.26
854.23,		107.18,		347.49
849.87,		225.21,		94.22
851.95,		228.89,		219.33
853.2,		231.43,		344.05
848.68,		350.89,		91.06
850.71,		353.82,		215.42
852.06,		357.18,		341.0
599.98,		100.16,		227.19
599.67,		103.37,		351.52
599.31,		106.09,		476.88
599.95,		224.6,		223.87
600.0,		228.38,		349.08
599.58,		231.11,		473.22
600.32,		349.66,		220.73
600.15,		353.39,		345.66
599.87,		356.38,		470.14
725.07,		100.04,		227.11
724.36,		102.72,		352.03
725.08,		105.9,		477.18
724.79,		225.06,		224.13
724.4,		227.72,		348.7
725.18,		230.78,		473.3
724.36,		349.19,		221.07
724.72,		353.01,		345.27
725.18,		355.72,		470.08
849.3,		100.04,		227.02
849.34,		102.87,		351.79
850.01,		106.06,		476.57
849.34,		224.87,		223.3
850.06,		227.55,		349.08
850.07,		230.81,		473.29
849.71,		349.7,		220.85
849.68,		352.45,		345.43
850.17,		355.73,		470.95
600.88,		100.65,		348.82
601.32,		97.7,		474.06
602.15,		94.46,		598.46
601.19,		225.68,		351.29
602.63,		222.89,		475.88
603.86,		219.87,		601.08
602.95,		349.73,		353.88
604.2,		347.63,		478.9
604.16,		344.48,		603.99
725.65,		99.33,		347.82
726.43,		96.39,		472.5
726.82,		93.2,		597.31
726.25,		223.85,		350.1
727.23,		221.4,		475.05
728.34,		218.16,		600.76
727.38,		348.47,		352.69
728.46,		346.36,		478.19
729.75,		343.59,		602.97
850.19,		97.78,		347.28
851.34,		95.02,		471.37
852.48,		92.15,		596.74
851.46,		222.79,		349.85
852.88,		220.44,		474.87
852.99,		217.15,		599.87
853.18,		347.75,		351.96
854.15,		344.8,		476.74
854.31,		342.62,		602.46
600.64,		99.09,		475.59
602.89,		97.69,		600.12
605.11,		95.83,		725.16
597.33,		223.88,		476.48
598.92,		222.66,		601.62
601.95,		221.48,		727.12
593.97,		348.38,		478.49
595.66,		347.24,		603.48
597.99,		345.63,		727.72
725.07,		102.58,		473.04
727.47,		100.77,		597.98
729.4,		99.32,		722.73
721.95,		227.06,		474.42
724.45,		225.57,		599.91
726.53,		224.55,		724.44
718.65,		352.16,		476.14
721.32,		351.03,		600.98
723.32,		349.26,		726.29
850.24,		105.17,		471.41
852.03,		104.11,		596.39
854.68,		102.47,		721.38
846.48,		230.31,		472.75
849.09,		228.59,		597.39
851.25,		227.69,		722.06
843.68,		355.39,		473.55
845.55,		353.44,		598.42
848.36,		352.07,		723.82
599.05,		99.29,		598.4
599.4,		97.79,		722.95
599.26,		96.85,		848.26
602.59,		224.33,		599.71
602.61,		223.4,		724.76
602.04,		222.04,		849.31
606.87,		349.46,		600.31
605.88,		348.32,		726.03
605.61,		347.21,		850.4
724.35,		95.56,		598.35
724.64,		94.75,		723.37
723.75,		93.6,		848.13
727.83,		221.4,		599.83
727.41,		219.74,		724.86
727.66,		218.7,		849.71
731.64,		345.54,		601.24
731.46,		344.74,		726.06
730.37,		343.19,		850.67
849.02,		92.62,		598.97
849.13,		91.37,		723.41
848.87,		90.15,		848.84
852.64,		217.06,		599.96
852.67,		216.44,		724.67
852.37,		215.22,		850.09
856.39,		342.37,		601.42
856.27,		341.0,		726.55
856.13,		340.1,		850.61
598.85,		225.34,		99.56
598.74,		225.53,		224.7
598.77,		226.29,		350.22
599.84,		351.02,		99.32
599.14,		350.95,		224.81
599.19,		351.54,		350.02
600.34,		475.19,		99.19
600.3,		475.68,		224.73
599.73,		476.62,		349.66
723.79,		225.22,		100.03
724.17,		225.32,		225.31
723.83,		225.95,		350.35
724.11,		350.16,		99.9
724.49,		350.69,		224.53
724.46,		350.38,		349.61
725.09,		475.18,		99.02
725.14,		475.62,		224.56
725.11,		476.08,		349.28
848.96,		224.53,		100.07
848.67,		224.22,		224.93
848.56,		224.78,		349.7
849.76,		349.17,		99.09
849.41,		350.1,		224.47
849.57,		350.53,		349.93
849.81,		474.27,		99.64
849.97,		474.54,		224.06
849.79,		475.53,		348.81
601.09,		224.11,		223.34
599.83,		226.85,		347.95
599.57,		229.7,		473.0
603.55,		349.08,		220.36
602.37,		352.34,		344.71
601.19,		354.96,		470.41
605.77,		473.68,		217.43
604.7,		476.82,		342.45
603.96,		480.03,		467.17
726.66,		221.58,		224.22
725.18,		224.78,		349.36
723.96,		227.7,		473.85
728.47,		346.19,		221.49
727.45,		349.45,		346.51
725.96,		352.88,		471.26
730.44,		471.13,		217.79
729.94,		474.93,		343.16
728.35,		478.11,		467.95
851.51,		219.68,		225.93
850.1,		222.91,		350.73
848.61,		225.49,		475.21
853.64,		344.09,		222.97
852.05,		347.27,		347.13
851.28,		350.79,		472.54
855.59,		469.09,		219.3
855.04,		472.34,		344.47
853.2,		475.37,		468.8
600.92,		226.41,		350.93
598.06,		222.98,		475.71
594.45,		220.25,		600.52
600.88,		351.4,		353.61
596.86,		348.74,		478.93
593.85,		345.34,		603.12
599.2,		475.9,		356.12
596.12,		473.54,		481.42
593.26,		470.31,		606.31
726.05,		227.32,		354.39
722.67,		223.73,		479.34
718.99,		221.23,		604.08
725.42,		352.02,		356.91
721.96,		348.85,		482.31
718.82,		345.79,		606.44
724.67,		477.28,		360.15
721.47,		473.81,		485.11
717.86,		471.01,		609.63
851.09,		227.87,		357.32
847.64,		224.94,		482.53
844.94,		221.85,		606.77
850.68,		352.83,		360.57
846.8,		350.35,		484.82
843.07,		346.71,		610.01
849.7,		477.33,		362.76
846.48,		474.83,		488.56
842.94,		471.71,		612.75
598.82,		222.77,		474.68
600.12,		223.4,		600.05
600.59,		222.86,		725.42
601.41,		347.61,		475.6
602.25,		348.47,		600.15
603.48,		347.73,		724.82
604.13,		473.49,		475.11
605.56,		473.46,		600.61
607.01,		472.63,		725.06
724.07,		220.19,		474.45
724.52,		219.8,		599.36
725.77,		220.22,		723.87
726.14,		344.77,		473.73
727.54,		345.38,		598.66
728.27,		345.49,		724.02
729.77,		470.42,		474.46
730.25,		469.97,		599.42
732.04,		470.1,		724.54
849.09,		217.77,		472.6
849.44,		217.54,		598.05
850.67,		217.07,		723.18
851.28,		342.13,		473.56
853.02,		342.15,		598.14
853.22,		342.14,		723.56
854.09,		467.21,		472.8
855.33,		467.39,		598.04
856.65,		467.25,		723.0
599.12,		224.21,		599.45
596.7,		226.09,		724.63
593.75,		227.67,		849.53
596.51,		349.19,		597.96
593.5,		351.28,		722.94
591.23,		352.03,		848.33
593.64,		474.44,		596.35
590.41,		476.21,		721.97
588.21,		477.68,		846.96
724.06,		227.23,		602.77
721.37,		229.08,		727.3
718.76,		230.58,		852.06
721.47,		352.16,		601.1
718.88,		354.28,		725.74
715.65,		355.09,		850.89
718.26,		477.18,		599.36
715.22,		478.8,		723.98
712.15,		480.56,		848.99
849.2,		230.51,		605.21
846.81,		232.07,		730.29
843.68,		233.4,		854.94
846.03,		356.09,		603.99
843.12,		357.07,		727.94
840.69,		358.28,		853.6
842.65,		480.83,		601.93
840.76,		482.0,		727.31
837.59,		483.62,		851.96
598.93,		350.99,		99.65
599.6,		347.88,		225.2
600.1,		343.8,		349.91
596.37,		475.47,		103.57
596.85,		472.67,		227.97
597.7,		469.16,		353.53
593.82,		601.11,		106.71
594.43,		597.5,		232.2
595.1,		593.84,		356.87
723.97,		353.58,		99.33
725.07,		349.76,		224.13
725.54,		347.33,		349.14
721.66,		478.74,		103.05
722.07,		475.55,		227.9
722.58,		471.82,		352.94
718.94,		603.01,		105.95
719.85,		599.83,		230.92
719.78,		596.24,		356.22
849.3,		355.99,		99.23
849.82,		353.23,		224.06
849.96,		349.46,		349.0
846.44,		481.36,		102.61
846.86,		477.61,		227.43
848.16,		474.28,		352.1
843.85,		606.0,		105.75
844.33,		602.71,		230.67
845.49,		599.72,		355.88
600.26,		350.61,		223.98
603.72,		349.21,		348.6
608.2,		348.03,		473.32
598.01,		475.08,		224.99
601.02,		473.93,		350.54
604.37,		472.77,		475.07
595.12,		600.2,		226.12
598.25,		598.97,		351.41
601.79,		597.02,		476.77
725.39,		352.97,		220.01
729.07,		352.25,		345.21
732.83,		350.57,		469.81
722.81,		478.12,		221.34
726.11,		476.92,		346.2
729.85,		475.82,		471.37
719.6,		603.32,		223.04
723.05,		601.58,		347.6
726.95,		600.25,		473.06
850.67,		356.46,		216.39
853.51,		354.91,		341.47
857.94,		353.83,		466.44
847.43,		480.71,		218.19
850.9,		479.67,		343.17
854.81,		478.49,		467.69
844.48,		606.01,		219.52
848.43,		604.5,		344.1
852.03,		603.65,		468.94
600.26,		348.54,		349.16
597.3,		346.3,		474.42
595.05,		345.48,		599.41
602.67,		472.88,		350.68
599.36,		472.23,		476.04
596.46,		470.52,		600.36
603.71,		598.1,		352.48
600.9,		596.75,		477.1
598.84,		595.28,		601.85
725.36,		346.52,		352.12
722.84,		344.66,		476.54
719.93,		343.2,		601.33
727.44,		470.83,		353.34
724.5,		470.17,		478.3
721.35,		468.38,		603.07
728.96,		596.35,		354.97
726.27,		594.43,		479.37
723.94,		593.47,		604.71
850.56,		344.59,		354.32
847.93,		343.47,		479.78
845.41,		341.31,		604.45
852.14,		469.4,		355.97
849.15,		468.07,		480.99
846.98,		466.53,		605.9
853.58,		594.17,		357.03
850.89,		593.48,		482.52
848.89,		591.52,		607.66
598.89,		349.13,		475.71
598.59,		351.04,		600.94
598.77,		354.01,		726.38
597.84,		473.95,		473.46
597.59,		476.23,		598.09
597.67,		478.75,		723.77
596.46,		598.71,		471.1
596.06,		601.32,		596.14
596.44,		603.57,		721.35
723.35,		349.73,		476.37
724.1,		352.94,		600.65
724.11,		354.87,		725.58
722.71,		474.38,		473.44
722.39,		477.58,		598.47
722.7,		479.78,		723.0
721.66,		600.26,		470.59
721.59,		602.18,		596.49
721.25,		604.99,		721.31
848.75,		350.83,		476.07
848.43,		353.49,		601.16
848.89,		356.52,		725.99
847.84,		475.74,		473.12
848.18,		478.14,		598.01
847.46,		481.42,		723.63
846.55,		601.31,		470.59
847.0,		603.83,		595.84
847.04,		605.93,		720.41
602.44,		348.25,		601.43
602.57,		348.66,		726.37
603.13,		348.72,		851.17
599.91,		473.43,		601.86
600.75,		473.55,		726.83
600.98,		473.91,		851.35
598.92,		598.18,		601.49
599.09,		598.68,		726.41
599.59,		598.72,		851.66
726.85,		349.73,		600.59
727.04,		350.43,		726.42
728.06,		350.77,		851.05
725.29,		475.36,		601.3
725.48,		475.24,		726.37
726.18,		475.66,		851.06
723.99,		600.31,		600.61
724.0,		600.16,		725.6
723.91,		600.67,		851.0
852.14,		351.96,		600.26
852.05,		352.16,		725.21
852.47,		352.34,		850.9
850.22,		476.67,		600.36
850.3,		476.57,		725.03
851.34,		476.81,		850.29
848.21,		601.58,		600.09
848.66,		602.27,		725.55
849.58,		601.82,		850.6
600.81,		476.31,		97.89
599.31,		474.21,		223.05
597.88,		472.24,		347.74
603.51,		601.19,		99.76
601.98,		599.67,		225.08
600.29,		596.97,		350.08
606.43,		726.16,		102.78
604.39,		724.61,		227.08
602.92,		722.24,		352.4
725.71,		474.16,		99.67
723.94,		471.9,		224.85
723.02,		469.65,		349.11
728.65,		598.38,		101.76
727.23,		596.37,		226.47
725.43,		593.96,		351.67
730.96,		723.2,		104.21
729.69,		721.22,		228.7
727.98,		718.92,		354.0
851.39,		470.89,		100.74
849.48,		469.01,		225.77
848.0,		466.79,		351.46
853.69,		596.61,		103.4
852.24,		594.36,		228.68
849.91,		591.92,		353.65
856.39,		721.17,		105.89
854.51,		718.97,		230.69
852.83,		716.8,		355.26
599.64,		474.96,		225.67
599.72,		475.87,		349.95
599.25,		476.06,		475.76
597.72,		599.81,		225.34
597.08,		600.96,		350.34
597.03,		601.07,		475.5
594.12,		725.08,		224.62
594.1,		725.59,		349.42
593.71,		725.91,		475.37
725.01,		478.56,		225.64
725.0,		478.36,		350.61
724.74,		478.55,		475.21
722.42,		603.4,		225.19
721.96,		603.29,		350.81
721.16,		603.62,		475.89
719.05,		728.45,		225.21
719.35,		728.47,		350.04
718.71,		728.11,		475.15
849.93,		481.15,		226.11
849.59,		480.84,		351.12
848.95,		481.3,		476.3
847.54,		605.89,		225.83
846.63,		606.49,		351.14
846.94,		605.93,		475.82
844.31,		730.79,		226.1
843.85,		730.68,		350.35
843.75,		731.7,		475.54
598.25,		476.49,		348.49
602.25,		478.47,		472.93
604.97,		480.55,		598.45
597.6,		601.04,		345.97
601.28,		603.3,		471.6
604.68,		605.78,		596.31
597.62,		726.89,		344.25
600.65,		728.04,		469.02
604.15,		730.33,		594.25
723.62,		477.41,		344.78
726.71,		478.66,		469.87
729.96,		481.45,		594.95
722.53,		602.02,		343.25
726.67,		603.73,		468.14
729.39,		606.07,		593.37
721.77,		727.3,		341.44
725.94,		729.41,		466.08
729.21,		731.13,		590.5
848.15,		477.27,		341.68
851.75,		480.04,		466.57
854.6,		481.74,		591.53
847.59,		602.71,		339.23
851.43,		604.94,		464.8
854.67,		606.69,		589.46
847.18,		727.51,		337.27
851.04,		729.32,		462.41
853.83,		731.59,		587.49
598.26,		474.01,		474.28
595.72,		474.2,		599.38
592.03,		474.68,		724.9
600.41,		598.61,		474.09
596.82,		599.87,		598.86
593.67,		600.03,		724.01
601.95,		723.59,		473.04
599.03,		724.54,		598.76
595.33,		724.7,		722.91
723.68,		472.45,		478.0
720.56,		472.94,		602.85
717.43,		473.45,		728.02
724.88,		597.77,		477.49
722.17,		598.01,		601.95
718.38,		598.23,		726.69
726.57,		722.8,		476.62
723.43,		723.33,		601.29
720.34,		723.94,		726.44
848.18,		470.87,		481.37
845.83,		471.17,		606.27
842.37,		472.11,		730.86
850.19,		595.97,		480.81
847.2,		596.19,		605.5
843.19,		596.89,		730.39
851.45,		720.61,		480.17
848.43,		721.43,		604.63
845.46,		721.85,		729.67
599.68,		475.48,		598.86
601.75,		472.7,		724.09
605.11,		469.27,		849.25
601.34,		600.7,		602.18
603.68,		597.64,		727.45
606.32,		594.5,		851.47
603.24,		725.02,		605.24
605.43,		722.85,		730.17
609.08,		719.94,		855.3
723.97,		474.04,		596.23
726.82,		470.65,		721.61
729.96,		467.65,		845.84
726.33,		598.42,		599.21
729.35,		595.54,		724.46
731.68,		592.61,		849.36
727.96,		723.53,		602.63
730.99,		720.71,		727.32
733.76,		717.47,		852.59
849.12,		471.97,		593.75
852.28,		468.72,		718.69
854.54,		465.97,		843.74
851.33,		597.34,		596.7
854.2,		594.11,		721.19
856.33,		591.24,		846.05
852.43,		721.89,		599.73
855.5,		718.45,		724.41
858.32,		715.81,		849.61
601.54,		601.81,		100.6
601.5,		598.06,		225.15
601.27,		594.26,		350.02
602.35,		727.13,		104.0
601.68,		722.97,		228.58
601.73,		719.23,		353.88
602.89,		852.1,		107.7
603.19,		847.49,		232.72
602.55,		844.42,		357.62
726.73,		601.12,		100.83
726.38,		597.56,		225.63
726.62,		594.08,		350.62
727.52,		726.42,		104.39
726.53,		722.09,		229.44
727.18,		718.77,		354.3
728.18,		851.3,		108.32
727.94,		847.59,		233.1
727.43,		843.15,		358.27
851.73,		600.2,		100.65
851.16,		596.39,		225.42
851.36,		593.3,		350.78
852.29,		725.27,		104.4
852.31,		721.59,		229.11
851.53,		718.23,		354.88
853.06,		850.35,		108.34
852.77,		846.63,		233.55
852.66,		842.77,		358.2
600.86,		599.96,		226.89
600.76,		603.19,		351.67
599.73,		605.59,		476.6
598.54,		724.81,		223.7
598.5,		727.94,		348.87
597.84,		730.12,		473.95
596.89,		850.1,		220.75
596.0,		852.95,		345.93
595.42,		855.43,		471.1
726.01,		602.3,		227.16
725.14,		604.47,		351.99
724.81,		607.45,		476.85
724.18,		727.08,		224.06
723.44,		729.92,		349.28
722.53,		732.61,		474.75
721.59,		852.01,		221.33
721.41,		855.18,		346.12
720.28,		857.75,		471.78
851.17,		604.88,		227.66
850.63,		606.79,		352.69
850.3,		609.51,		477.86
849.01,		729.26,		224.85
848.34,		732.38,		349.76
847.99,		735.21,		474.6
846.74,		854.31,		221.82
846.09,		857.16,		346.97
845.86,		860.0,		471.81
600.31,		600.73,		350.77
602.94,		598.8,		474.98
605.4,		597.78,		600.14
602.07,		725.12,		352.09
604.48,		724.24,		476.38
606.17,		722.42,		602.29
602.74,		850.21,		353.5
605.08,		849.17,		478.51
607.72,		847.63,		602.84
725.12,		599.75,		348.29
727.49,		597.91,		472.7
729.67,		596.27,		597.59
726.49,		724.59,		349.02
729.15,		722.93,		474.22
731.1,		721.09,		599.0
727.49,		849.02,		350.51
730.74,		847.84,		475.92
732.35,		846.03,		600.97
849.94,		598.12,		345.45
852.39,		596.0,		470.28
854.79,		594.66,		595.54
851.35,		722.77,		347.07
853.93,		721.17,		472.15
856.63,		719.87,		596.67
852.73,		848.05,		348.69
854.84,		846.59,		473.41
857.91,		844.82,		598.43
599.7,		599.83,		474.19
601.35,		599.35,		598.72
603.48,		599.51,		724.26
600.27,		724.85,		474.01
601.84,		724.37,		599.64
603.79,		724.2,		724.41
600.48,		849.89,		474.55
602.45,		849.88,		599.04
603.38,		849.75,		724.26
725.02,		599.51,		472.13
726.86,		599.49,		597.28
728.91,		599.23,		721.93
725.27,		724.49,		472.98
726.41,		724.46,		597.56
728.21,		724.54,		722.47
725.26,		849.39,		472.42
727.5,		849.42,		597.87
728.42,		849.34,		722.51
849.97,		599.7,		470.47
851.25,		599.52,		595.88
853.04,		598.66,		720.98
850.44,		724.62,		471.33
851.84,		724.14,		595.89
853.81,		724.47,		720.99
850.27,		849.39,		471.26
852.17,		849.04,		596.21
853.6,		849.14,		720.96
598.21,		598.54,		600.91
599.38,		597.01,		726.41
599.11,		594.71,		850.84
601.43,		723.14,		603.1
602.52,		721.59,		727.88
602.94,		719.64,		852.94
604.88,		848.01,		604.37
605.52,		846.18,		729.25
605.58,		844.73,		854.83
723.72,		595.54,		600.75
724.24,		594.0,		726.23
724.21,		591.58,		851.27
726.58,		719.96,		602.11
727.44,		718.21,		727.72
727.52,		716.88,		852.45
729.63,		845.41,		604.37
730.41,		843.42,		728.72
731.1,		841.62,		854.37
848.07,		592.37,		599.86
848.69,		590.73,		725.44
849.51,		588.72,		850.16
851.12,		717.21,		601.67
852.18,		715.71,		727.1
852.69,		713.7,		851.59
854.34,		842.47,		603.43
855.35,		840.4,		728.51
855.76,		838.64,		853.5
