27, 125, pa2-unknown-j-output1.txt
202.63,		208.91,		202.99
406.4,		406.51,		200.87
98.3,		101.54,		98.88
101.17,		101.9,		223.85
103.67,		101.85,		348.82
99.79,		226.58,		98.6
102.49,		226.85,		223.77
105.37,		226.76,		348.69
101.36,		351.56,		98.25
103.94,		351.83,		223.29
106.65,		351.92,		348.39
223.31,		100.05,		96.26
225.98,		100.4,		221.24
228.75,		100.23,		346.28
224.91,		225.06,		96.05
227.52,		225.36,		220.83
230.07,		225.51,		345.99
226.36,		349.94,		95.9
229.01,		350.18,		220.75
231.61,		350.39,		345.58
348.38,		98.37,		93.49
351.06,		98.77,		218.65
353.63,		98.84,		343.5
349.74,		223.54,		93.34
352.52,		223.76,		218.35
355.24,		223.82,		343.24
351.37,		348.47,		93.01
353.83,		348.87,		218.05
356.67,		348.9,		342.84
100.82,		99.02,		226.5
103.03,		101.36,		351.36
105.59,		103.41,		476.52
97.36,		224.0,		224.3
99.58,		226.35,		349.2
101.85,		228.41,		474.34
93.97,		349.04,		222.31
96.1,		351.29,		347.31
98.16,		353.42,		472.42
225.87,		102.79,		224.19
228.13,		104.83,		349.12
230.38,		107.01,		474.0
222.12,		227.53,		222.17
224.4,		229.68,		347.11
226.65,		231.82,		472.08
218.61,		352.6,		220.07
221.05,		354.58,		344.85
223.33,		356.75,		469.74
350.59,		105.99,		222.04
352.79,		108.27,		346.98
355.35,		110.61,		471.79
347.42,		231.29,		219.8
349.58,		233.2,		344.91
351.9,		235.31,		469.59
343.8,		356.16,		217.84
346.01,		358.24,		342.52
348.02,		360.24,		467.7
98.39,		98.45,		350.08
96.63,		96.06,		475.13
94.43,		93.23,		599.98
95.83,		223.5,		352.54
93.92,		220.69,		477.52
91.98,		218.21,		602.51
93.2,		348.34,		355.04
91.09,		345.83,		480.18
89.31,		343.09,		605.09
223.4,		100.85,		351.92
221.54,		98.53,		476.94
219.64,		95.86,		601.95
220.8,		226.12,		354.57
218.86,		223.55,		479.47
217.09,		220.77,		604.35
217.97,		350.74,		357.26
216.3,		348.3,		482.06
214.23,		345.74,		606.95
348.17,		103.72,		353.83
346.52,		101.17,		479.01
344.37,		98.36,		604.14
345.82,		228.52,		356.65
343.81,		226.2,		481.51
341.96,		223.27,		606.53
343.07,		353.61,		359.34
340.97,		351.04,		483.89
339.34,		348.37,		609.13
99.36,		101.59,		474.05
101.81,		100.78,		599.28
104.14,		99.73,		724.01
100.15,		226.66,		475.13
102.77,		225.62,		600.02
105.04,		224.86,		724.93
101.31,		351.57,		476.11
103.38,		350.86,		601.02
106.02,		349.77,		726.17
224.32,		100.88,		471.9
226.78,		99.78,		596.6
229.36,		99.01,		721.83
225.25,		225.66,		472.57
227.82,		224.74,		597.8
229.97,		223.96,		722.66
226.24,		350.65,		473.59
228.82,		349.77,		598.78
231.0,		348.75,		723.41
349.37,		99.89,		469.17
351.95,		98.78,		594.23
354.4,		97.97,		719.16
350.11,		225.0,		470.38
352.59,		223.96,		595.37
354.98,		223.01,		720.16
351.26,		349.78,		471.26
353.66,		348.83,		596.21
355.9,		348.23,		721.27
101.17,		98.53,		601.71
102.04,		97.53,		726.92
102.68,		96.37,		851.79
101.73,		223.73,		602.9
102.84,		222.37,		727.95
103.62,		221.36,		852.79
102.75,		348.7,		603.99
103.64,		347.43,		728.96
104.21,		346.26,		854.11
226.05,		97.72,		600.9
226.77,		96.63,		725.78
227.64,		95.48,		851.12
226.8,		222.83,		602.13
227.7,		221.55,		727.21
228.59,		220.44,		852.07
227.66,		347.8,		603.4
228.57,		346.69,		728.18
229.49,		345.56,		853.32
351.17,		97.07,		600.42
351.93,		95.92,		725.41
352.79,		94.9,		850.26
351.8,		221.89,		601.34
352.75,		220.87,		726.37
353.56,		219.91,		851.41
352.85,		346.96,		602.3
353.46,		346.05,		727.5
354.46,		344.76,		852.42
101.28,		224.78,		100.46
99.44,		221.23,		225.24
97.6,		217.25,		350.36
101.48,		349.85,		104.15
99.84,		345.89,		228.93
97.86,		342.36,		354.02
102.01,		474.74,		108.0
99.85,		471.2,		232.87
98.26,		467.09,		357.87
226.15,		224.43,		102.18
224.5,		220.62,		227.14
222.62,		216.83,		352.11
226.68,		349.34,		105.94
224.71,		345.58,		230.91
222.73,		341.81,		356.0
226.7,		474.5,		109.61
225.13,		470.55,		234.64
223.13,		466.87,		359.65
351.36,		224.07,		104.11
349.2,		220.49,		228.96
347.46,		216.76,		353.93
351.58,		349.12,		107.81
349.46,		345.27,		232.6
347.89,		341.76,		357.53
351.92,		473.95,		111.65
350.1,		470.19,		236.32
347.94,		466.52,		361.58
101.76,		224.03,		224.61
103.22,		224.45,		349.41
105.08,		224.64,		474.47
104.54,		348.81,		224.04
106.2,		349.39,		349.0
107.62,		349.84,		473.96
107.46,		474.16,		223.95
109.08,		474.44,		348.6
110.68,		474.61,		473.85
226.58,		220.98,		222.89
228.33,		221.45,		348.05
229.72,		221.8,		473.07
229.64,		346.27,		222.68
231.15,		346.5,		347.42
232.54,		346.66,		472.58
232.62,		471.08,		222.29
234.12,		471.58,		347.02
235.68,		471.56,		472.35
351.65,		218.22,		221.35
353.06,		218.47,		346.2
354.79,		219.09,		471.41
354.38,		343.49,		221.06
356.24,		343.51,		346.15
357.85,		343.94,		470.8
357.5,		468.32,		220.57
358.99,		468.6,		345.56
360.39,		469.02,		470.47
98.29,		223.58,		348.84
95.8,		220.69,		473.98
93.7,		217.62,		598.81
100.43,		348.75,		352.0
98.0,		345.65,		477.01
95.72,		342.75,		601.85
102.32,		473.36,		354.78
99.96,		470.66,		479.91
97.64,		467.8,		604.65
223.22,		221.78,		351.15
220.97,		218.6,		476.38
218.49,		215.81,		601.17
225.36,		346.49,		354.42
222.9,		343.42,		479.1
220.44,		340.76,		604.07
227.15,		471.4,		357.37
224.86,		468.47,		482.01
222.65,		465.45,		607.16
348.37,		219.71,		353.68
346.02,		216.75,		478.4
343.37,		213.74,		603.5
350.06,		344.6,		356.52
347.85,		341.38,		481.4
345.66,		338.45,		606.43
352.11,		469.51,		359.49
349.9,		466.57,		484.38
347.61,		463.41,		609.39
101.46,		223.26,		476.06
99.61,		222.24,		600.98
97.44,		221.82,		726.24
101.93,		347.95,		476.73
99.82,		347.34,		601.68
97.86,		346.77,		726.87
101.83,		472.98,		477.29
100.11,		472.56,		602.37
97.95,		471.9,		727.21
226.54,		222.89,		478.22
224.73,		222.22,		602.93
222.43,		221.44,		727.87
226.9,		347.83,		478.77
224.73,		347.33,		603.63
222.72,		346.5,		728.75
226.9,		472.92,		479.43
224.85,		472.27,		604.29
222.88,		471.6,		729.24
351.62,		222.63,		479.97
349.58,		221.81,		605.26
347.67,		221.43,		730.0
351.7,		347.54,		480.73
349.66,		346.98,		605.59
347.6,		346.14,		730.51
352.01,		472.43,		481.41
349.74,		471.89,		606.27
347.92,		471.28,		731.37
98.19,		225.65,		601.93
97.7,		223.59,		726.87
96.98,		221.76,		852.05
95.71,		350.5,		603.97
95.06,		348.49,		728.73
94.82,		346.86,		853.78
93.32,		475.38,		605.62
92.77,		473.66,		730.71
92.39,		471.5,		855.52
222.95,		227.81,		602.59
222.43,		226.15,		727.56
221.84,		224.28,		852.57
220.56,		352.76,		604.35
220.25,		350.9,		729.29
219.41,		349.03,		854.35
218.19,		477.69,		606.19
217.69,		475.92,		731.07
217.22,		473.96,		855.93
348.05,		229.99,		602.96
347.66,		228.22,		727.99
346.96,		226.67,		853.18
345.68,		355.16,		605.11
345.05,		353.22,		729.79
344.55,		351.46,		854.87
343.2,		479.99,		606.79
342.81,		478.33,		731.75
342.03,		476.35,		856.54
100.5,		351.86,		101.81
97.34,		353.2,		227.01
94.21,		354.7,		351.68
100.26,		476.77,		100.56
97.52,		477.94,		225.63
94.44,		479.4,		350.35
100.28,		601.98,		98.94
97.43,		603.12,		224.13
94.34,		604.61,		348.86
225.47,		351.81,		104.79
222.44,		353.24,		229.59
219.17,		354.44,		354.76
225.41,		476.97,		103.62
222.22,		478.23,		228.19
219.37,		479.66,		353.17
225.35,		601.91,		102.26
222.29,		603.01,		227.2
219.22,		604.43,		352.19
350.25,		352.2,		107.9
347.4,		353.5,		232.64
344.35,		354.55,		357.85
350.4,		477.1,		106.55
347.38,		478.18,		231.26
344.38,		479.56,		356.33
350.29,		601.79,		105.03
347.23,		603.35,		230.19
344.21,		604.73,		355.11
100.99,		351.62,		224.98
104.23,		349.07,		349.89
107.8,		346.19,		474.77
102.67,		476.67,		227.47
105.82,		473.98,		352.45
109.22,		471.32,		477.39
104.06,		601.58,		230.09
107.59,		599.12,		355.19
111.0,		596.39,		480.23
225.86,		349.98,		221.52
229.48,		347.45,		346.59
232.69,		344.99,		471.45
227.68,		475.0,		224.08
230.83,		472.51,		349.29
234.13,		469.78,		473.93
229.16,		600.1,		226.75
232.58,		597.42,		351.71
235.57,		594.81,		476.9
350.92,		348.72,		218.46
354.05,		345.84,		343.14
357.69,		343.25,		468.22
352.49,		473.57,		220.92
355.77,		470.78,		345.78
359.11,		468.41,		470.81
354.17,		598.58,		223.53
357.36,		595.85,		348.36
360.88,		593.37,		473.31
98.29,		350.53,		348.9
98.2,		349.34,		474.33
98.25,		348.3,		599.06
101.71,		475.61,		350.28
101.8,		474.27,		475.2
101.76,		473.11,		600.27
105.08,		600.43,		351.4
105.23,		599.31,		476.47
104.95,		598.4,		601.52
223.24,		347.17,		349.25
223.05,		346.08,		474.2
223.18,		344.93,		599.27
226.7,		472.2,		350.2
226.64,		470.83,		475.5
226.36,		469.76,		600.29
229.99,		597.07,		351.52
230.09,		596.07,		476.56
230.09,		594.76,		601.4
348.15,		343.57,		349.31
348.11,		342.42,		474.35
348.02,		341.48,		599.16
351.6,		468.84,		350.37
351.64,		467.6,		475.37
351.3,		466.22,		600.38
355.12,		593.63,		351.62
355.0,		592.54,		476.66
355.12,		591.28,		601.28
98.91,		350.5,		473.8
100.04,		351.04,		598.6
101.41,		351.54,		723.7
98.41,		475.59,		473.12
100.0,		476.02,		597.9
101.21,		476.38,		722.96
98.5,		600.79,		472.45
99.62,		601.1,		597.61
101.06,		601.52,		722.72
223.86,		350.91,		472.06
225.14,		351.21,		597.1
226.38,		351.74,		722.14
223.7,		475.86,		471.67
224.92,		476.14,		596.78
226.26,		476.75,		721.81
223.33,		600.57,		471.29
224.71,		601.17,		596.12
226.22,		601.55,		721.41
348.83,		351.03,		470.91
350.25,		351.52,		595.79
351.28,		351.7,		720.87
348.74,		475.99,		470.43
349.67,		476.39,		595.6
351.13,		476.74,		720.31
348.32,		600.7,		470.01
349.91,		601.21,		594.96
351.27,		602.01,		719.75
101.37,		351.53,		599.32
102.27,		348.58,		724.33
102.97,		346.01,		849.39
103.4,		476.55,		602.24
104.29,		473.81,		727.22
104.77,		470.87,		852.24
105.37,		601.53,		604.98
106.17,		598.66,		730.36
106.81,		595.78,		855.1
226.83,		349.78,		598.8
227.54,		347.01,		723.56
228.04,		343.93,		848.78
228.29,		474.72,		601.63
229.14,		471.97,		726.37
229.95,		468.95,		851.55
230.44,		599.66,		604.32
231.21,		596.78,		729.32
231.83,		593.77,		854.13
351.67,		347.87,		597.86
352.28,		345.18,		722.89
353.14,		342.39,		847.95
353.24,		472.9,		600.76
354.2,		470.11,		725.82
354.73,		467.01,		850.78
355.12,		597.76,		603.41
356.11,		595.06,		728.54
356.95,		592.24,		853.57
100.63,		474.21,		99.83
103.32,		472.74,		224.88
106.34,		471.54,		349.8
100.06,		599.28,		101.37
102.55,		597.82,		226.43
105.55,		596.28,		351.12
99.17,		724.35,		102.89
101.76,		723.0,		227.87
104.48,		721.24,		352.63
225.72,		474.93,		97.07
228.6,		473.59,		222.18
231.05,		472.27,		347.09
224.83,		599.91,		98.51
227.55,		598.63,		223.6
230.18,		597.08,		348.47
224.15,		725.12,		100.05
226.87,		723.44,		224.97
229.53,		722.14,		350.16
350.49,		476.12,		94.6
353.47,		474.48,		219.45
356.26,		473.07,		344.45
349.91,		601.11,		95.94
352.41,		599.32,		220.81
355.47,		598.0,		345.64
349.22,		725.85,		97.22
351.96,		724.4,		222.32
354.69,		723.08,		347.31
101.59,		475.37,		225.78
101.57,		478.22,		350.66
101.59,		481.21,		475.74
101.68,		600.35,		222.9
101.67,		603.2,		347.7
101.58,		606.41,		473.0
102.02,		725.28,		219.99
102.02,		728.19,		344.74
102.07,		731.29,		469.84
226.6,		475.2,		226.06
226.6,		477.96,		350.78
226.56,		481.27,		475.89
226.78,		600.23,		223.09
226.87,		603.16,		347.72
226.64,		606.01,		472.78
227.06,		725.03,		219.82
226.82,		728.12,		344.84
226.84,		731.17,		469.85
351.31,		474.8,		225.8
351.38,		477.81,		351.05
351.57,		480.87,		476.04
351.65,		599.96,		222.82
351.92,		602.63,		348.02
351.73,		605.64,		472.66
351.96,		724.59,		219.8
351.91,		727.92,		344.8
351.77,		730.89,		469.95
99.52,		474.41,		351.22
98.19,		471.53,		476.22
96.86,		468.77,		600.85
99.29,		599.39,		354.02
97.89,		596.54,		478.75
96.43,		593.73,		603.93
99.03,		724.11,		356.59
97.55,		721.42,		481.67
95.99,		718.4,		606.53
224.78,		474.82,		352.63
223.42,		471.89,		477.56
221.98,		468.83,		602.3
224.2,		599.53,		355.26
223.05,		596.83,		480.06
221.51,		594.06,		605.29
224.03,		724.55,		357.91
222.38,		721.9,		483.01
221.35,		719.09,		608.01
349.57,		475.0,		353.91
348.17,		472.34,		478.6
346.89,		469.24,		603.64
349.18,		599.91,		356.57
347.86,		597.31,		481.77
346.62,		594.43,		606.66
349.02,		724.99,		359.6
347.33,		722.16,		484.61
346.35,		719.34,		609.4
99.25,		475.3,		476.71
101.63,		478.49,		601.49
103.55,		481.91,		726.58
96.4,		600.16,		473.52
98.52,		603.44,		598.36
100.98,		606.61,		723.03
93.73,		725.07,		470.11
95.73,		728.47,		595.03
98.02,		731.76,		720.01
224.12,		478.0,		474.26
226.35,		481.54,		599.1
228.64,		484.61,		724.37
221.33,		602.88,		470.98
223.63,		606.32,		596.12
225.77,		609.68,		720.99
218.51,		728.16,		467.99
220.7,		731.43,		592.62
222.96,		734.6,		717.66
349.08,		481.07,		471.91
351.42,		484.32,		597.18
353.57,		487.29,		722.08
346.41,		605.63,		468.98
348.55,		608.99,		593.89
350.7,		612.45,		718.58
343.36,		730.85,		465.71
345.64,		734.21,		590.6
348.01,		737.45,		715.36
99.29,		474.53,		599.58
98.79,		471.62,		724.68
98.33,		469.2,		849.56
97.81,		599.2,		602.48
97.23,		596.72,		727.54
96.83,		594.14,		852.38
96.37,		724.35,		604.79
95.58,		721.72,		729.87
95.23,		718.95,		854.94
224.11,		475.71,		600.13
223.51,		473.28,		725.2
223.15,		470.76,		850.16
222.64,		600.99,		602.77
222.0,		598.08,		727.7
221.57,		595.6,		852.62
221.04,		725.8,		605.51
220.83,		723.26,		730.63
220.35,		720.52,		855.51
349.17,		477.34,		600.87
348.52,		474.72,		725.66
347.99,		471.93,		850.72
347.69,		602.38,		603.5
347.06,		599.55,		728.18
346.8,		596.99,		853.23
346.38,		727.29,		606.06
345.6,		724.67,		731.13
345.14,		721.91,		855.98
98.32,		599.52,		101.8
96.65,		599.49,		226.85
94.55,		599.42,		351.74
94.99,		724.45,		101.79
93.4,		724.47,		226.72
91.27,		724.46,		352.02
91.67,		849.54,		101.93
89.83,		849.41,		226.97
87.88,		849.16,		351.89
223.31,		603.09,		103.78
221.35,		602.97,		228.87
219.45,		602.83,		353.49
219.95,		727.97,		103.74
217.97,		727.85,		228.83
216.09,		727.59,		353.63
216.63,		852.81,		103.73
214.72,		852.79,		228.94
212.78,		852.83,		353.74
348.3,		606.36,		105.56
346.56,		606.32,		230.42
344.45,		606.13,		355.31
344.84,		731.21,		105.73
343.09,		731.24,		230.47
341.41,		731.11,		355.71
341.42,		856.24,		105.51
339.72,		855.98,		230.5
337.98,		856.18,		355.71
100.55,		601.75,		223.9
97.22,		599.54,		349.0
94.29,		597.24,		474.1
102.23,		726.68,		226.38
99.26,		724.68,		351.38
95.95,		722.47,		476.43
104.15,		851.8,		228.56
101.09,		849.44,		353.76
97.83,		847.38,		478.41
225.52,		599.76,		227.17
222.34,		597.67,		352.14
219.15,		595.63,		477.34
227.18,		724.85,		229.52
224.06,		722.53,		354.31
220.96,		720.45,		479.4
229.27,		849.91,		231.95
225.79,		847.74,		356.82
222.52,		845.49,		481.93
350.54,		598.1,		230.44
347.41,		595.79,		355.44
343.92,		593.58,		480.25
352.41,		723.0,		232.88
348.9,		720.7,		357.79
345.68,		718.54,		482.71
354.1,		848.11,		235.01
350.66,		845.87,		360.04
347.71,		843.68,		485.08
98.44,		600.58,		351.52
101.31,		602.13,		476.36
104.59,		603.27,		601.15
101.73,		725.37,		349.69
104.76,		727.12,		474.63
107.87,		728.39,		599.79
105.22,		850.58,		348.35
108.39,		852.05,		473.28
111.4,		853.42,		598.32
223.23,		597.03,		348.28
226.43,		598.63,		473.26
229.31,		599.91,		598.02
226.89,		722.13,		346.54
229.87,		723.49,		471.81
233.03,		724.63,		596.63
230.33,		846.79,		345.35
233.39,		848.25,		470.05
236.47,		849.74,		595.24
348.05,		593.6,		345.22
351.34,		594.94,		469.97
354.24,		596.32,		595.1
351.73,		718.49,		343.61
354.88,		719.63,		468.62
357.77,		721.23,		593.61
355.05,		843.31,		342.0
358.37,		844.85,		467.03
361.43,		846.11,		592.18
101.92,		601.85,		475.29
98.63,		598.67,		600.0
94.97,		595.77,		724.87
103.77,		726.84,		478.4
100.62,		723.74,		603.34
97.19,		720.83,		728.17
105.94,		851.75,		481.43
102.58,		848.46,		606.37
99.02,		845.58,		731.12
226.98,		599.8,		478.58
223.45,		596.87,		603.52
219.99,		593.75,		728.42
228.69,		724.95,		481.67
225.5,		721.67,		606.46
222.1,		718.57,		731.41
230.87,		849.99,		484.79
227.53,		846.53,		609.48
223.89,		843.66,		734.64
351.91,		597.65,		481.97
348.41,		594.6,		606.82
344.89,		591.74,		731.79
353.93,		722.88,		485.07
350.28,		719.71,		610.17
346.89,		716.53,		735.01
355.67,		847.53,		488.25
352.26,		844.52,		613.03
348.86,		841.46,		738.12
99.84,		598.93,		600.06
101.76,		601.63,		725.13
103.57,		604.38,		850.18
99.47,		723.83,		597.33
101.13,		726.48,		722.53
103.13,		729.31,		847.33
98.5,		848.77,		594.83
100.5,		851.58,		719.84
102.34,		854.18,		844.74
225.0,		599.29,		598.52
226.62,		602.34,		723.18
228.69,		604.76,		848.36
224.13,		724.54,		595.51
226.13,		727.17,		720.64
228.09,		729.78,		845.34
223.44,		849.35,		592.92
225.58,		852.07,		717.77
227.36,		854.6,		842.88
349.77,		600.09,		596.43
351.76,		602.8,		721.28
353.74,		605.38,		846.25
349.28,		725.07,		593.84
351.22,		727.65,		718.55
353.01,		730.5,		843.54
348.47,		850.01,		591.11
350.42,		852.74,		715.94
352.33,		855.49,		840.97
226.2,		98.05,		101.52
225.61,		96.9,		226.52
224.72,		95.65,		351.59
228.27,		223.06,		102.8
227.68,		221.9,		227.62
227.08,		220.76,		352.66
230.33,		348.13,		104.08
229.94,		346.71,		228.86
229.17,		345.52,		354.25
351.12,		96.11,		102.2
350.44,		94.88,		227.21
349.73,		93.57,		352.04
353.3,		221.05,		103.38
352.88,		219.74,		228.31
351.88,		218.5,		353.63
355.54,		345.85,		104.72
354.69,		344.6,		229.76
354.01,		343.5,		354.75
476.19,		93.91,		102.7
475.48,		92.83,		227.74
475.01,		91.31,		352.9
478.31,		218.71,		104.05
477.67,		217.62,		229.13
476.94,		216.33,		354.2
480.46,		343.76,		105.36
479.95,		342.54,		230.45
479.09,		341.24,		355.26
223.51,		101.43,		225.16
222.77,		102.02,		350.27
221.97,		102.52,		475.3
225.77,		226.57,		224.74
225.05,		227.0,		349.66
224.09,		227.3,		474.97
228.14,		351.71,		224.46
226.98,		352.01,		349.39
226.39,		352.22,		474.29
348.64,		99.47,		225.77
347.72,		99.84,		351.05
346.88,		100.15,		476.04
350.89,		224.54,		225.42
349.8,		224.85,		350.61
349.0,		225.15,		475.61
352.72,		349.2,		225.22
352.16,		349.82,		350.43
351.35,		349.97,		475.09
473.39,		97.19,		226.75
472.59,		97.48,		351.94
471.94,		97.93,		476.7
475.83,		222.3,		226.28
475.0,		222.68,		351.57
474.24,		223.05,		476.25
477.73,		347.08,		226.05
476.98,		347.34,		351.13
476.17,		347.85,		475.89
223.41,		99.73,		348.78
220.66,		97.31,		473.8
217.39,		95.06,		598.78
223.59,		224.75,		351.26
220.32,		222.27,		476.08
217.51,		219.99,		601.12
223.5,		349.81,		353.6
220.51,		347.6,		478.54
217.48,		344.89,		603.23
348.56,		99.81,		351.73
345.62,		97.55,		476.58
342.33,		95.28,		601.54
348.4,		224.77,		354.27
345.37,		222.25,		478.95
342.49,		220.0,		604.06
348.25,		349.65,		356.37
345.53,		347.23,		481.5
342.62,		344.91,		606.26
473.42,		99.7,		354.79
470.54,		97.42,		479.68
467.6,		94.96,		604.62
473.51,		224.57,		357.1
470.59,		222.35,		482.01
467.49,		219.9,		607.14
473.38,		349.69,		359.22
470.54,		347.43,		484.19
467.52,		345.04,		609.19
223.63,		101.01,		476.46
225.86,		102.47,		601.13
227.79,		104.29,		726.36
224.6,		225.84,		474.59
226.92,		227.61,		599.41
228.93,		229.31,		724.31
225.69,		350.8,		472.67
227.86,		352.55,		597.65
229.94,		354.18,		722.62
348.53,		99.47,		474.3
350.84,		101.23,		599.1
352.86,		103.15,		724.23
349.59,		224.59,		472.36
352.04,		226.33,		597.43
354.06,		228.15,		722.44
350.87,		349.74,		470.61
353.02,		351.21,		595.46
354.92,		353.24,		720.61
473.76,		98.52,		472.12
475.61,		100.35,		597.09
477.88,		102.05,		722.08
474.67,		223.36,		470.45
476.85,		225.28,		595.38
478.9,		227.22,		720.09
475.89,		348.61,		468.4
477.7,		350.3,		593.3
479.92,		352.18,		718.36
223.29,		99.53,		599.47
225.89,		96.89,		724.48
228.15,		93.89,		849.21
224.41,		224.33,		602.27
226.56,		221.55,		727.21
229.0,		218.88,		852.01
224.88,		349.34,		605.07
227.42,		346.45,		729.96
229.78,		343.89,		854.65
348.47,		98.58,		597.07
350.68,		95.71,		721.95
352.88,		93.31,		847.07
349.22,		223.69,		599.92
351.56,		220.82,		724.89
353.93,		218.0,		849.9
350.13,		348.82,		602.48
352.5,		346.0,		727.38
354.66,		343.1,		852.6
473.23,		98.16,		594.78
475.66,		95.36,		719.71
478.13,		92.32,		844.68
474.18,		222.95,		597.42
476.46,		220.31,		722.59
478.66,		217.2,		847.44
475.06,		347.9,		600.21
477.28,		344.98,		725.04
479.49,		342.37,		850.32
223.25,		223.59,		100.18
223.44,		220.15,		225.3
223.34,		216.35,		349.93
226.19,		348.43,		103.85
226.2,		344.86,		228.84
226.48,		341.47,		353.76
229.11,		473.21,		107.17
229.3,		469.94,		232.44
229.53,		466.19,		357.25
348.13,		220.5,		100.15
348.39,		216.86,		224.94
348.4,		213.67,		350.12
350.99,		345.53,		103.62
351.27,		342.02,		228.61
351.49,		338.4,		353.54
354.01,		470.49,		107.11
354.01,		466.8,		232.09
354.27,		463.28,		356.93
473.11,		217.75,		99.85
473.05,		213.86,		224.56
473.29,		210.33,		349.52
475.95,		342.52,		103.34
475.99,		338.76,		228.04
476.22,		335.24,		353.33
479.06,		467.44,		106.97
479.03,		463.78,		231.75
479.26,		460.46,		356.95
225.09,		226.27,		223.37
225.52,		226.68,		348.2
225.39,		227.26,		473.11
222.08,		351.28,		222.62
222.09,		351.77,		347.64
222.2,		352.51,		472.73
218.79,		476.16,		222.35
219.14,		476.91,		347.24
218.99,		477.2,		472.05
350.21,		229.37,		223.29
350.48,		229.84,		348.17
350.28,		230.41,		473.09
346.87,		354.55,		222.54
347.31,		354.87,		347.78
347.23,		355.44,		472.49
344.09,		479.46,		222.26
343.87,		479.83,		347.13
343.98,		480.57,		472.1
475.11,		232.51,		223.23
475.17,		233.16,		347.88
475.25,		233.87,		473.23
472.23,		357.62,		222.4
472.3,		358.21,		347.5
472.18,		358.58,		472.45
469.03,		482.66,		221.88
469.04,		483.0,		347.09
469.16,		483.6,		471.98
223.28,		223.1,		348.2
224.42,		222.7,		472.97
225.43,		222.19,		597.98
224.32,		348.26,		348.62
225.47,		347.78,		473.61
226.65,		347.04,		598.69
225.53,		472.88,		349.21
226.98,		472.67,		474.05
228.1,		472.1,		599.14
348.02,		222.0,		346.94
349.21,		221.33,		471.8
350.41,		220.88,		597.18
349.35,		347.0,		347.31
350.47,		346.58,		472.53
351.64,		346.01,		597.43
350.5,		472.02,		348.11
351.75,		471.31,		473.1
353.04,		470.79,		597.91
473.03,		220.45,		345.98
474.31,		220.37,		470.7
475.44,		219.69,		595.87
474.24,		345.66,		346.41
475.6,		345.12,		471.13
476.87,		344.61,		596.42
475.56,		470.53,		346.95
476.67,		470.17,		471.79
478.0,		469.46,		596.66
226.92,		223.4,		473.73
227.39,		222.32,		598.48
228.37,		221.35,		723.66
226.49,		348.45,		474.88
227.42,		347.46,		599.91
228.14,		345.99,		724.72
226.25,		473.53,		476.09
226.93,		472.45,		600.89
227.78,		471.04,		726.07
351.75,		223.6,		472.74
352.5,		222.75,		598.09
353.41,		221.41,		722.9
351.47,		348.98,		473.96
352.16,		347.44,		598.94
352.98,		346.46,		724.02
351.15,		473.64,		475.14
351.98,		472.6,		600.31
352.5,		471.39,		725.24
476.68,		223.91,		471.92
477.6,		223.05,		597.14
478.15,		221.64,		721.88
476.26,		349.22,		473.1
477.12,		347.78,		598.35
478.04,		346.73,		723.02
476.01,		473.92,		474.53
476.72,		473.08,		599.55
477.76,		471.82,		724.57
223.73,		224.97,		600.83
224.35,		227.91,		725.71
225.12,		230.93,		850.61
222.02,		349.73,		598.0
223.01,		352.91,		722.95
223.62,		355.75,		847.86
220.34,		474.9,		594.89
221.06,		477.64,		719.95
221.87,		481.02,		844.86
348.64,		226.65,		600.09
349.58,		229.55,		724.97
350.04,		232.76,		850.1
347.25,		351.51,		596.87
347.81,		354.51,		721.82
348.58,		357.6,		846.7
345.52,		476.45,		594.06
346.23,		479.3,		718.89
346.84,		482.48,		843.69
473.52,		227.95,		599.22
474.32,		231.34,		724.13
475.15,		234.25,		848.89
472.09,		352.87,		596.38
472.72,		355.93,		720.97
473.5,		358.97,		846.12
470.39,		477.9,		593.19
471.13,		481.07,		718.18
471.79,		483.91,		843.07
226.48,		348.21,		99.99
224.87,		345.83,		225.22
223.07,		343.35,		349.9
225.76,		473.2,		102.56
223.71,		470.78,		227.67
221.98,		468.5,		352.67
224.8,		598.22,		104.94
222.81,		595.87,		230.07
221.06,		593.21,		355.12
351.55,		349.19,		102.06
349.83,		346.7,		226.9
347.86,		344.19,		351.81
350.51,		474.18,		104.4
348.82,		471.65,		229.45
346.8,		469.28,		354.3
349.61,		599.25,		106.8
347.88,		596.7,		231.62
346.07,		594.26,		356.79
476.54,		350.19,		103.75
474.76,		347.59,		228.82
472.98,		345.19,		353.59
475.63,		474.95,		106.32
474.0,		472.77,		231.24
471.87,		470.35,		356.15
474.53,		599.92,		108.8
472.95,		597.63,		233.64
470.97,		595.25,		358.57
225.33,		351.68,		224.91
225.34,		347.93,		349.96
225.5,		344.3,		475.02
226.15,		476.45,		228.71
226.11,		472.72,		353.45
226.41,		469.4,		478.48
226.62,		601.39,		232.0
227.0,		598.01,		357.25
227.02,		594.32,		482.2
350.28,		350.62,		224.78
350.25,		347.12,		349.99
350.61,		343.69,		474.58
351.02,		475.55,		228.3
351.35,		472.12,		353.19
351.44,		468.45,		478.29
351.84,		600.41,		232.01
351.85,		597.02,		356.99
352.08,		593.62,		481.87
475.21,		350.11,		224.74
475.31,		346.25,		349.55
475.45,		342.73,		474.59
476.21,		474.69,		228.28
476.04,		471.47,		353.31
476.23,		467.83,		478.06
476.82,		599.99,		231.77
477.1,		596.23,		356.61
477.08,		592.75,		481.64
223.93,		347.95,		349.22
220.92,		345.6,		473.78
217.81,		342.54,		598.92
226.27,		473.09,		351.95
223.33,		470.45,		476.89
220.37,		467.66,		601.83
228.98,		598.13,		354.89
226.05,		595.41,		479.67
223.09,		592.4,		604.75
349.06,		345.66,		352.14
345.67,		342.91,		476.95
342.94,		340.17,		601.96
351.3,		470.38,		354.92
348.18,		467.7,		479.69
345.46,		464.94,		604.91
353.8,		595.56,		357.65
350.7,		592.69,		482.66
347.85,		589.75,		607.53
473.8,		342.91,		355.11
470.98,		340.12,		479.92
467.84,		337.62,		604.96
476.32,		468.07,		358.01
473.38,		465.16,		482.8
470.27,		462.18,		607.86
478.77,		592.86,		360.8
475.91,		590.1,		485.46
472.72,		587.41,		610.73
226.22,		351.92,		476.08
224.18,		348.65,		601.21
222.29,		345.57,		725.9
229.64,		476.66,		479.52
227.57,		473.56,		604.46
225.92,		470.39,		729.38
232.89,		601.91,		482.58
231.08,		598.58,		607.77
229.19,		595.29,		732.77
351.37,		348.36,		477.69
349.11,		345.14,		602.82
347.32,		342.11,		727.98
354.34,		473.32,		481.38
352.48,		470.29,		606.15
350.76,		467.05,		731.19
357.96,		598.34,		484.48
356.02,		595.06,		609.59
354.13,		591.97,		734.44
476.3,		345.04,		479.83
474.33,		341.79,		604.78
472.44,		338.84,		729.65
479.38,		470.18,		483.17
477.44,		467.03,		607.99
475.55,		463.45,		733.02
482.93,		594.95,		486.37
480.74,		591.6,		611.18
478.82,		588.4,		736.22
224.09,		350.32,		601.08
220.2,		354.08,		726.0
216.63,		357.46,		850.85
221.37,		475.32,		597.3
217.84,		478.82,		722.24
213.9,		482.6,		847.29
218.7,		600.15,		593.92
215.16,		603.93,		718.69
211.32,		607.33,		843.65
349.11,		353.05,		604.9
345.25,		356.59,		729.46
341.51,		360.38,		854.49
346.4,		478.15,		601.14
342.63,		481.53,		725.9
338.96,		485.12,		851.08
343.88,		602.97,		597.51
340.11,		606.55,		722.53
336.1,		610.25,		847.54
473.74,		356.13,		608.26
469.99,		359.47,		733.3
466.52,		362.82,		858.2
471.16,		480.93,		604.97
467.55,		484.52,		729.53
463.92,		488.03,		854.67
468.8,		605.93,		601.37
464.95,		609.22,		726.12
461.14,		612.99,		850.8
223.12,		473.66,		98.26
226.88,		475.14,		223.13
230.54,		476.38,		348.14
223.87,		598.86,		97.05
227.64,		599.99,		222.03
231.34,		601.41,		346.96
224.77,		723.57,		95.75
228.26,		725.23,		220.66
232.14,		726.59,		345.58
348.16,		473.14,		94.52
351.91,		474.15,		219.56
355.62,		475.45,		344.7
348.65,		597.87,		93.38
352.69,		599.36,		218.15
356.19,		600.65,		343.01
349.62,		722.93,		91.85
353.13,		724.44,		216.97
357.0,		725.51,		341.92
472.95,		472.08,		90.91
476.67,		473.53,		215.99
480.29,		474.8,		340.95
473.98,		597.17,		89.75
477.28,		598.4,		214.76
481.19,		599.59,		339.54
474.86,		722.18,		88.43
478.04,		723.32,		213.15
481.76,		724.64,		338.07
223.99,		474.18,		223.93
225.42,		471.91,		349.07
226.91,		469.35,		473.83
221.97,		599.06,		226.45
223.19,		596.67,		351.24
224.68,		594.34,		476.39
219.66,		724.24,		228.94
221.12,		721.56,		353.88
222.66,		719.15,		478.89
349.0,		476.5,		222.63
350.3,		474.06,		347.54
352.09,		471.6,		472.5
346.68,		601.41,		225.1
348.22,		598.95,		350.06
349.89,		596.31,		475.08
344.56,		726.23,		227.28
346.34,		724.01,		352.41
347.45,		721.51,		477.26
473.87,		478.37,		221.13
475.56,		476.16,		346.2
476.76,		473.63,		471.15
471.79,		603.44,		223.57
473.48,		601.07,		348.59
474.82,		598.84,		473.68
469.45,		728.68,		226.16
471.03,		725.9,		351.07
472.54,		723.66,		475.76
224.94,		474.69,		348.26
225.6,		471.58,		473.56
225.85,		468.76,		598.44
228.3,		599.62,		351.46
228.84,		596.6,		476.28
229.26,		593.72,		601.45
231.54,		724.4,		354.47
232.19,		721.27,		479.45
232.77,		718.3,		604.44
349.92,		471.57,		347.68
350.53,		468.4,		472.78
351.09,		465.36,		597.91
353.38,		596.19,		350.83
353.54,		593.2,		475.79
354.47,		590.19,		600.85
356.52,		721.07,		353.65
357.27,		718.07,		478.84
357.76,		715.08,		603.62
474.91,		468.0,		347.29
475.42,		465.11,		472.28
475.91,		461.81,		596.92
478.26,		593.06,		350.36
478.57,		589.98,		475.04
479.13,		586.81,		600.04
481.36,		717.84,		353.1
481.96,		714.86,		478.29
482.66,		711.68,		603.09
223.19,		473.2,		474.24
224.07,		471.71,		599.2
225.2,		470.13,		724.12
219.35,		598.44,		475.93
220.59,		596.62,		600.91
221.54,		594.96,		725.85
215.92,		723.08,		477.78
216.97,		721.53,		602.6
217.74,		719.86,		727.48
348.12,		477.11,		473.35
348.99,		475.27,		598.27
350.07,		473.49,		723.11
344.57,		601.65,		475.04
345.62,		600.28,		599.8
346.39,		598.79,		724.98
340.81,		726.96,		476.42
341.9,		725.26,		601.52
342.95,		723.51,		726.53
472.84,		480.57,		472.34
474.06,		478.96,		597.38
475.09,		477.24,		722.33
469.5,		605.61,		473.83
470.38,		603.92,		599.09
471.32,		602.34,		723.85
465.67,		730.19,		475.65
466.84,		728.8,		600.65
467.94,		727.34,		725.61
223.21,		474.43,		600.04
224.88,		475.96,		724.93
226.67,		477.45,		850.08
220.56,		599.52,		598.64
221.89,		600.78,		723.6
223.49,		602.34,		848.66
217.41,		724.47,		597.42
218.86,		725.93,		722.27
220.55,		727.23,		847.45
348.26,		477.3,		598.33
349.6,		478.93,		723.56
351.6,		480.24,		848.44
345.46,		602.45,		596.93
347.07,		603.87,		721.89
348.52,		605.01,		847.25
342.46,		727.31,		595.64
343.95,		728.76,		720.61
345.57,		730.28,		845.56
473.03,		480.29,		596.8
475.0,		481.77,		721.64
476.49,		482.93,		846.85
470.22,		605.45,		595.43
471.99,		606.52,		720.53
473.32,		608.17,		845.24
467.59,		730.38,		594.15
468.81,		731.43,		719.29
470.78,		732.93,		844.21
225.69,		599.48,		99.64
226.61,		599.42,		224.61
227.32,		599.13,		349.68
224.22,		724.7,		99.74
225.16,		724.42,		225.06
225.82,		724.43,		350.05
222.82,		849.75,		100.2
223.69,		849.47,		225.12
224.49,		849.1,		349.91
350.65,		601.14,		98.98
351.47,		600.67,		224.0
352.44,		600.74,		348.66
349.16,		726.15,		99.02
350.2,		725.77,		224.12
350.79,		725.62,		348.89
347.87,		850.92,		99.34
348.72,		850.97,		224.14
349.5,		850.57,		349.09
475.73,		602.35,		98.02
476.41,		602.2,		223.01
477.16,		602.1,		347.93
474.02,		727.33,		98.35
475.14,		727.42,		223.15
476.07,		727.18,		348.37
472.94,		852.43,		98.35
473.84,		852.26,		223.41
474.49,		851.9,		348.43
223.31,		599.87,		224.52
225.92,		599.36,		349.59
228.15,		598.58,		474.39
225.5,		724.88,		225.03
227.79,		724.24,		350.11
230.01,		723.54,		474.95
227.12,		849.77,		225.56
229.49,		849.15,		350.65
231.95,		848.65,		475.65
348.26,		597.98,		222.3
350.77,		597.26,		347.13
353.01,		596.72,		472.3
350.29,		722.74,		222.81
352.8,		722.53,		347.95
354.91,		721.94,		472.91
352.27,		847.86,		223.36
354.39,		847.15,		348.15
356.85,		846.85,		473.32
473.37,		596.12,		220.09
475.55,		595.54,		345.13
477.91,		595.11,		469.89
475.39,		720.91,		220.33
477.79,		720.63,		345.69
479.63,		719.77,		470.23
477.13,		846.09,		221.15
479.43,		845.42,		345.89
481.81,		844.93,		470.86
225.43,		600.13,		348.97
223.27,		599.5,		473.85
220.96,		599.18,		598.99
224.98,		725.04,		349.33
222.6,		724.64,		474.37
220.49,		724.29,		599.16
224.72,		849.77,		349.46
222.38,		849.49,		474.45
220.34,		849.33,		599.44
350.51,		600.54,		351.16
348.11,		600.01,		475.83
345.92,		599.7,		601.16
349.91,		725.32,		351.3
347.87,		724.96,		476.24
345.48,		724.58,		601.32
349.48,		850.47,		351.75
347.46,		850.17,		476.81
345.05,		849.76,		601.83
475.2,		600.88,		353.29
473.12,		600.57,		478.31
470.97,		600.33,		603.31
474.87,		725.72,		353.54
472.7,		725.65,		478.46
470.75,		725.19,		603.8
474.48,		850.74,		354.13
472.37,		850.29,		478.99
470.11,		850.15,		603.73
225.52,		600.63,		473.42
226.15,		599.58,		598.55
226.48,		598.35,		723.36
223.85,		725.53,		474.3
224.03,		724.4,		599.44
224.64,		723.52,		724.57
221.59,		850.67,		475.67
222.39,		849.34,		600.6
222.7,		848.46,		725.54
350.71,		602.48,		473.05
351.07,		601.4,		597.8
351.61,		600.38,		722.71
348.59,		727.42,		474.11
349.19,		726.33,		598.92
349.48,		725.59,		723.87
346.71,		852.38,		475.01
347.06,		851.56,		600.08
347.83,		850.55,		725.02
475.8,		604.23,		472.5
476.14,		603.26,		597.47
476.47,		602.45,		722.46
473.43,		729.49,		473.33
474.35,		728.37,		598.37
474.67,		727.37,		723.35
471.8,		854.48,		474.53
472.31,		853.22,		599.41
472.77,		852.26,		724.54
224.64,		600.98,		601.9
227.7,		599.91,		726.85
230.83,		598.77,		852.0
223.28,		726.1,		603.26
226.15,		724.81,		728.21
228.99,		723.95,		853.08
221.35,		851.02,		604.21
224.46,		850.0,		729.38
227.53,		848.97,		854.23
349.71,		602.91,		599.13
352.69,		601.55,		723.97
355.77,		600.32,		848.83
347.94,		727.57,		600.14
351.02,		726.46,		725.21
353.89,		725.41,		850.13
346.4,		852.64,		601.4
349.57,		851.69,		726.24
352.45,		850.25,		851.15
474.67,		604.27,		595.97
477.51,		603.09,		721.03
480.51,		602.18,		845.92
473.01,		729.41,		597.09
476.08,		727.92,		722.02
479.18,		726.84,		847.29
471.39,		854.36,		598.21
474.38,		853.05,		723.24
477.43,		852.18,		848.36
350.76,		98.44,		100.04
351.73,		98.14,		225.06
352.4,		98.07,		349.68
348.41,		223.54,		100.07
349.24,		223.39,		225.14
350.05,		223.02,		350.01
346.29,		348.53,		100.46
347.26,		348.13,		225.3
347.91,		348.16,		350.11
475.79,		100.74,		99.19
476.58,		100.55,		224.16
477.57,		100.27,		349.25
473.38,		225.63,		99.36
474.31,		225.56,		224.26
475.08,		225.36,		349.17
471.29,		350.6,		99.69
472.16,		350.54,		224.33
472.83,		350.17,		349.58
600.75,		102.94,		98.45
601.64,		102.89,		223.35
602.25,		102.62,		348.21
598.63,		227.97,		98.55
599.45,		227.98,		223.55
599.93,		227.72,		348.52
596.17,		352.92,		98.61
597.05,		352.58,		223.65
597.67,		352.59,		348.8
348.14,		101.08,		225.39
351.32,		97.82,		350.32
354.92,		94.82,		475.39
350.91,		225.94,		228.63
354.49,		223.04,		353.4
357.98,		219.56,		478.33
354.07,		351.1,		231.75
357.45,		347.71,		356.74
360.96,		344.54,		481.75
473.16,		98.09,		222.01
476.41,		95.2,		347.05
479.7,		91.87,		471.85
475.97,		223.33,		225.19
479.33,		219.98,		350.26
482.75,		216.74,		475.06
479.03,		348.09,		228.25
482.43,		344.96,		353.22
485.63,		341.62,		477.98
597.85,		95.34,		218.66
601.33,		92.01,		343.32
604.82,		88.75,		468.25
601.06,		220.24,		221.6
604.19,		216.99,		346.79
607.57,		213.64,		471.57
603.85,		345.08,		224.86
607.4,		341.83,		349.61
610.88,		338.57,		474.57
352.01,		101.85,		350.82
349.0,		99.9,		475.75
346.29,		98.18,		600.93
353.36,		226.69,		352.75
350.31,		224.87,		477.85
347.73,		222.93,		602.61
354.57,		351.81,		354.96
351.79,		349.92,		479.88
349.06,		348.15,		604.87
476.68,		100.57,		353.81
474.1,		98.49,		478.71
471.47,		96.63,		603.44
478.0,		225.71,		355.61
475.61,		223.59,		480.51
472.72,		221.76,		605.45
479.53,		350.46,		357.53
476.93,		348.61,		482.44
473.91,		346.74,		607.54
601.75,		99.38,		356.13
598.97,		97.43,		481.27
596.43,		95.33,		606.2
602.99,		224.37,		358.21
600.5,		222.12,		483.02
597.49,		220.38,		608.05
604.42,		349.17,		360.22
601.79,		347.19,		485.07
598.9,		345.42,		610.14
348.76,		98.12,		476.91
346.45,		97.26,		601.74
344.51,		96.17,		726.86
345.07,		223.15,		477.76
343.05,		222.15,		603.02
340.75,		221.1,		727.92
341.27,		348.28,		478.88
339.22,		346.9,		603.71
337.26,		346.04,		728.58
473.6,		101.98,		479.06
471.25,		100.97,		603.83
469.2,		99.67,		728.98
469.89,		226.72,		479.99
467.81,		225.88,		604.89
465.51,		224.65,		729.89
466.22,		351.62,		480.82
463.99,		350.65,		606.0
462.09,		349.52,		730.75
598.3,		105.48,		481.08
596.34,		104.64,		605.95
594.14,		103.48,		731.16
594.79,		230.48,		481.94
592.78,		229.31,		607.04
590.61,		228.58,		732.03
591.17,		355.46,		482.92
589.03,		354.24,		608.21
587.04,		353.13,		733.17
348.57,		101.53,		599.68
350.53,		100.99,		724.3
352.9,		100.07,		849.2
351.97,		226.58,		600.04
354.14,		225.93,		725.19
356.36,		224.99,		850.12
355.44,		351.56,		601.15
357.94,		350.84,		725.93
360.21,		349.87,		850.79
473.2,		98.35,		597.06
475.83,		97.64,		722.18
478.01,		96.52,		847.31
476.8,		223.28,		597.73
479.26,		222.22,		722.75
481.46,		221.49,		847.65
480.61,		348.16,		598.64
482.67,		347.26,		723.66
484.96,		346.35,		848.79
598.35,		94.71,		594.86
600.64,		93.62,		719.71
602.67,		93.12,		844.97
602.01,		219.4,		595.69
604.21,		218.67,		720.52
606.31,		218.14,		845.83
605.62,		344.44,		596.42
607.81,		343.55,		721.58
609.91,		342.97,		846.36
349.04,		226.1,		99.84
349.52,		224.95,		225.05
349.84,		223.79,		350.14
349.11,		351.43,		101.25
349.51,		349.9,		226.51
349.9,		348.74,		351.42
349.45,		476.12,		102.68
349.64,		474.86,		227.69
350.08,		473.54,		352.75
474.22,		226.11,		99.49
474.5,		224.95,		224.73
474.82,		223.5,		349.74
474.1,		350.89,		101.11
474.81,		349.83,		226.09
475.1,		348.44,		350.96
474.3,		475.95,		102.34
474.84,		474.78,		227.4
475.17,		473.34,		352.1
598.88,		225.85,		99.18
599.56,		224.64,		224.15
599.81,		223.15,		349.12
599.46,		351.13,		100.46
599.48,		349.55,		225.43
600.09,		348.13,		350.44
599.25,		476.09,		101.98
599.67,		474.63,		226.84
600.09,		473.26,		351.94
351.06,		224.08,		224.41
347.86,		223.51,		349.25
344.49,		222.72,		474.09
354.14,		348.85,		225.02
350.76,		348.5,		349.99
347.63,		347.77,		474.81
357.35,		474.17,		225.88
354.26,		473.32,		351.0
351.0,		472.72,		475.77
475.79,		220.74,		227.61
472.74,		220.15,		352.54
469.49,		219.68,		477.58
479.03,		345.83,		228.39
476.03,		345.24,		353.04
472.5,		344.69,		478.11
482.15,		470.92,		229.17
479.13,		470.01,		354.2
475.69,		469.31,		478.98
600.98,		217.85,		230.91
597.47,		216.98,		355.53
594.49,		216.42,		480.64
604.0,		342.69,		231.33
600.91,		341.76,		356.48
597.71,		341.3,		481.59
607.16,		467.63,		232.36
603.93,		466.79,		357.12
600.55,		466.22,		482.06
348.5,		226.31,		351.8
347.15,		225.37,		476.64
345.8,		224.73,		601.65
350.57,		351.24,		352.51
349.15,		350.65,		477.55
347.64,		349.75,		602.68
352.11,		476.41,		353.48
350.76,		475.42,		478.38
349.62,		474.77,		603.43
473.72,		224.36,		352.98
472.15,		223.56,		478.11
470.91,		222.88,		603.03
475.55,		349.48,		353.88
473.99,		348.54,		479.15
472.82,		347.81,		603.91
477.31,		474.55,		355.07
475.71,		473.71,		480.05
474.48,		472.69,		604.96
598.32,		222.77,		354.44
597.15,		221.93,		479.34
595.65,		220.75,		604.37
600.33,		347.74,		355.13
598.95,		346.84,		480.36
597.71,		345.85,		605.27
602.03,		472.61,		356.25
600.8,		471.74,		481.03
599.47,		470.96,		606.16
350.64,		223.25,		476.26
353.35,		224.3,		601.6
356.17,		225.59,		726.45
351.0,		348.11,		475.03
353.43,		349.22,		600.3
356.38,		350.65,		725.23
350.68,		473.11,		473.8
353.66,		474.49,		598.68
356.32,		475.75,		723.79
475.73,		223.19,		473.95
478.39,		224.39,		598.71
481.18,		225.69,		723.85
475.67,		348.09,		472.58
478.55,		349.23,		597.39
480.99,		350.87,		722.17
475.66,		472.88,		471.23
478.41,		474.43,		596.31
481.18,		475.83,		721.04
600.7,		222.92,		471.21
603.34,		224.47,		595.88
606.32,		225.54,		720.97
600.88,		348.04,		469.64
603.39,		349.42,		594.78
605.97,		350.58,		719.82
600.59,		473.04,		468.48
603.34,		474.25,		593.43
606.31,		475.56,		718.53
348.46,		227.13,		598.73
347.07,		228.72,		723.9
345.84,		230.28,		848.9
345.92,		351.92,		597.04
344.66,		353.79,		722.08
343.28,		355.38,		846.9
343.85,		476.85,		595.49
342.2,		478.67,		720.58
341.08,		480.38,		845.53
473.44,		229.35,		600.04
471.9,		231.04,		725.07
470.76,		232.72,		849.93
471.08,		354.5,		598.5
469.78,		355.88,		723.48
468.25,		357.65,		848.61
468.51,		479.24,		596.78
467.45,		480.82,		721.63
466.05,		482.75,		846.62
598.35,		231.47,		601.54
597.2,		233.42,		726.45
595.68,		235.1,		851.4
595.99,		356.76,		599.64
594.75,		358.48,		724.68
593.47,		359.91,		849.82
593.69,		481.53,		597.92
592.24,		483.31,		723.07
590.94,		485.03,		847.9
349.77,		351.86,		99.85
353.08,		352.24,		224.8
356.22,		353.19,		349.79
352.07,		476.64,		99.0
355.15,		477.54,		223.93
358.19,		477.9,		349.01
354.14,		601.85,		98.49
357.13,		602.41,		223.28
360.52,		602.85,		348.41
474.86,		349.55,		96.72
478.07,		350.18,		221.55
481.31,		350.97,		346.49
476.87,		474.31,		95.74
480.16,		475.15,		221.14
483.48,		475.84,		346.0
479.11,		599.51,		95.41
482.1,		600.34,		220.14
485.52,		600.8,		345.4
599.65,		347.55,		93.74
602.74,		347.92,		218.62
605.99,		348.84,		343.55
601.63,		472.59,		92.69
605.11,		473.18,		217.86
608.27,		473.67,		342.9
604.1,		597.36,		91.92
607.18,		598.02,		216.89
610.48,		598.87,		341.9
349.53,		349.49,		224.54
351.99,		352.02,		349.75
354.13,		354.27,		474.41
352.37,		474.73,		222.1
354.77,		476.74,		347.23
356.88,		479.1,		472.13
355.34,		599.48,		220.05
357.7,		601.97,		344.73
359.76,		604.28,		469.68
474.69,		346.6,		222.48
476.79,		348.86,		347.27
479.07,		351.42,		472.24
477.32,		471.78,		219.98
479.65,		473.91,		345.01
482.05,		476.32,		469.89
480.34,		596.61,		217.72
482.43,		598.88,		342.47
484.85,		601.42,		467.59
599.49,		343.75,		220.32
601.74,		346.15,		345.12
604.21,		348.66,		470.34
602.49,		468.88,		217.74
604.55,		471.22,		342.58
606.97,		473.48,		467.76
605.17,		593.5,		215.28
607.39,		596.23,		340.38
609.95,		598.29,		465.37
348.98,		350.88,		351.37
346.17,		352.8,		475.98
343.39,		354.61,		601.29
352.08,		475.83,		349.64
349.38,		477.69,		474.45
346.51,		479.54,		599.28
354.98,		600.91,		347.8
352.4,		602.64,		472.8
349.69,		604.34,		597.82
474.04,		347.78,		353.92
471.08,		349.77,		478.8
468.45,		351.58,		603.75
477.15,		473.0,		352.26
474.33,		474.46,		477.3
471.29,		476.38,		602.35
479.94,		597.66,		350.42
477.11,		599.41,		475.72
474.51,		601.49,		600.31
599.04,		344.67,		356.91
596.07,		346.54,		481.67
593.42,		348.6,		606.53
602.09,		469.92,		355.06
599.04,		471.62,		479.91
596.43,		473.5,		605.05
605.02,		594.75,		353.22
602.46,		596.57,		478.52
599.39,		598.24,		603.19
349.29,		351.47,		474.67
346.39,		351.41,		599.77
343.33,		351.14,		724.57
347.09,		476.54,		474.54
344.18,		476.33,		599.49
341.17,		476.33,		724.76
344.95,		601.28,		474.62
341.89,		601.51,		599.46
338.82,		601.09,		724.53
474.08,		353.67,		477.66
471.31,		353.43,		602.34
468.28,		353.55,		727.29
471.96,		478.59,		477.66
469.15,		478.53,		602.57
465.89,		478.53,		727.53
469.62,		603.61,		477.46
466.99,		603.57,		602.74
463.9,		603.29,		727.65
599.04,		355.9,		480.52
595.98,		355.59,		605.29
593.01,		355.74,		730.36
596.89,		480.82,		480.75
594.02,		480.94,		605.44
590.85,		480.72,		730.55
594.91,		605.95,		480.84
591.79,		605.58,		605.45
588.83,		605.47,		730.67
351.64,		348.71,		599.41
350.66,		347.04,		724.23
350.13,		345.25,		849.26
351.49,		474.0,		601.11
350.98,		471.82,		726.31
350.38,		470.03,		851.11
352.03,		598.98,		603.15
351.3,		596.87,		728.09
350.43,		595.15,		853.03
476.4,		348.68,		600.12
475.99,		346.9,		725.01
475.2,		344.88,		849.76
476.84,		473.71,		602.04
476.09,		471.58,		726.92
475.45,		470.03,		852.01
477.1,		598.82,		603.99
476.21,		596.62,		728.89
475.3,		594.8,		853.86
601.5,		348.73,		600.62
600.82,		346.61,		725.52
599.97,		344.61,		850.5
601.62,		473.47,		602.61
601.08,		471.38,		727.74
600.32,		469.54,		852.63
601.82,		598.71,		604.71
601.28,		596.48,		729.57
600.65,		594.61,		854.49
349.63,		476.85,		100.83
350.72,		477.75,		225.96
352.06,		478.68,		350.78
350.57,		601.63,		99.81
351.99,		602.91,		224.75
352.93,		603.94,		349.99
351.83,		726.87,		98.82
353.1,		727.63,		223.76
354.19,		728.67,		348.98
474.9,		475.76,		99.79
475.63,		476.51,		224.86
476.91,		477.53,		349.91
476.04,		600.82,		98.72
476.87,		601.66,		223.88
478.0,		602.66,		348.88
476.96,		725.62,		97.77
477.77,		726.66,		222.9
478.94,		727.63,		347.78
599.43,		474.61,		98.65
600.89,		475.75,		223.8
601.99,		476.51,		348.93
600.94,		599.46,		97.59
601.79,		600.68,		222.6
602.93,		601.68,		347.63
601.83,		724.73,		96.8
602.89,		725.46,		221.66
603.96,		726.63,		346.64
349.49,		473.76,		223.96
349.97,		474.45,		348.91
350.37,		475.54,		474.16
350.26,		598.65,		223.17
350.89,		599.63,		348.14
351.05,		600.59,		473.22
351.29,		723.46,		222.05
351.57,		724.42,		347.14
352.17,		725.53,		471.95
474.67,		472.73,		223.55
475.12,		473.87,		348.82
475.62,		474.83,		473.52
475.62,		597.59,		222.79
475.91,		598.92,		347.67
476.08,		599.69,		472.74
476.33,		722.92,		221.7
476.72,		723.53,		346.76
476.84,		724.82,		471.62
599.66,		472.19,		223.27
599.97,		473.14,		348.14
600.6,		473.76,		473.44
600.36,		597.17,		222.1
600.79,		597.92,		347.45
601.31,		598.81,		472.11
601.08,		722.19,		221.46
601.68,		723.11,		346.22
601.88,		723.9,		471.14
351.13,		475.51,		348.8
348.36,		472.64,		474.01
346.06,		469.79,		598.95
350.94,		600.64,		351.63
348.4,		597.69,		476.61
345.88,		594.97,		601.51
350.8,		725.35,		354.49
348.38,		722.54,		479.52
345.63,		719.67,		604.62
475.89,		475.59,		351.59
473.63,		472.63,		476.4
470.78,		469.78,		601.37
476.02,		600.5,		354.52
473.34,		597.81,		479.24
470.79,		594.94,		604.22
475.71,		725.67,		357.3
473.31,		722.76,		482.21
470.71,		720.0,		607.16
600.9,		475.78,		353.92
598.51,		472.69,		478.79
596.03,		470.07,		603.8
600.74,		600.72,		356.74
598.36,		597.98,		481.61
595.98,		594.85,		606.78
600.72,		725.75,		359.84
598.31,		722.82,		484.59
595.64,		719.91,		609.48
350.61,		474.06,		473.34
353.97,		473.41,		598.44
357.65,		472.62,		723.28
347.57,		599.03,		474.42
351.31,		598.21,		599.2
355.0,		597.56,		724.15
344.61,		723.94,		475.22
348.1,		723.09,		600.3
351.76,		722.31,		725.35
475.52,		477.25,		469.93
479.27,		476.27,		594.78
482.67,		475.33,		719.62
472.29,		602.16,		470.88
476.31,		601.36,		595.75
479.66,		600.66,		720.45
469.57,		726.93,		471.82
473.22,		726.36,		596.73
476.92,		725.27,		721.51
600.33,		479.92,		466.07
603.82,		479.27,		591.04
607.9,		478.65,		716.0
597.55,		605.0,		467.08
601.24,		604.28,		592.1
604.75,		603.69,		717.09
594.43,		730.08,		467.83
598.09,		729.08,		593.18
601.6,		728.31,		717.95
351.89,		474.9,		598.27
354.59,		477.74,		723.39
356.73,		480.13,		848.03
353.03,		599.74,		595.61
355.65,		602.77,		720.51
358.28,		605.28,		845.6
354.16,		724.72,		592.72
356.89,		727.43,		717.79
359.44,		730.07,		842.63
476.96,		473.56,		595.99
479.62,		476.21,		720.59
481.82,		479.14,		845.66
478.08,		598.56,		593.11
480.49,		601.39,		718.18
483.11,		604.17,		843.03
479.27,		723.41,		590.26
481.93,		726.32,		715.43
484.14,		729.14,		840.19
602.02,		472.34,		593.49
604.31,		475.02,		718.18
606.91,		477.95,		843.16
603.29,		597.56,		590.72
605.8,		600.28,		715.59
608.3,		602.82,		840.63
604.18,		722.59,		587.8
606.91,		725.2,		712.82
609.23,		727.91,		837.76
350.87,		601.09,		101.72
351.36,		603.71,		226.62
351.57,		606.12,		351.77
353.78,		725.8,		99.08
354.29,		728.52,		224.11
354.56,		731.26,		349.03
356.95,		850.86,		96.17
357.15,		853.52,		221.28
357.82,		856.32,		346.25
475.96,		597.83,		101.3
476.2,		600.61,		226.35
476.72,		603.37,		351.28
478.88,		722.76,		98.72
479.19,		725.41,		223.72
479.66,		728.35,		348.86
481.79,		847.75,		96.18
482.14,		850.63,		220.85
482.57,		853.17,		345.9
600.9,		595.16,		101.22
601.19,		597.56,		225.96
601.38,		600.41,		350.99
603.78,		719.65,		98.52
604.22,		722.38,		223.51
604.43,		725.29,		348.47
606.8,		844.75,		95.7
607.37,		847.63,		220.69
607.69,		850.11,		345.86
351.19,		601.57,		224.83
353.07,		600.58,		350.07
354.73,		599.58,		474.88
350.11,		726.96,		225.95
351.85,		725.89,		351.04
353.63,		724.74,		475.95
348.79,		851.72,		227.19
350.76,		850.68,		352.14
352.55,		849.68,		477.13
476.38,		603.07,		223.2
477.87,		602.11,		348.24
479.89,		600.93,		473.38
474.87,		728.06,		224.38
476.74,		726.86,		349.24
478.46,		725.93,		474.31
473.95,		852.84,		225.17
475.67,		852.12,		350.23
477.54,		850.78,		475.05
601.33,		604.11,		221.48
603.12,		602.99,		346.61
604.83,		602.27,		471.31
600.2,		728.98,		222.66
601.92,		728.28,		347.56
603.59,		727.24,		472.45
598.69,		854.13,		223.43
600.47,		853.17,		348.34
602.35,		852.16,		473.51
348.79,		598.17,		349.66
350.13,		600.4,		474.3
351.65,		602.9,		599.37
349.25,		722.97,		347.23
350.64,		725.45,		472.31
351.88,		727.74,		597.2
349.49,		848.02,		344.79
351.09,		850.19,		469.84
352.38,		852.6,		594.75
473.73,		597.62,		347.92
475.19,		599.98,		472.88
476.75,		602.13,		597.93
474.05,		722.6,		345.71
475.54,		724.81,		470.85
476.91,		727.24,		595.72
474.55,		847.56,		343.41
475.96,		849.99,		468.43
477.25,		852.39,		593.53
598.76,		597.14,		346.56
600.33,		599.59,		471.6
601.59,		601.93,		596.67
599.44,		722.21,		344.63
600.48,		724.53,		469.27
601.82,		726.9,		594.52
599.66,		847.14,		341.9
600.81,		849.46,		466.92
602.28,		851.88,		591.95
351.42,		601.09,		472.96
354.01,		598.53,		598.2
356.6,		595.87,		723.17
348.51,		726.2,		475.84
351.12,		723.44,		600.64
353.82,		720.88,		725.84
345.45,		851.17,		478.53
348.33,		848.62,		603.24
350.66,		845.8,		728.42
476.55,		603.95,		470.41
478.84,		601.71,		595.67
481.38,		598.8,		720.44
473.19,		729.03,		473.08
475.86,		726.47,		598.37
478.5,		723.79,		723.3
470.44,		853.92,		475.77
473.26,		851.47,		600.69
475.65,		848.9,		725.86
601.26,		607.0,		467.97
603.81,		604.37,		592.86
606.58,		601.83,		718.06
598.36,		731.94,		470.66
600.93,		729.41,		595.86
603.55,		726.97,		720.54
595.6,		856.94,		473.54
597.89,		854.32,		598.36
600.63,		851.61,		723.34
348.12,		598.02,		601.3
350.85,		596.14,		726.42
353.95,		594.63,		851.41
350.12,		723.21,		602.98
352.76,		721.49,		728.16
355.78,		719.54,		853.15
352.23,		847.92,		604.63
354.86,		846.07,		729.66
357.46,		844.53,		854.69
473.28,		595.96,		598.4
475.84,		594.38,		723.27
478.52,		592.46,		848.49
475.13,		721.18,		600.17
477.68,		719.31,		725.08
480.71,		717.45,		850.07
476.88,		846.14,		601.79
479.87,		844.43,		726.88
482.59,		842.52,		851.92
598.03,		594.35,		595.91
600.95,		592.64,		720.54
603.74,		590.77,		845.83
600.18,		719.19,		597.46
602.85,		717.64,		722.48
605.51,		715.91,		847.44
601.86,		844.43,		599.04
604.8,		842.61,		724.04
607.47,		840.78,		848.87
477.01,		99.92,		98.55
475.36,		96.17,		223.23
473.18,		92.55,		348.4
474.41,		225.06,		102.16
472.76,		221.26,		226.81
470.66,		217.4,		351.79
471.99,		349.67,		105.62
470.12,		346.14,		230.74
468.02,		342.57,		355.77
601.91,		102.47,		100.29
600.06,		98.65,		225.09
598.3,		95.04,		350.0
599.42,		227.38,		103.78
597.67,		223.74,		229.13
595.79,		219.9,		353.66
596.89,		352.25,		107.62
594.9,		348.62,		232.35
593.02,		344.99,		357.52
726.72,		104.98,		102.22
725.11,		101.33,		227.0
723.38,		97.57,		351.95
724.11,		230.08,		105.72
722.69,		226.3,		230.78
720.74,		222.48,		355.47
721.48,		354.91,		109.42
719.97,		351.01,		234.56
718.04,		347.6,		359.33
473.62,		99.76,		224.31
473.4,		97.15,		349.24
473.38,		95.25,		474.12
470.4,		224.58,		226.56
470.41,		222.08,		351.49
469.93,		220.05,		476.62
467.4,		349.55,		228.77
467.25,		347.13,		353.58
466.73,		344.8,		478.88
598.69,		102.65,		224.71
598.4,		100.58,		349.51
598.27,		98.4,		474.54
595.37,		227.82,		226.87
595.14,		225.38,		351.86
595.2,		222.98,		476.57
592.07,		352.8,		229.11
591.97,		350.46,		354.03
592.01,		348.29,		479.03
723.61,		105.87,		224.75
723.43,		103.8,		349.86
723.05,		101.25,		474.64
720.35,		230.87,		226.93
720.1,		228.48,		352.03
720.16,		226.27,		477.1
717.13,		355.85,		229.34
717.07,		353.58,		354.38
716.96,		351.28,		479.28
474.87,		101.12,		349.89
477.15,		100.29,		474.67
479.59,		99.11,		599.65
471.15,		225.97,		350.96
473.77,		225.28,		475.77
476.1,		224.03,		600.8
467.79,		351.12,		351.98
470.23,		349.97,		476.77
472.5,		349.24,		601.66
599.75,		104.93,		347.31
602.14,		103.71,		472.45
604.29,		102.8,		597.37
596.26,		229.42,		348.33
598.5,		228.78,		473.6
600.95,		227.8,		598.26
592.68,		354.68,		349.35
595.14,		353.67,		474.6
597.24,		352.63,		599.33
724.46,		108.1,		345.09
727.0,		107.05,		470.3
729.37,		106.17,		595.19
721.13,		233.25,		346.07
723.43,		232.07,		471.26
726.04,		231.33,		596.07
717.83,		358.15,		347.1
720.17,		357.24,		472.08
722.34,		356.21,		597.08
474.38,		101.32,		473.92
476.8,		102.93,		599.15
479.05,		104.33,		723.85
473.38,		226.64,		472.96
475.45,		227.96,		597.72
477.89,		229.1,		722.86
472.37,		351.72,		471.52
474.49,		352.99,		596.29
476.87,		354.14,		721.5
599.14,		102.58,		471.73
601.7,		104.06,		596.65
603.88,		104.96,		721.86
598.14,		227.43,		470.3
600.65,		228.95,		595.45
603.06,		230.04,		720.51
597.17,		352.78,		469.27
599.36,		353.95,		594.21
601.76,		355.16,		719.29
724.37,		103.65,		469.3
726.87,		105.03,		594.4
729.02,		106.27,		719.39
723.44,		228.5,		467.93
725.67,		229.82,		593.04
728.0,		231.16,		718.02
722.22,		353.7,		466.8
724.51,		355.1,		591.68
726.96,		356.44,		716.79
474.03,		101.65,		599.72
471.34,		102.51,		724.48
468.57,		102.79,		849.48
473.29,		226.84,		599.06
470.38,		227.44,		724.06
467.68,		227.79,		849.05
472.41,		351.7,		598.45
469.71,		352.45,		723.5
466.83,		352.81,		848.41
599.13,		102.51,		602.5
596.47,		103.35,		727.44
593.57,		103.92,		852.26
598.21,		227.6,		601.81
595.37,		228.3,		726.72
592.82,		228.79,		851.7
597.44,		352.89,		601.32
594.42,		353.11,		726.08
591.89,		354.02,		851.25
724.12,		103.81,		605.05
721.23,		104.44,		730.04
718.63,		104.78,		855.09
723.16,		228.81,		604.53
720.49,		229.15,		729.51
717.53,		229.87,		854.29
722.07,		353.51,		603.97
719.83,		354.34,		728.88
716.78,		354.8,		853.74
473.21,		222.87,		100.86
471.59,		222.7,		225.67
469.93,		222.39,		350.89
470.98,		347.88,		101.07
469.52,		347.71,		226.07
468.22,		347.24,		351.22
469.21,		472.92,		101.42
467.68,		472.53,		226.48
465.97,		472.43,		351.37
598.06,		225.1,		102.28
596.51,		224.7,		227.33
595.25,		224.61,		352.35
596.24,		350.04,		102.78
594.34,		349.66,		227.67
593.01,		349.62,		352.72
594.1,		475.06,		103.06
592.33,		474.86,		227.79
590.84,		474.37,		352.93
723.08,		227.11,		103.73
721.59,		226.76,		229.1
720.15,		226.61,		353.65
721.05,		352.26,		103.89
719.55,		351.62,		229.28
718.04,		351.47,		354.12
719.02,		477.24,		104.63
717.36,		476.59,		229.45
716.07,		476.43,		354.43
474.04,		223.08,		223.86
474.56,		220.21,		348.88
474.66,		217.03,		473.92
472.27,		348.34,		226.82
472.36,		345.17,		352.03
472.6,		341.86,		476.93
470.26,		473.16,		229.99
470.48,		469.98,		355.11
470.51,		466.74,		480.04
599.27,		225.25,		223.88
599.45,		222.31,		348.52
599.49,		219.09,		473.74
596.9,		350.18,		226.92
597.31,		347.23,		351.83
597.44,		343.8,		476.61
595.04,		475.13,		229.77
595.24,		471.9,		354.89
595.35,		468.95,		479.73
723.92,		227.31,		223.59
724.34,		223.98,		348.41
724.65,		220.87,		473.45
722.12,		352.28,		226.44
722.13,		349.05,		351.65
722.36,		345.87,		476.45
720.06,		477.23,		229.84
720.32,		473.93,		354.55
720.57,		470.77,		479.71
475.45,		223.89,		351.12
476.32,		227.77,		476.39
477.03,		230.98,		601.03
476.87,		349.05,		347.87
477.39,		352.69,		472.6
478.22,		355.9,		597.86
478.06,		474.0,		344.26
478.69,		477.62,		469.26
479.69,		480.8,		593.98
600.54,		223.05,		350.39
601.48,		226.31,		475.49
602.25,		229.96,		600.54
601.62,		347.79,		347.04
602.4,		351.19,		471.88
603.44,		354.78,		596.86
602.91,		472.85,		343.43
603.86,		476.3,		468.43
604.34,		479.63,		593.33
725.36,		221.6,		349.74
726.22,		225.11,		474.65
727.23,		228.86,		599.75
726.62,		346.57,		346.07
727.63,		350.1,		471.17
728.1,		353.45,		596.09
727.71,		471.82,		342.68
728.75,		475.15,		467.65
729.35,		478.68,		592.59
473.44,		225.07,		474.95
470.33,		221.87,		600.0
467.59,		218.79,		724.71
472.94,		350.25,		477.85
470.18,		347.0,		603.12
467.45,		343.86,		727.73
472.2,		474.91,		481.23
469.55,		472.08,		605.88
466.85,		468.93,		731.03
598.18,		225.59,		477.61
595.61,		222.24,		602.54
592.88,		219.46,		727.54
597.95,		350.42,		480.9
595.08,		347.36,		605.59
592.55,		344.22,		730.62
597.4,		475.2,		483.96
594.75,		472.26,		608.8
591.72,		469.15,		733.61
723.24,		225.95,		480.5
720.7,		222.96,		605.28
717.84,		219.57,		730.09
722.9,		350.97,		483.36
720.12,		347.54,		608.38
717.43,		344.65,		733.23
722.32,		475.87,		486.55
719.66,		472.8,		611.63
716.75,		469.43,		736.37
476.21,		223.03,		599.4
477.46,		219.42,		724.6
478.29,		215.45,		849.34
478.14,		348.09,		603.19
479.17,		344.09,		728.22
480.14,		340.65,		853.05
480.14,		472.8,		607.01
481.08,		469.0,		731.88
481.75,		465.31,		856.86
601.22,		221.41,		598.71
602.51,		217.43,		723.41
603.06,		213.81,		848.76
603.38,		346.31,		602.3
603.97,		342.53,		727.36
605.08,		338.98,		852.19
604.94,		471.16,		605.91
606.08,		467.27,		730.94
606.82,		463.84,		855.67
726.33,		219.47,		597.73
727.1,		215.84,		722.71
728.25,		211.95,		847.48
728.0,		344.4,		601.2
729.05,		340.67,		726.13
730.31,		337.26,		851.47
730.06,		469.48,		604.83
730.88,		465.51,		730.04
731.71,		462.09,		854.94
476.42,		350.31,		98.88
477.07,		347.88,		223.78
477.83,		345.81,		348.84
479.31,		475.18,		101.24
480.18,		473.03,		226.4
480.73,		470.67,		351.26
482.13,		600.13,		103.72
482.95,		597.76,		228.65
484.1,		595.75,		353.55
601.07,		347.6,		98.17
601.96,		345.1,		223.01
602.82,		342.87,		348.24
604.09,		472.47,		100.45
604.99,		469.92,		225.42
605.78,		467.52,		350.45
607.02,		597.26,		102.86
607.87,		594.91,		227.84
608.68,		592.58,		352.64
726.24,		344.46,		97.16
726.9,		341.88,		222.33
727.9,		339.82,		347.31
729.06,		469.12,		99.42
729.99,		466.78,		224.58
730.62,		464.69,		349.45
732.33,		594.27,		101.72
732.85,		591.71,		226.72
733.76,		589.85,		351.99
473.43,		351.84,		224.99
470.34,		353.9,		349.91
466.74,		356.15,		474.96
474.17,		476.68,		222.87
470.82,		479.11,		347.63
467.39,		481.28,		472.5
474.43,		601.88,		220.63
471.39,		603.94,		345.61
468.07,		606.19,		470.56
598.35,		351.32,		228.37
595.12,		353.74,		353.28
592.02,		356.02,		478.21
599.16,		476.44,		226.32
595.58,		478.59,		351.15
592.44,		480.81,		476.09
599.66,		601.42,		223.75
596.28,		603.6,		349.06
593.03,		605.9,		473.89
723.55,		350.74,		231.84
720.21,		353.2,		356.68
716.71,		355.33,		481.63
723.95,		475.89,		229.41
720.5,		478.19,		354.27
717.45,		480.41,		479.46
724.72,		600.8,		227.29
721.24,		603.11,		352.32
717.83,		605.41,		477.01
473.45,		350.93,		348.65
473.89,		349.71,		473.65
474.16,		348.64,		598.48
476.96,		475.79,		349.78
477.33,		474.78,		474.85
477.42,		473.75,		599.55
480.35,		600.85,		350.76
480.88,		599.56,		475.69
481.38,		598.5,		600.8
598.41,		347.52,		348.22
598.65,		346.38,		473.26
599.14,		345.23,		598.27
601.76,		472.57,		349.38
602.25,		471.06,		474.37
602.4,		469.97,		599.29
605.35,		597.2,		350.58
605.9,		596.11,		475.71
605.92,		595.07,		600.59
723.2,		344.1,		347.57
723.66,		342.75,		472.9
723.69,		341.54,		597.68
727.04,		468.69,		348.82
727.05,		467.52,		474.2
727.69,		466.46,		598.85
730.38,		594.03,		350.18
730.91,		592.65,		475.16
730.85,		591.6,		600.3
473.62,		349.74,		473.48
474.37,		352.91,		598.29
475.28,		356.57,		723.48
477.27,		474.45,		470.01
477.99,		478.1,		594.93
478.65,		481.38,		720.1
481.11,		599.62,		466.56
481.56,		603.08,		591.46
482.5,		606.23,		716.61
598.51,		346.17,		472.92
599.5,		349.3,		597.94
599.92,		352.95,		722.74
602.27,		471.0,		469.4
602.97,		474.4,		594.21
603.63,		477.56,		719.2
605.88,		595.78,		465.89
606.76,		599.37,		590.84
607.41,		602.81,		715.92
723.76,		342.29,		472.34
724.4,		345.65,		597.37
724.98,		349.15,		722.15
727.09,		467.22,		468.96
728.03,		470.71,		593.89
728.57,		474.05,		718.94
731.05,		592.19,		465.35
731.37,		595.43,		590.45
732.35,		598.98,		715.38
473.22,		348.88,		601.42
475.43,		346.63,		726.16
477.35,		344.37,		851.21
474.37,		473.77,		603.55
476.57,		471.42,		728.48
478.6,		469.14,		853.33
475.74,		598.54,		605.58
477.91,		596.3,		730.64
479.91,		594.13,		855.66
598.25,		347.39,		599.09
600.2,		345.37,		724.27
602.21,		343.16,		848.86
599.45,		472.53,		601.52
601.37,		470.43,		726.32
603.37,		467.91,		851.21
600.42,		597.68,		603.6
602.53,		595.26,		728.4
604.71,		592.91,		853.6
722.92,		346.24,		596.85
725.26,		344.35,		721.84
727.26,		342.02,		847.0
724.21,		471.47,		599.25
726.35,		468.9,		724.01
728.5,		466.62,		848.9
725.51,		596.34,		601.29
727.86,		594.14,		726.5
729.86,		591.87,		851.61
475.67,		474.02,		100.17
477.27,		475.92,		225.3
478.96,		478.14,		350.14
474.76,		599.42,		98.28
476.43,		600.95,		223.12
478.24,		602.87,		348.31
474.39,		724.14,		96.47
475.77,		726.38,		221.25
477.34,		727.97,		346.59
600.27,		474.79,		98.44
602.29,		476.76,		223.44
603.56,		478.47,		348.39
599.83,		600.13,		96.65
601.42,		601.65,		221.49
603.02,		603.71,		346.43
599.16,		725.06,		94.71
600.82,		726.94,		219.87
602.42,		728.5,		344.99
725.2,		475.44,		96.73
727.12,		477.58,		221.72
728.9,		479.26,		346.79
724.9,		600.57,		94.79
726.4,		602.43,		219.89
728.16,		604.34,		344.8
723.99,		725.61,		93.35
725.8,		727.53,		217.94
727.42,		729.23,		343.04
476.76,		475.05,		223.5
473.14,		472.04,		348.33
469.53,		469.3,		473.36
478.71,		599.88,		226.62
474.98,		597.13,		351.27
471.43,		594.24,		476.44
480.49,		724.81,		229.53
476.71,		722.1,		354.52
473.51,		719.15,		479.21
601.67,		473.11,		227.03
598.19,		470.23,		352.05
594.69,		467.16,		476.78
603.64,		598.18,		230.07
599.98,		595.31,		354.81
596.57,		592.43,		479.72
605.49,		723.02,		232.79
601.82,		720.03,		357.62
598.07,		717.19,		482.77
726.62,		471.34,		230.27
723.17,		468.23,		355.36
719.66,		465.21,		480.55
728.57,		596.23,		233.33
724.87,		593.26,		358.34
721.36,		590.22,		483.29
730.3,		720.93,		236.26
726.81,		718.32,		361.18
723.23,		715.37,		485.94
474.82,		475.96,		350.3
473.23,		474.5,		475.0
471.6,		473.36,		600.29
472.98,		600.87,		351.11
471.51,		599.53,		476.24
469.97,		598.56,		601.22
471.46,		725.91,		352.35
469.98,		724.72,		477.51
468.27,		723.61,		602.5
599.62,		477.52,		351.47
598.27,		476.21,		476.66
596.51,		474.99,		601.51
598.25,		602.29,		352.72
596.68,		601.16,		477.63
594.88,		600.23,		602.65
596.69,		727.55,		353.86
594.86,		726.07,		479.08
593.3,		725.28,		603.87
724.7,		479.25,		353.37
723.26,		477.99,		478.36
721.71,		476.74,		603.32
723.09,		603.92,		354.23
721.63,		602.96,		479.32
720.02,		601.55,		604.18
721.31,		729.2,		355.41
720.08,		727.68,		480.31
718.26,		726.93,		605.65
476.61,		474.81,		473.18
473.72,		471.22,		598.36
471.24,		467.53,		723.24
477.55,		599.45,		476.86
474.71,		596.02,		601.86
472.02,		592.45,		726.79
477.95,		724.46,		480.36
475.63,		721.04,		605.33
472.91,		717.63,		730.45
601.33,		473.89,		475.93
599.09,		470.21,		601.01
596.27,		466.85,		725.65
602.24,		598.81,		479.56
599.76,		595.19,		604.32
596.95,		591.57,		729.57
602.96,		723.69,		483.02
600.62,		720.2,		608.24
597.68,		716.72,		732.89
726.59,		472.82,		478.69
723.74,		469.37,		603.49
721.05,		465.84,		728.34
727.22,		597.83,		482.29
724.69,		594.51,		607.21
721.99,		590.77,		732.05
728.07,		722.58,		485.59
725.58,		719.28,		610.71
722.77,		715.52,		735.75
473.91,		474.13,		600.24
474.02,		473.33,		725.45
474.32,		472.51,		850.46
471.52,		599.23,		601.25
471.5,		598.07,		726.23
471.55,		597.4,		851.08
468.48,		724.09,		602.31
468.59,		723.35,		726.98
468.69,		722.34,		852.16
598.91,		476.97,		600.41
599.06,		475.95,		725.13
599.27,		475.27,		850.35
596.29,		601.79,		601.05
596.52,		601.07,		726.13
596.49,		599.94,		851.06
593.45,		726.71,		602.05
593.61,		725.7,		726.95
593.77,		724.9,		852.18
724.19,		479.49,		600.31
723.98,		478.77,		725.37
723.88,		477.95,		850.16
721.32,		604.61,		601.24
721.38,		603.71,		726.05
721.37,		603.07,		851.11
718.75,		729.58,		601.92
718.68,		728.45,		727.0
718.53,		727.53,		851.99
473.58,		600.38,		101.78
474.75,		602.04,		227.01
476.34,		603.91,		351.97
472.53,		725.67,		100.17
473.8,		727.18,		225.42
475.31,		728.93,		350.38
471.38,		850.59,		98.79
472.77,		852.04,		223.9
473.92,		853.9,		348.46
598.7,		601.85,		100.73
600.04,		603.21,		225.36
601.04,		604.82,		350.51
597.61,		726.52,		98.83
598.73,		728.05,		223.87
600.08,		729.84,		349.2
596.58,		851.72,		97.3
597.66,		853.11,		222.38
598.89,		854.92,		347.33
723.74,		602.66,		99.34
724.9,		604.36,		224.43
725.93,		605.8,		349.5
722.51,		727.61,		97.81
724.01,		729.47,		222.84
725.03,		730.96,		347.82
721.6,		852.72,		96.03
722.81,		854.08,		221.16
723.97,		855.98,		345.89
475.72,		599.75,		226.89
478.31,		600.49,		351.77
480.6,		600.66,		476.88
476.12,		724.9,		226.51
478.59,		725.13,		351.54
480.89,		725.81,		476.57
476.47,		849.81,		226.21
479.09,		850.34,		351.28
481.39,		850.82,		475.97
600.73,		599.35,		224.59
603.36,		599.91,		349.63
605.88,		600.17,		474.24
601.27,		724.58,		224.03
603.7,		724.91,		349.13
606.17,		725.49,		473.97
601.39,		849.59,		223.62
604.1,		850.01,		348.57
606.34,		850.13,		473.61
725.84,		599.16,		221.88
728.02,		599.64,		347.02
730.69,		600.02,		471.86
726.02,		723.93,		221.77
728.39,		724.69,		346.44
730.85,		724.73,		471.36
726.45,		849.18,		221.32
729.0,		849.65,		346.14
731.48,		849.93,		471.2
474.49,		599.56,		348.2
476.52,		599.87,		473.32
478.45,		600.1,		598.18
473.29,		724.66,		348.07
475.39,		724.63,		472.87
477.41,		724.87,		598.21
472.18,		849.55,		347.75
474.22,		849.8,		473.03
476.64,		849.8,		598.02
599.25,		600.41,		346.52
601.36,		600.67,		471.45
603.36,		601.01,		596.34
598.26,		725.49,		346.32
600.41,		725.53,		471.04
602.21,		725.94,		596.16
597.45,		850.56,		345.95
599.38,		850.61,		471.06
601.36,		851.01,		595.9
724.22,		601.62,		344.24
726.24,		601.76,		469.22
728.2,		602.01,		594.33
723.39,		726.39,		344.17
725.52,		726.92,		469.0
727.54,		727.2,		594.15
722.31,		851.45,		343.82
724.13,		851.79,		469.06
726.19,		852.08,		593.58
475.27,		600.37,		474.38
478.48,		599.08,		599.3
481.44,		597.68,		724.45
473.04,		725.39,		475.66
476.25,		723.83,		600.99
479.29,		722.25,		725.74
470.85,		850.35,		477.54
473.96,		848.85,		602.35
477.04,		847.35,		727.26
600.43,		602.46,		471.25
603.53,		601.14,		596.31
606.59,		599.66,		721.47
597.94,		727.45,		472.66
601.42,		726.03,		597.78
604.43,		724.74,		722.63
595.75,		852.6,		474.27
599.21,		851.2,		599.16
602.22,		849.67,		724.14
725.55,		604.95,		468.41
728.27,		603.29,		593.33
731.48,		602.08,		718.09
722.98,		729.93,		469.71
726.06,		728.28,		594.89
729.06,		726.95,		719.8
721.08,		854.8,		471.32
723.89,		853.34,		596.17
727.18,		852.03,		721.17
475.77,		599.1,		598.47
473.73,		600.68,		723.15
471.27,		602.22,		848.06
473.22,		724.2,		596.87
471.06,		725.73,		721.76
468.97,		727.16,		846.72
471.14,		849.12,		595.47
468.88,		850.52,		720.54
466.87,		851.97,		845.32
600.76,		601.62,		600.37
598.56,		602.86,		725.25
596.4,		604.56,		850.35
598.18,		726.45,		599.04
596.16,		727.74,		724.07
594.02,		729.47,		848.91
596.17,		851.64,		597.45
593.74,		852.81,		722.48
591.89,		854.17,		847.4
725.48,		603.73,		602.71
723.41,		605.39,		727.56
721.61,		606.64,		852.57
723.15,		729.09,		601.14
721.16,		730.16,		725.93
718.97,		731.78,		851.1
720.99,		853.76,		599.49
718.86,		855.11,		724.5
716.72,		856.58,		849.55
598.56,		98.27,		100.36
600.78,		100.57,		225.47
602.99,		102.83,		350.36
598.98,		223.12,		98.07
601.33,		225.41,		223.1
603.43,		228.11,		347.94
600.13,		348.19,		95.66
602.21,		350.32,		220.61
604.34,		352.88,		345.56
723.64,		97.46,		98.16
725.72,		99.65,		223.11
728.01,		102.4,		348.21
724.15,		222.38,		95.96
726.5,		224.72,		220.69
728.67,		227.21,		345.52
725.04,		347.18,		93.42
727.03,		349.76,		218.19
729.46,		352.13,		343.42
848.45,		96.64,		96.05
850.69,		99.11,		221.15
852.77,		101.28,		345.73
849.17,		221.65,		93.69
851.41,		224.15,		218.81
853.44,		226.44,		343.62
850.04,		346.53,		91.02
851.96,		349.07,		216.13
854.29,		351.55,		341.12
599.25,		100.5,		225.53
598.37,		99.57,		350.52
597.59,		98.19,		475.48
596.91,		225.62,		226.78
595.97,		224.35,		351.56
595.01,		223.05,		476.91
594.33,		350.39,		227.85
593.2,		349.37,		352.88
592.21,		348.03,		477.8
724.19,		103.32,		226.69
723.44,		101.77,		351.71
722.43,		100.77,		476.46
721.66,		228.32,		227.65
720.73,		226.8,		352.75
720.06,		225.91,		477.89
719.35,		353.18,		228.91
718.2,		351.96,		354.05
717.49,		350.54,		478.94
849.34,		105.76,		227.48
848.41,		104.32,		352.56
847.57,		103.51,		477.61
846.56,		230.56,		228.79
845.96,		229.56,		353.69
844.89,		228.46,		478.69
844.27,		355.71,		229.88
843.41,		354.46,		354.85
842.42,		353.18,		480.08
598.44,		99.35,		349.74
598.03,		98.1,		474.91
597.67,		97.01,		599.72
596.26,		224.24,		350.55
595.91,		223.21,		475.68
595.26,		222.12,		600.67
593.91,		349.35,		351.78
593.73,		348.22,		476.75
593.45,		347.21,		602.01
723.41,		101.63,		350.2
722.91,		100.63,		474.95
722.58,		99.4,		599.96
721.28,		226.7,		351.29
720.71,		225.31,		475.98
720.38,		224.52,		600.99
719.11,		351.61,		352.37
718.75,		350.28,		477.39
718.04,		349.41,		602.1
848.24,		103.77,		350.5
847.98,		102.76,		475.58
847.81,		101.59,		600.46
846.35,		228.58,		351.33
845.66,		227.82,		476.71
845.39,		226.56,		601.41
843.95,		353.69,		352.76
843.34,		352.75,		477.47
843.21,		351.37,		602.58
598.24,		99.48,		474.38
594.66,		97.11,		599.53
590.96,		94.66,		724.23
601.31,		224.71,		477.01
597.41,		222.21,		601.97
593.96,		219.61,		727.04
604.39,		349.55,		479.62
600.51,		346.84,		604.76
597.03,		344.58,		729.35
723.16,		96.55,		478.14
719.41,		94.06,		602.84
715.87,		91.44,		728.03
726.2,		221.67,		480.55
722.37,		218.83,		605.61
718.71,		216.35,		730.61
729.14,		346.47,		483.19
725.52,		343.78,		608.04
721.89,		341.4,		733.24
848.04,		93.63,		481.6
844.31,		90.73,		606.4
840.95,		88.56,		731.52
851.1,		218.56,		484.4
847.29,		215.64,		609.17
843.77,		213.37,		733.98
854.12,		343.23,		486.74
850.52,		340.98,		611.73
846.77,		338.58,		736.84
601.86,		98.07,		600.32
598.12,		100.48,		725.19
594.48,		103.09,		850.0
598.29,		222.96,		597.9
594.71,		225.42,		722.87
591.26,		227.98,		847.56
594.96,		348.24,		595.11
591.48,		350.31,		720.06
587.53,		352.73,		845.16
726.52,		101.63,		603.97
722.95,		103.97,		728.61
719.35,		106.36,		853.74
723.19,		226.4,		601.31
719.57,		228.81,		726.2
715.88,		231.32,		851.29
719.96,		351.53,		598.85
716.23,		353.88,		723.76
712.77,		356.23,		848.86
851.3,		104.88,		607.47
847.64,		107.45,		732.41
844.16,		109.82,		857.27
848.07,		229.74,		604.75
844.68,		232.58,		729.95
840.96,		234.77,		854.83
844.95,		355.05,		602.62
841.31,		357.31,		727.21
837.42,		359.56,		852.42
600.08,		223.52,		98.8
598.99,		220.83,		223.67
597.9,		218.28,		348.71
602.24,		348.63,		101.55
601.45,		345.98,		226.31
600.35,		343.23,		351.27
604.52,		473.39,		104.19
603.42,		470.82,		229.03
602.22,		468.22,		354.02
725.22,		221.21,		99.97
723.95,		218.67,		224.77
722.96,		215.84,		349.88
727.5,		346.22,		102.54
726.33,		343.61,		227.62
725.0,		341.14,		352.2
729.39,		471.23,		105.19
728.55,		468.67,		230.26
727.19,		465.93,		354.88
850.15,		219.2,		100.86
849.15,		216.63,		225.76
848.09,		213.67,		350.85
852.09,		344.04,		103.68
851.31,		341.42,		228.51
850.13,		338.88,		353.37
854.54,		469.22,		106.39
853.45,		466.33,		231.03
852.11,		463.88,		356.36
598.42,		224.06,		225.62
597.84,		222.95,		350.53
597.62,		221.62,		475.73
598.99,		349.08,		226.73
598.84,		347.89,		351.87
598.21,		346.67,		476.92
600.15,		474.02,		228.05
599.57,		472.7,		352.73
599.19,		471.69,		477.83
723.43,		223.12,		226.0
722.83,		221.97,		350.98
722.43,		221.0,		476.15
724.34,		348.11,		227.23
723.64,		346.88,		352.28
723.23,		345.79,		477.32
724.96,		472.97,		228.43
724.42,		472.17,		353.22
724.17,		470.78,		478.28
848.34,		222.36,		226.46
847.78,		220.92,		351.2
847.49,		220.04,		476.6
849.25,		347.37,		227.49
848.63,		346.08,		352.36
848.16,		345.13,		477.6
849.89,		472.15,		228.77
849.74,		471.26,		353.7
849.36,		470.02,		478.64
599.2,		224.86,		349.89
598.72,		224.47,		474.65
598.11,		223.67,		599.59
602.9,		349.95,		350.32
602.36,		349.46,		475.1
601.77,		348.65,		600.45
606.05,		474.82,		350.87
605.32,		474.17,		475.97
604.77,		473.7,		600.93
724.19,		221.68,		350.13
723.69,		221.14,		475.19
723.06,		220.59,		600.31
727.71,		346.35,		350.75
727.18,		346.06,		475.68
726.61,		345.45,		600.91
730.98,		471.37,		351.35
730.44,		471.02,		476.36
730.05,		470.24,		601.39
849.26,		218.11,		350.75
848.7,		217.87,		475.84
848.29,		217.18,		600.76
852.62,		343.06,		351.24
852.1,		342.63,		476.3
851.52,		341.97,		601.16
856.05,		468.07,		351.95
855.52,		467.4,		476.87
854.94,		466.88,		601.92
601.68,		225.4,		475.68
598.44,		224.17,		600.26
595.34,		223.17,		725.35
604.38,		350.49,		476.68
601.04,		349.06,		601.78
597.75,		347.87,		726.8
607.11,		475.26,		478.22
603.79,		473.94,		603.23
600.83,		473.03,		727.91
726.51,		222.61,		478.77
723.32,		221.31,		603.85
719.84,		220.13,		728.74
729.13,		347.67,		480.06
726.14,		346.18,		605.02
722.9,		345.4,		730.13
732.25,		472.32,		481.21
728.89,		471.52,		606.42
725.37,		470.25,		731.3
851.51,		219.81,		482.02
848.3,		218.51,		606.75
845.06,		217.46,		731.89
854.26,		344.9,		483.3
850.93,		343.5,		608.08
847.59,		342.61,		733.19
856.85,		469.67,		484.57
853.67,		468.55,		609.52
850.27,		467.29,		734.48
601.65,		223.33,		599.71
599.54,		226.07,		724.71
597.5,		228.96,		849.58
602.92,		348.31,		596.72
600.59,		350.96,		721.85
598.56,		353.82,		846.76
603.85,		473.5,		594.1
601.82,		476.08,		719.22
599.79,		478.89,		843.92
726.71,		222.63,		601.57
724.34,		225.35,		726.44
722.34,		227.78,		851.38
727.49,		347.35,		599.05
725.71,		350.38,		723.93
723.83,		352.91,		848.96
728.88,		472.49,		596.34
726.56,		475.03,		721.37
724.34,		477.68,		846.0
851.83,		221.26,		603.82
849.55,		224.08,		728.92
847.5,		226.87,		853.72
852.73,		346.25,		601.05
850.63,		349.15,		726.1
848.36,		351.91,		850.75
853.88,		471.41,		598.31
851.65,		474.02,		723.28
849.63,		476.68,		848.35
599.76,		350.44,		101.45
600.67,		347.85,		226.26
601.56,		345.0,		351.59
599.77,		475.17,		104.02
600.89,		472.82,		229.27
601.76,		469.93,		353.93
599.7,		600.14,		106.75
600.62,		597.73,		231.66
601.76,		595.1,		356.79
725.01,		350.43,		100.58
725.74,		347.86,		225.32
726.84,		345.04,		350.66
724.87,		475.15,		103.45
725.89,		472.79,		228.35
726.57,		469.93,		353.21
724.97,		600.51,		105.78
725.68,		597.39,		230.89
726.51,		594.92,		355.72
849.75,		350.53,		99.54
850.69,		347.8,		224.75
851.58,		344.99,		349.66
849.91,		475.55,		102.45
850.51,		472.72,		227.35
851.73,		470.04,		352.21
849.87,		600.45,		105.01
850.79,		597.82,		229.85
851.45,		595.04,		354.85
599.31,		349.8,		225.48
600.7,		346.44,		350.33
601.96,		343.31,		475.26
602.13,		474.47,		228.47
603.46,		471.37,		353.38
605.01,		468.02,		478.54
605.48,		599.53,		231.78
606.56,		596.32,		356.81
608.25,		592.98,		481.83
724.09,		346.72,		223.73
725.51,		343.17,		348.9
727.0,		340.11,		473.85
727.39,		471.47,		227.21
728.7,		468.12,		351.98
729.95,		464.95,		476.99
730.32,		596.28,		230.5
731.55,		593.13,		355.45
733.23,		589.73,		480.48
849.01,		343.42,		222.41
850.21,		340.28,		347.49
851.78,		336.9,		472.36
852.17,		468.61,		225.67
853.53,		465.06,		350.84
854.86,		461.83,		475.7
855.33,		593.41,		228.97
856.76,		590.11,		353.86
857.89,		586.7,		479.04
600.88,		349.27,		348.25
599.78,		349.35,		473.46
598.7,		349.69,		598.51
598.36,		474.47,		348.14
597.08,		474.63,		473.3
596.2,		474.64,		598.24
595.89,		599.26,		348.06
594.86,		599.3,		472.98
593.73,		599.7,		598.35
725.51,		352.02,		349.54
724.43,		352.16,		474.42
723.65,		351.96,		599.35
723.33,		476.83,		349.32
722.14,		476.79,		474.32
721.13,		477.19,		599.26
720.62,		601.88,		349.38
719.81,		601.77,		474.12
718.49,		602.13,		599.3
850.62,		354.39,		350.37
849.56,		354.56,		475.61
848.66,		354.42,		600.42
848.25,		479.43,		350.43
847.17,		479.36,		475.35
846.21,		479.48,		600.34
845.69,		604.14,		350.04
844.83,		604.39,		475.08
843.64,		604.48,		600.02
599.66,		348.57,		474.75
597.15,		349.05,		599.63
594.94,		349.55,		724.98
597.6,		473.5,		474.52
595.26,		473.85,		599.21
593.04,		474.51,		724.32
595.73,		598.61,		473.81
593.31,		598.72,		598.71
591.29,		599.36,		723.67
724.21,		350.42,		477.19
722.17,		351.09,		602.11
720.15,		351.21,		727.02
722.51,		475.4,		476.63
720.24,		476.0,		601.35
717.86,		476.35,		726.49
720.8,		600.21,		476.09
718.44,		600.8,		600.86
716.22,		601.39,		726.08
849.24,		352.54,		479.24
846.92,		352.93,		604.3
844.74,		353.27,		729.41
847.4,		477.27,		478.94
845.24,		478.02,		603.7
842.97,		478.07,		728.62
845.39,		602.45,		478.44
843.26,		602.9,		603.41
841.12,		603.2,		728.38
600.66,		348.62,		599.94
599.15,		346.6,		725.11
597.88,		344.65,		849.93
599.32,		473.69,		601.9
597.97,		471.66,		727.1
596.81,		469.63,		851.95
598.26,		598.33,		604.17
596.98,		596.48,		728.9
595.65,		594.42,		854.11
725.74,		349.51,		601.33
724.46,		347.74,		726.62
722.98,		345.61,		851.62
724.39,		474.67,		603.42
723.06,		472.43,		728.5
721.45,		470.44,		853.21
723.32,		599.74,		605.55
722.04,		597.54,		730.38
720.81,		595.69,		855.38
850.62,		350.79,		602.85
849.17,		348.62,		727.91
847.68,		346.84,		852.86
849.56,		475.62,		604.96
847.9,		473.56,		729.8
846.75,		471.79,		854.96
848.12,		600.67,		606.95
846.91,		598.9,		732.03
845.3,		596.8,		856.65
599.48,		473.69,		101.86
601.3,		473.77,		226.99
602.75,		473.73,		351.62
598.69,		598.89,		102.0
600.35,		598.59,		226.87
601.93,		598.77,		351.97
597.58,		723.89,		102.13
599.64,		723.74,		226.91
601.11,		723.61,		351.9
724.16,		474.53,		100.3
726.01,		474.61,		225.25
727.67,		474.41,		349.88
723.55,		599.9,		100.3
725.3,		599.68,		225.35
727.05,		599.43,		350.35
722.75,		724.72,		100.39
724.34,		724.74,		225.4
726.12,		724.35,		350.51
849.18,		475.52,		98.44
851.19,		475.3,		223.52
852.78,		475.35,		348.3
848.48,		600.49,		98.36
850.28,		600.27,		223.58
851.79,		600.39,		348.51
847.55,		725.68,		98.54
849.66,		725.56,		223.61
850.97,		725.41,		348.69
600.63,		476.07,		224.6
602.85,		477.18,		349.58
605.08,		478.39,		474.44
598.66,		600.88,		223.32
600.78,		602.12,		348.46
602.85,		603.44,		473.38
596.49,		726.04,		221.87
598.59,		727.14,		347.24
600.61,		728.46,		472.08
725.82,		478.33,		222.17
728.02,		479.57,		347.07
729.97,		480.76,		472.22
723.54,		603.24,		221.12
725.86,		604.64,		346.14
728.18,		605.77,		470.93
721.24,		728.0,		219.72
723.66,		729.35,		344.74
725.67,		730.44,		469.65
850.83,		480.31,		220.17
853.0,		481.6,		344.88
854.99,		482.84,		469.93
848.64,		605.53,		218.83
850.55,		606.72,		343.71
852.86,		607.78,		468.62
846.33,		730.27,		217.57
848.39,		731.53,		342.64
850.84,		732.7,		467.76
598.4,		476.62,		350.1
600.49,		476.7,		474.98
602.5,		477.05,		599.86
595.83,		601.51,		349.76
597.98,		601.7,		475.06
600.06,		602.01,		600.05
593.49,		726.42,		349.77
595.77,		726.62,		474.56
597.75,		727.01,		599.64
723.2,		478.96,		347.63
725.23,		478.98,		472.87
727.56,		479.48,		597.64
720.94,		603.94,		347.88
722.95,		604.07,		472.93
725.1,		604.09,		597.58
718.28,		728.88,		347.84
720.73,		729.19,		472.63
722.71,		729.11,		597.76
848.31,		481.24,		345.62
850.38,		481.37,		470.81
852.6,		481.63,		595.88
845.98,		606.37,		345.48
847.86,		606.59,		470.77
850.08,		606.64,		595.56
843.53,		731.3,		345.44
845.49,		731.53,		470.47
847.66,		731.75,		595.58
598.86,		473.9,		476.83
597.08,		471.76,		601.83
595.11,		469.89,		726.75
602.43,		598.79,		478.77
600.3,		596.74,		603.77
598.41,		594.64,		728.84
606.01,		723.75,		480.88
604.06,		721.84,		605.84
602.03,		719.62,		730.79
724.01,		470.37,		478.9
721.95,		468.51,		603.69
719.93,		466.06,		728.64
727.46,		595.35,		480.9
725.4,		593.11,		605.77
723.67,		591.05,		730.83
730.73,		720.08,		482.9
728.99,		718.36,		607.71
726.93,		716.26,		732.85
848.96,		466.92,		480.66
846.64,		464.98,		605.51
845.06,		462.7,		730.62
852.21,		591.75,		482.81
850.42,		589.87,		607.49
848.26,		587.85,		732.68
855.92,		716.67,		484.62
853.72,		714.65,		609.65
851.73,		712.73,		734.7
601.96,		475.74,		599.43
603.19,		479.36,		724.14
604.71,		482.51,		849.31
605.22,		600.56,		595.7
606.68,		604.07,		720.85
608.14,		607.45,		845.88
608.66,		725.4,		592.45
609.89,		729.04,		717.07
611.58,		732.5,		842.09
726.73,		472.39,		597.74
728.47,		475.84,		722.8
729.54,		479.14,		847.73
730.29,		597.16,		594.29
731.88,		600.88,		719.22
733.32,		604.29,		844.31
733.34,		722.03,		591.05
734.88,		725.82,		715.63
736.45,		729.07,		840.65
851.89,		469.08,		596.63
853.28,		472.54,		721.51
855.12,		476.02,		846.4
855.08,		593.88,		592.89
856.72,		597.48,		717.8
858.06,		600.72,		842.97
858.4,		718.67,		589.27
859.79,		722.42,		714.41
861.58,		725.79,		839.36
597.88,		598.95,		101.91
594.9,		595.4,		226.69
591.6,		592.06,		351.64
594.07,		723.53,		104.99
591.11,		720.43,		229.72
587.69,		717.13,		355.0
590.63,		848.49,		108.09
587.27,		845.16,		233.18
584.13,		841.93,		357.83
723.02,		602.23,		105.26
719.59,		598.99,		230.19
716.43,		595.95,		354.93
719.33,		727.22,		108.25
716.01,		724.15,		233.28
712.63,		720.62,		358.35
715.4,		852.21,		111.77
712.32,		849.05,		236.34
709.06,		845.77,		361.43
847.73,		605.81,		108.42
844.47,		602.9,		233.52
841.06,		599.63,		358.51
844.35,		730.8,		112.0
840.77,		727.75,		236.78
837.58,		724.28,		361.38
840.42,		855.83,		114.95
837.27,		852.51,		239.93
833.73,		849.23,		364.7
600.02,		601.26,		224.48
602.86,		604.34,		349.65
606.06,		607.36,		474.41
598.25,		726.0,		221.62
601.1,		729.37,		346.34
603.8,		732.07,		471.46
595.99,		850.96,		218.57
598.81,		854.29,		343.41
601.7,		857.17,		468.65
725.08,		603.29,		221.7
728.12,		606.55,		346.81
730.8,		609.23,		471.39
723.01,		728.26,		218.64
725.74,		731.34,		343.84
728.73,		734.18,		468.69
720.93,		853.19,		215.75
723.5,		856.14,		340.56
726.57,		859.11,		465.6
849.9,		605.15,		218.86
853.05,		608.25,		343.74
855.84,		611.52,		468.46
847.89,		730.16,		215.79
850.95,		733.13,		340.9
853.65,		736.55,		465.69
845.82,		855.2,		212.77
848.68,		858.47,		337.68
851.51,		861.31,		462.52
598.26,		599.83,		351.37
597.08,		599.81,		476.53
596.08,		600.33,		601.42
599.69,		724.58,		351.22
598.58,		725.01,		476.33
597.49,		725.05,		601.24
601.04,		849.76,		351.12
599.83,		849.86,		476.08
598.67,		850.35,		601.21
723.36,		598.34,		352.56
722.16,		598.75,		477.62
720.92,		599.03,		602.39
724.39,		723.42,		352.39
723.67,		723.72,		477.3
722.42,		723.79,		602.43
725.79,		848.52,		352.26
724.84,		848.47,		477.11
723.7,		848.89,		602.09
848.23,		597.07,		353.8
847.24,		597.52,		478.72
846.06,		597.51,		603.71
849.75,		722.19,		353.69
848.52,		722.21,		478.64
847.47,		722.51,		603.66
850.84,		847.04,		353.41
849.95,		847.31,		478.53
848.43,		847.8,		603.27
599.58,		600.39,		473.57
596.73,		599.75,		598.35
593.79,		599.29,		723.3
597.57,		725.32,		474.22
594.94,		724.76,		599.16
591.84,		724.09,		723.84
595.53,		850.42,		474.73
592.98,		849.73,		599.89
589.97,		849.22,		724.77
724.48,		602.59,		476.45
721.51,		601.88,		601.24
719.05,		601.15,		726.34
722.63,		727.55,		476.95
719.59,		727.0,		602.16
716.68,		726.18,		726.72
720.61,		852.6,		477.71
717.69,		851.86,		602.64
714.75,		851.15,		727.72
849.36,		604.42,		479.46
846.62,		603.7,		604.19
843.64,		603.1,		729.19
847.44,		729.47,		479.83
844.57,		728.98,		604.99
841.93,		728.0,		729.78
845.57,		854.37,		480.48
842.74,		853.71,		605.32
840.03,		853.2,		730.42
601.03,		598.88,		598.82
601.64,		602.1,		723.84
602.59,		605.39,		848.62
599.34,		723.78,		595.69
600.08,		727.08,		720.69
600.96,		730.17,		845.34
597.96,		848.62,		592.22
598.61,		852.02,		717.32
599.27,		855.28,		842.42
725.62,		600.17,		597.7
726.63,		603.64,		722.73
727.44,		607.04,		847.75
724.24,		725.32,		594.57
725.24,		728.38,		719.65
726.09,		731.77,		844.48
722.9,		850.38,		591.52
723.52,		853.4,		716.54
724.54,		856.85,		841.43
850.87,		601.87,		597.03
851.84,		605.2,		722.05
852.49,		608.43,		846.97
849.47,		726.74,		593.86
850.14,		729.9,		718.71
850.86,		733.27,		843.73
847.84,		851.76,		590.73
848.43,		854.93,		715.61
849.4,		858.23,		840.51
