27, 8, pa1-debug-g-output1.txt
207.04,		210.37,		200.53
404.08,		406.27,		201.35
210.3,		210.94,		209.4
212.34,		214.66,		334.33
214.37,		218.37,		459.25
211.69,		335.88,		205.66
213.72,		339.59,		330.59
215.76,		343.31,		455.52
213.07,		460.81,		201.92
215.1,		464.53,		326.85
217.14,		468.25,		451.78
335.28,		209.5,		207.41
337.31,		213.21,		332.33
339.35,		216.93,		457.26
336.66,		334.44,		203.67
338.7,		338.15,		328.59
340.73,		341.87,		453.52
338.04,		459.37,		199.93
340.08,		463.09,		324.86
342.11,		466.8,		449.78
460.25,		208.06,		205.41
462.29,		211.77,		330.34
464.32,		215.49,		455.27
461.64,		332.99,		201.67
463.67,		336.71,		326.6
465.71,		340.42,		451.53
463.02,		457.93,		197.94
465.05,		461.64,		322.86
467.09,		465.36,		447.79
208.07,		209.4,		451.19
209.29,		207.91,		576.17
210.52,		206.43,		701.16
210.12,		334.38,		452.66
211.34,		332.89,		577.64
212.57,		331.4,		702.63
212.17,		459.35,		454.12
213.39,		457.86,		579.11
214.62,		456.38,		704.09
333.05,		207.37,		449.94
334.27,		205.88,		574.93
335.5,		204.39,		699.91
335.1,		332.34,		451.41
336.32,		330.85,		576.39
337.54,		329.37,		701.38
337.14,		457.32,		452.87
338.37,		455.83,		577.86
339.59,		454.34,		702.84
458.02,		205.33,		448.69
459.25,		203.85,		573.68
460.47,		202.36,		698.66
460.07,		330.31,		450.16
461.3,		328.82,		575.14
462.52,		327.33,		700.13
462.12,		455.28,		451.63
463.35,		453.79,		576.61
464.57,		452.31,		701.6
210.68,		448.47,		210.71
209.44,		447.58,		335.7
208.2,		446.69,		460.69
207.34,		573.43,		211.57
206.1,		572.53,		336.56
204.86,		571.64,		461.55
204.0,		698.38,		212.43
202.76,		697.48,		337.42
201.52,		696.59,		462.42
335.63,		451.81,		211.97
334.39,		450.91,		336.97
333.15,		450.02,		461.96
332.29,		576.76,		212.84
331.05,		575.86,		337.83
329.81,		574.97,		462.82
328.95,		701.71,		213.7
327.71,		700.82,		338.69
326.47,		699.92,		463.68
460.58,		455.14,		213.24
459.34,		454.24,		338.23
458.1,		453.35,		463.22
457.24,		580.09,		214.1
456.0,		579.2,		339.09
454.76,		578.3,		464.08
453.9,		705.04,		214.96
452.66,		704.15,		339.95
451.42,		703.25,		464.94
208.76,		449.06,		450.08
206.69,		446.41,		575.04
204.61,		443.76,		699.99
209.58,		574.03,		452.75
207.51,		571.38,		577.71
205.43,		568.73,		702.66
210.4,		699.0,		455.42
208.32,		696.35,		580.37
206.25,		693.69,		705.33
333.74,		448.2,		452.14
331.67,		445.55,		577.1
329.59,		442.89,		702.05
334.56,		573.17,		454.81
332.49,		570.52,		579.76
330.41,		567.86,		704.72
335.38,		698.14,		457.47
333.3,		695.48,		582.43
331.23,		692.83,		707.38
458.72,		447.34,		454.2
456.65,		444.68,		579.15
454.57,		442.03,		704.11
459.54,		572.3,		456.86
457.47,		569.65,		581.82
455.39,		567.0,		706.77
460.36,		697.27,		459.53
458.28,		694.62,		584.48
456.21,		691.97,		709.44
448.06,		208.67,		210.53
445.3,		205.01,		335.44
442.54,		201.35,		460.36
448.04,		333.62,		214.19
445.28,		329.96,		339.11
442.52,		326.29,		464.02
448.02,		458.56,		217.85
445.26,		454.9,		342.77
442.5,		451.24,		467.69
573.03,		208.61,		213.29
570.27,		204.95,		338.2
567.51,		201.29,		463.12
573.01,		333.56,		216.95
570.25,		329.9,		341.87
567.49,		326.23,		466.78
572.99,		458.5,		220.61
570.23,		454.84,		345.53
567.47,		451.18,		470.44
698.0,		208.55,		216.05
695.24,		204.89,		340.96
692.48,		201.23,		465.88
697.98,		333.5,		219.71
695.22,		329.84,		344.62
692.46,		326.17,		469.54
697.96,		458.44,		223.37
695.2,		454.78,		348.29
692.44,		451.12,		473.2
450.84,		208.82,		448.29
449.73,		209.28,		573.29
448.61,		209.74,		698.28
447.51,		333.78,		447.81
446.39,		334.24,		572.8
445.28,		334.7,		697.79
444.17,		458.73,		447.32
443.06,		459.19,		572.31
441.94,		459.65,		697.31
575.8,		212.16,		449.4
574.68,		212.62,		574.39
573.56,		213.08,		699.39
572.46,		337.12,		448.91
571.35,		337.58,		573.9
570.23,		338.04,		698.9
569.13,		462.07,		448.42
568.01,		462.53,		573.41
566.9,		462.99,		698.41
700.75,		215.5,		450.5
699.63,		215.96,		575.49
698.52,		216.42,		700.49
697.41,		340.46,		450.01
696.3,		340.92,		575.01
695.18,		341.38,		700.0
694.08,		465.41,		449.52
692.96,		465.87,		574.52
691.85,		466.33,		699.51
449.32,		449.93,		208.07
452.39,		448.22,		333.02
455.45,		446.52,		457.98
450.13,		574.91,		209.76
453.19,		573.21,		334.71
456.26,		571.51,		459.66
450.93,		699.9,		211.44
453.99,		698.2,		336.39
457.06,		696.49,		461.34
574.28,		449.17,		205.0
577.35,		447.46,		329.95
580.41,		445.76,		454.9
575.09,		574.15,		206.68
578.15,		572.45,		331.63
581.22,		570.75,		456.58
575.89,		699.14,		208.37
578.95,		697.43,		333.32
582.02,		695.73,		458.27
699.24,		448.4,		201.92
702.31,		446.7,		326.87
705.37,		445.0,		451.82
700.05,		573.39,		203.61
703.11,		571.69,		328.56
706.18,		569.98,		453.51
700.85,		698.38,		205.29
703.91,		696.67,		330.24
706.98,		694.97,		455.19
451.29,		450.83,		448.1
450.9,		453.95,		573.06
450.5,		457.08,		698.02
448.28,		575.75,		444.97
447.88,		578.88,		569.93
447.48,		582.0,		694.89
445.27,		700.68,		441.83
444.87,		703.8,		566.79
444.47,		706.93,		691.75
576.26,		453.85,		448.42
575.86,		456.97,		573.38
575.46,		460.1,		698.34
573.25,		578.77,		445.29
572.85,		581.9,		570.25
572.45,		585.02,		695.21
570.23,		703.7,		442.16
569.83,		706.82,		567.12
569.43,		709.95,		692.08
701.22,		456.87,		448.75
700.82,		460.0,		573.71
700.42,		463.12,		698.67
698.21,		581.79,		445.61
697.81,		584.92,		570.57
697.41,		588.05,		695.53
695.2,		706.72,		442.48
694.8,		709.84,		567.44
694.4,		712.97,		692.4
