27, 8, pa1-debug-b-output1.txt
200.39,		202.86,		192.3
394.32,		392.95,		191.78
210.34,		208.35,		208.82
213.21,		210.63,		333.77
216.09,		212.9,		458.71
208.65,		333.32,		206.58
211.53,		335.6,		331.53
214.4,		337.87,		456.48
206.97,		458.29,		204.35
209.84,		460.56,		329.29
212.72,		462.84,		454.24
335.3,		209.99,		205.91
338.17,		212.26,		330.86
341.05,		214.53,		455.81
333.61,		334.96,		203.68
336.49,		337.23,		328.63
339.36,		339.5,		453.57
331.92,		459.92,		201.44
334.8,		462.2,		326.39
337.67,		464.47,		451.34
460.25,		211.62,		203.01
463.13,		213.89,		327.96
466.0,		216.17,		452.9
458.57,		336.59,		200.77
461.44,		338.86,		325.72
464.32,		341.14,		450.67
456.88,		461.56,		198.54
459.76,		463.83,		323.48
462.63,		466.1,		448.43
210.09,		211.31,		450.5
208.63,		212.88,		575.48
207.16,		214.45,		700.46
211.39,		336.3,		448.95
209.93,		337.86,		573.93
208.46,		339.43,		698.91
212.69,		461.28,		447.4
211.22,		462.85,		572.38
209.76,		464.41,		697.36
335.08,		210.03,		451.98
333.61,		211.6,		576.96
332.15,		213.17,		701.94
336.38,		335.02,		450.43
334.91,		336.58,		575.41
333.44,		338.15,		700.39
337.67,		460.0,		448.88
336.21,		461.57,		573.86
334.74,		463.13,		698.84
460.06,		208.75,		453.46
458.6,		210.32,		578.44
457.13,		211.89,		703.43
461.36,		333.73,		451.91
459.89,		335.3,		576.89
458.43,		336.87,		701.87
462.66,		458.72,		450.36
461.19,		460.29,		575.34
459.73,		461.85,		700.32
211.99,		451.0,		211.63
214.82,		452.65,		336.59
217.64,		454.3,		461.55
209.54,		575.97,		210.04
212.37,		577.62,		335.0
215.19,		579.26,		459.96
207.1,		700.93,		208.45
209.92,		702.58,		333.41
212.74,		704.23,		458.36
336.94,		453.41,		208.78
339.76,		455.06,		333.74
342.58,		456.71,		458.7
334.49,		578.38,		207.19
337.31,		580.03,		332.15
340.13,		581.68,		457.1
332.04,		703.35,		205.59
334.86,		704.99,		330.55
337.68,		706.64,		455.51
461.88,		455.83,		205.93
464.71,		457.48,		330.88
467.53,		459.12,		455.84
459.43,		580.79,		204.33
462.26,		582.44,		329.29
465.08,		584.09,		454.25
456.98,		705.76,		202.74
459.81,		707.41,		327.7
462.63,		709.06,		452.66
211.63,		448.73,		451.79
210.08,		448.78,		576.78
208.52,		448.83,		701.77
208.64,		573.69,		451.7
207.08,		573.75,		576.69
205.53,		573.8,		701.68
205.64,		698.66,		451.61
204.08,		698.71,		576.6
202.53,		698.76,		701.59
336.59,		451.73,		453.34
335.03,		451.78,		578.33
333.48,		451.83,		703.32
333.59,		576.69,		453.25
332.04,		576.74,		578.24
330.48,		576.8,		703.24
330.59,		701.66,		453.17
329.04,		701.71,		578.16
327.48,		701.76,		703.15
461.54,		454.73,		454.9
459.99,		454.78,		579.89
458.43,		454.83,		704.88
458.55,		579.69,		454.81
456.99,		579.74,		579.8
455.44,		579.79,		704.79
455.55,		704.65,		454.72
453.99,		704.71,		579.71
452.44,		704.76,		704.7
448.48,		209.53,		210.66
450.69,		213.1,		335.59
452.9,		216.67,		460.52
447.5,		334.48,		207.11
449.71,		338.05,		332.04
451.92,		341.61,		456.97
446.51,		459.42,		203.56
448.72,		462.99,		328.49
450.93,		466.56,		453.42
573.46,		210.46,		208.42
575.67,		214.02,		333.35
577.88,		217.59,		458.28
572.47,		335.4,		204.87
574.68,		338.97,		329.8
576.89,		342.53,		454.73
571.49,		460.35,		201.32
573.7,		463.91,		326.25
575.91,		467.48,		451.18
698.43,		211.38,		206.19
700.64,		214.94,		331.12
702.86,		218.51,		456.04
697.45,		336.32,		202.64
699.66,		339.89,		327.57
701.87,		343.46,		452.5
696.46,		461.27,		199.09
698.67,		464.84,		324.02
700.88,		468.4,		448.95
449.43,		208.55,		448.58
447.23,		211.64,		573.52
445.03,		214.73,		698.46
447.4,		333.49,		445.45
445.2,		336.58,		570.39
443.0,		339.67,		695.34
445.38,		458.44,		442.32
443.17,		461.53,		567.27
440.97,		464.62,		692.21
574.4,		210.63,		450.73
572.19,		213.72,		575.67
569.99,		216.81,		700.61
572.37,		335.57,		447.6
570.17,		338.66,		572.54
567.96,		341.75,		697.49
570.34,		460.52,		444.47
568.14,		463.61,		569.42
565.94,		466.7,		694.36
699.36,		212.71,		452.88
697.16,		215.8,		577.82
694.96,		218.89,		702.76
697.33,		337.65,		449.75
695.13,		340.75,		574.69
692.93,		343.84,		699.64
695.3,		462.6,		446.63
693.1,		465.69,		571.57
690.9,		468.78,		696.51
449.3,		451.55,		208.28
447.06,		448.42,		333.22
444.81,		445.3,		458.16
447.61,		576.5,		211.37
445.37,		573.37,		336.32
443.12,		570.25,		461.26
445.92,		701.45,		214.47
443.68,		698.32,		339.41
441.43,		695.2,		464.35
574.27,		453.18,		210.56
572.02,		450.06,		335.51
569.78,		446.93,		460.45
572.58,		578.14,		213.66
570.34,		575.01,		338.6
568.09,		571.88,		463.54
570.89,		703.09,		216.76
568.65,		699.96,		341.7
566.4,		696.83,		466.64
699.24,		454.82,		212.85
696.99,		451.69,		337.79
694.75,		448.56,		462.73
697.55,		579.77,		215.95
695.3,		576.64,		340.89
693.06,		573.51,		465.83
695.86,		704.72,		219.05
693.61,		701.59,		343.99
691.37,		698.46,		468.93
450.16,		450.75,		451.32
453.17,		451.11,		576.28
456.19,		451.47,		701.25
447.08,		575.71,		451.03
450.09,		576.07,		576.0
453.11,		576.43,		700.96
444.0,		700.67,		450.75
447.01,		701.03,		575.71
450.02,		701.4,		700.67
575.09,		453.82,		448.3
578.1,		454.19,		573.26
581.11,		454.55,		698.23
572.0,		578.79,		448.01
575.02,		579.15,		572.97
578.03,		579.51,		697.94
568.92,		703.75,		447.72
571.93,		704.11,		572.69
574.95,		704.47,		697.65
700.01,		456.9,		445.28
703.03,		457.26,		570.24
706.04,		457.62,		695.2
696.93,		581.86,		444.99
699.94,		582.22,		569.95
702.96,		582.58,		694.92
693.85,		706.82,		444.7
696.86,		707.18,		569.67
699.87,		707.55,		694.63
